%!PS-Adobe-3.0 EPSF-3.0
%%Creator: (MATLAB, The Mathworks, Inc. Version 9.4.0.813654 \(R2018a\). Operating System: Linux)
%%Title: /data/geodynamo/natafh/Dynamo/Acoustics/elastic_shell_library/checking_scripts/Figures/BigSister_sodium_frequency_shifts_zoom.eps
%%CreationDate: 2019-07-02T17:05:12
%%Pages: (atend)
%%BoundingBox: 0 0 450 600
%%LanguageLevel: 3
%%EndComments
%%BeginProlog
%%BeginResource: procset (Apache XML Graphics Std ProcSet) 1.2 0
%%Version: 1.2 0
%%Copyright: (Copyright 2001-2003,2010 The Apache Software Foundation. License terms: http://www.apache.org/licenses/LICENSE-2.0)
/bd{bind def}bind def
/ld{load def}bd
/GR/grestore ld
/GS/gsave ld
/RM/rmoveto ld
/C/curveto ld
/t/show ld
/L/lineto ld
/ML/setmiterlimit ld
/CT/concat ld
/f/fill ld
/N/newpath ld
/S/stroke ld
/CC/setcmykcolor ld
/A/ashow ld
/cp/closepath ld
/RC/setrgbcolor ld
/LJ/setlinejoin ld
/GC/setgray ld
/LW/setlinewidth ld
/M/moveto ld
/re {4 2 roll M
1 index 0 rlineto
0 exch rlineto
neg 0 rlineto
cp } bd
/_ctm matrix def
/_tm matrix def
/BT { _ctm currentmatrix pop matrix _tm copy pop 0 0 moveto } bd
/ET { _ctm setmatrix } bd
/iTm { _ctm setmatrix _tm concat } bd
/Tm { _tm astore pop iTm 0 0 moveto } bd
/ux 0.0 def
/uy 0.0 def
/F {
  /Tp exch def
  /Tf exch def
  Tf findfont Tp scalefont setfont
  /cf Tf def  /cs Tp def
} bd
/ULS {currentpoint /uy exch def /ux exch def} bd
/ULE {
  /Tcx currentpoint pop def
  gsave
  newpath
  cf findfont cs scalefont dup
  /FontMatrix get 0 get /Ts exch def /FontInfo get dup
  /UnderlinePosition get Ts mul /To exch def
  /UnderlineThickness get Ts mul /Tt exch def
  ux uy To add moveto  Tcx uy To add lineto
  Tt setlinewidth stroke
  grestore
} bd
/OLE {
  /Tcx currentpoint pop def
  gsave
  newpath
  cf findfont cs scalefont dup
  /FontMatrix get 0 get /Ts exch def /FontInfo get dup
  /UnderlinePosition get Ts mul /To exch def
  /UnderlineThickness get Ts mul /Tt exch def
  ux uy To add cs add moveto Tcx uy To add cs add lineto
  Tt setlinewidth stroke
  grestore
} bd
/SOE {
  /Tcx currentpoint pop def
  gsave
  newpath
  cf findfont cs scalefont dup
  /FontMatrix get 0 get /Ts exch def /FontInfo get dup
  /UnderlinePosition get Ts mul /To exch def
  /UnderlineThickness get Ts mul /Tt exch def
  ux uy To add cs 10 mul 26 idiv add moveto Tcx uy To add cs 10 mul 26 idiv add lineto
  Tt setlinewidth stroke
  grestore
} bd
/QT {
/Y22 exch store
/X22 exch store
/Y21 exch store
/X21 exch store
currentpoint
/Y21 load 2 mul add 3 div exch
/X21 load 2 mul add 3 div exch
/X21 load 2 mul /X22 load add 3 div
/Y21 load 2 mul /Y22 load add 3 div
/X22 load /Y22 load curveto
} bd
/SSPD {
dup length /d exch dict def
{
/v exch def
/k exch def
currentpagedevice k known {
/cpdv currentpagedevice k get def
v cpdv ne {
/upd false def
/nullv v type /nulltype eq def
/nullcpdv cpdv type /nulltype eq def
nullv nullcpdv or
{
/upd true def
} {
/sametype v type cpdv type eq def
sametype {
v type /arraytype eq {
/vlen v length def
/cpdvlen cpdv length def
vlen cpdvlen eq {
0 1 vlen 1 sub {
/i exch def
/obj v i get def
/cpdobj cpdv i get def
obj cpdobj ne {
/upd true def
exit
} if
} for
} {
/upd true def
} ifelse
} {
v type /dicttype eq {
v {
/dv exch def
/dk exch def
/cpddv cpdv dk get def
dv cpddv ne {
/upd true def
exit
} if
} forall
} {
/upd true def
} ifelse
} ifelse
} if
} ifelse
upd true eq {
d k v put
} if
} if
} if
} forall
d length 0 gt {
d setpagedevice
} if
} bd
/RE { % /NewFontName [NewEncodingArray] /FontName RE -
  findfont dup length dict begin
  {
    1 index /FID ne
    {def} {pop pop} ifelse
  } forall
  /Encoding exch def
  /FontName 1 index def
  currentdict definefont pop
  end
} bind def
%%EndResource
%%BeginResource: procset (Apache XML Graphics EPS ProcSet) 1.0 0
%%Version: 1.0 0
%%Copyright: (Copyright 2002-2003 The Apache Software Foundation. License terms: http://www.apache.org/licenses/LICENSE-2.0)
/BeginEPSF { %def
/b4_Inc_state save def         % Save state for cleanup
/dict_count countdictstack def % Count objects on dict stack
/op_count count 1 sub def      % Count objects on operand stack
userdict begin                 % Push userdict on dict stack
/showpage { } def              % Redefine showpage, { } = null proc
0 setgray 0 setlinecap         % Prepare graphics state
1 setlinewidth 0 setlinejoin
10 setmiterlimit [ ] 0 setdash newpath
/languagelevel where           % If level not equal to 1 then
{pop languagelevel             % set strokeadjust and
1 ne                           % overprint to their defaults.
{false setstrokeadjust false setoverprint
} if
} if
} bd
/EndEPSF { %def
count op_count sub {pop} repeat            % Clean up stacks
countdictstack dict_count sub {end} repeat
b4_Inc_state restore
} bd
%%EndResource
%FOPBeginFontDict
%%IncludeResource: font Courier-Oblique
%%IncludeResource: font Courier-BoldOblique
%%IncludeResource: font Courier-Bold
%%IncludeResource: font ZapfDingbats
%%IncludeResource: font Symbol
%%IncludeResource: font Helvetica
%%IncludeResource: font Helvetica-Oblique
%%IncludeResource: font Helvetica-Bold
%%IncludeResource: font Helvetica-BoldOblique
%%IncludeResource: font Times-Roman
%%IncludeResource: font Times-Italic
%%IncludeResource: font Times-Bold
%%IncludeResource: font Times-BoldItalic
%%IncludeResource: font Courier
%FOPEndFontDict
%%BeginResource: encoding WinAnsiEncoding
/WinAnsiEncoding [
/.notdef /.notdef /.notdef /.notdef /.notdef
/.notdef /.notdef /.notdef /.notdef /.notdef
/.notdef /.notdef /.notdef /.notdef /.notdef
/.notdef /.notdef /.notdef /.notdef /.notdef
/.notdef /.notdef /.notdef /.notdef /.notdef
/.notdef /.notdef /.notdef /.notdef /.notdef
/.notdef /.notdef /space /exclam /quotedbl
/numbersign /dollar /percent /ampersand /quotesingle
/parenleft /parenright /asterisk /plus /comma
/hyphen /period /slash /zero /one
/two /three /four /five /six
/seven /eight /nine /colon /semicolon
/less /equal /greater /question /at
/A /B /C /D /E
/F /G /H /I /J
/K /L /M /N /O
/P /Q /R /S /T
/U /V /W /X /Y
/Z /bracketleft /backslash /bracketright /asciicircum
/underscore /quoteleft /a /b /c
/d /e /f /g /h
/i /j /k /l /m
/n /o /p /q /r
/s /t /u /v /w
/x /y /z /braceleft /bar
/braceright /asciitilde /bullet /Euro /bullet
/quotesinglbase /florin /quotedblbase /ellipsis /dagger
/daggerdbl /circumflex /perthousand /Scaron /guilsinglleft
/OE /bullet /Zcaron /bullet /bullet
/quoteleft /quoteright /quotedblleft /quotedblright /bullet
/endash /emdash /asciitilde /trademark /scaron
/guilsinglright /oe /bullet /zcaron /Ydieresis
/space /exclamdown /cent /sterling /currency
/yen /brokenbar /section /dieresis /copyright
/ordfeminine /guillemotleft /logicalnot /sfthyphen /registered
/macron /degree /plusminus /twosuperior /threesuperior
/acute /mu /paragraph /middot /cedilla
/onesuperior /ordmasculine /guillemotright /onequarter /onehalf
/threequarters /questiondown /Agrave /Aacute /Acircumflex
/Atilde /Adieresis /Aring /AE /Ccedilla
/Egrave /Eacute /Ecircumflex /Edieresis /Igrave
/Iacute /Icircumflex /Idieresis /Eth /Ntilde
/Ograve /Oacute /Ocircumflex /Otilde /Odieresis
/multiply /Oslash /Ugrave /Uacute /Ucircumflex
/Udieresis /Yacute /Thorn /germandbls /agrave
/aacute /acircumflex /atilde /adieresis /aring
/ae /ccedilla /egrave /eacute /ecircumflex
/edieresis /igrave /iacute /icircumflex /idieresis
/eth /ntilde /ograve /oacute /ocircumflex
/otilde /odieresis /divide /oslash /ugrave
/uacute /ucircumflex /udieresis /yacute /thorn
/ydieresis
] def
%%EndResource
%FOPBeginFontReencode
/Courier-Oblique findfont
dup length dict begin
  {1 index /FID ne {def} {pop pop} ifelse} forall
  /Encoding WinAnsiEncoding def
  currentdict
end
/Courier-Oblique exch definefont pop
/Courier-BoldOblique findfont
dup length dict begin
  {1 index /FID ne {def} {pop pop} ifelse} forall
  /Encoding WinAnsiEncoding def
  currentdict
end
/Courier-BoldOblique exch definefont pop
/Courier-Bold findfont
dup length dict begin
  {1 index /FID ne {def} {pop pop} ifelse} forall
  /Encoding WinAnsiEncoding def
  currentdict
end
/Courier-Bold exch definefont pop
/Helvetica findfont
dup length dict begin
  {1 index /FID ne {def} {pop pop} ifelse} forall
  /Encoding WinAnsiEncoding def
  currentdict
end
/Helvetica exch definefont pop
/Helvetica-Oblique findfont
dup length dict begin
  {1 index /FID ne {def} {pop pop} ifelse} forall
  /Encoding WinAnsiEncoding def
  currentdict
end
/Helvetica-Oblique exch definefont pop
/Helvetica-Bold findfont
dup length dict begin
  {1 index /FID ne {def} {pop pop} ifelse} forall
  /Encoding WinAnsiEncoding def
  currentdict
end
/Helvetica-Bold exch definefont pop
/Helvetica-BoldOblique findfont
dup length dict begin
  {1 index /FID ne {def} {pop pop} ifelse} forall
  /Encoding WinAnsiEncoding def
  currentdict
end
/Helvetica-BoldOblique exch definefont pop
/Times-Roman findfont
dup length dict begin
  {1 index /FID ne {def} {pop pop} ifelse} forall
  /Encoding WinAnsiEncoding def
  currentdict
end
/Times-Roman exch definefont pop
/Times-Italic findfont
dup length dict begin
  {1 index /FID ne {def} {pop pop} ifelse} forall
  /Encoding WinAnsiEncoding def
  currentdict
end
/Times-Italic exch definefont pop
/Times-Bold findfont
dup length dict begin
  {1 index /FID ne {def} {pop pop} ifelse} forall
  /Encoding WinAnsiEncoding def
  currentdict
end
/Times-Bold exch definefont pop
/Times-BoldItalic findfont
dup length dict begin
  {1 index /FID ne {def} {pop pop} ifelse} forall
  /Encoding WinAnsiEncoding def
  currentdict
end
/Times-BoldItalic exch definefont pop
/Courier findfont
dup length dict begin
  {1 index /FID ne {def} {pop pop} ifelse} forall
  /Encoding WinAnsiEncoding def
  currentdict
end
/Courier exch definefont pop
%FOPEndFontReencode
%%EndProlog
%%Page: 1 1
%%PageBoundingBox: 0 0 450 600
%%BeginPageSetup
[1 0 0 -1 0 600] CT
%%EndPageSetup
GS
[0.75 0 0 0.75 0 0] CT
1 GC
N
0 0 600 800 re
f
GR
GS
[0.75 0 0 0.75 0 0] CT
1 GC
N
0 0 600 800 re
f
GR
GS
[0.75 0 0 0.75 0 0] CT
1 GC
N
78 712 M
543 712 L
543 60 L
78 60 L
cp
f
GR
GS
[0.75 0 0 0.75 0 0] CT
0.873 GC
1 LJ
0.667 LW
N
78 712 M
78 60 L
S
GR
GS
[0.75 0 0 0.75 0 0] CT
0.873 GC
1 LJ
0.667 LW
N
129.667 712 M
129.667 60 L
S
GR
GS
[0.75 0 0 0.75 0 0] CT
0.873 GC
1 LJ
0.667 LW
N
181.333 712 M
181.333 60 L
S
GR
GS
[0.75 0 0 0.75 0 0] CT
0.873 GC
1 LJ
0.667 LW
N
233 712 M
233 60 L
S
GR
GS
[0.75 0 0 0.75 0 0] CT
0.873 GC
1 LJ
0.667 LW
N
284.667 712 M
284.667 60 L
S
GR
GS
[0.75 0 0 0.75 0 0] CT
0.873 GC
1 LJ
0.667 LW
N
336.333 712 M
336.333 60 L
S
GR
GS
[0.75 0 0 0.75 0 0] CT
0.873 GC
1 LJ
0.667 LW
N
388 712 M
388 60 L
S
GR
GS
[0.75 0 0 0.75 0 0] CT
0.873 GC
1 LJ
0.667 LW
N
439.667 712 M
439.667 60 L
S
GR
GS
[0.75 0 0 0.75 0 0] CT
0.873 GC
1 LJ
0.667 LW
N
491.333 712 M
491.333 60 L
S
GR
GS
[0.75 0 0 0.75 0 0] CT
0.873 GC
1 LJ
0.667 LW
N
543 712 M
543 60 L
S
GR
GS
[0.75 0 0 0.75 0 0] CT
0.873 GC
1 LJ
0.667 LW
N
543 712 M
78 712 L
S
GR
GS
[0.75 0 0 0.75 0 0] CT
0.873 GC
1 LJ
0.667 LW
N
543 646.8 M
78 646.8 L
S
GR
GS
[0.75 0 0 0.75 0 0] CT
0.873 GC
1 LJ
0.667 LW
N
543 581.6 M
78 581.6 L
S
GR
GS
[0.75 0 0 0.75 0 0] CT
0.873 GC
1 LJ
0.667 LW
N
543 516.4 M
78 516.4 L
S
GR
GS
[0.75 0 0 0.75 0 0] CT
0.873 GC
1 LJ
0.667 LW
N
543 451.2 M
78 451.2 L
S
GR
GS
[0.75 0 0 0.75 0 0] CT
0.873 GC
1 LJ
0.667 LW
N
543 386 M
78 386 L
S
GR
GS
[0.75 0 0 0.75 0 0] CT
0.873 GC
1 LJ
0.667 LW
N
543 320.8 M
78 320.8 L
S
GR
GS
[0.75 0 0 0.75 0 0] CT
0.873 GC
1 LJ
0.667 LW
N
543 255.6 M
78 255.6 L
S
GR
GS
[0.75 0 0 0.75 0 0] CT
0.873 GC
1 LJ
0.667 LW
N
543 190.4 M
78 190.4 L
S
GR
GS
[0.75 0 0 0.75 0 0] CT
0.873 GC
1 LJ
0.667 LW
N
543 125.2 M
78 125.2 L
S
GR
GS
[0.75 0 0 0.75 0 0] CT
0.873 GC
1 LJ
0.667 LW
N
543 60 M
78 60 L
S
GR
GS
[0.75 0 0 0.75 0 0] CT
0.149 GC
2 setlinecap
1 LJ
0.667 LW
N
78 712 M
543 712 L
S
GR
GS
[0.75 0 0 0.75 0 0] CT
0.149 GC
2 setlinecap
1 LJ
0.667 LW
N
78 60 M
543 60 L
S
GR
GS
[0.75 0 0 0.75 0 0] CT
0.149 GC
2 setlinecap
1 LJ
0.667 LW
N
78 712 M
78 705.48 L
S
GR
GS
[0.75 0 0 0.75 0 0] CT
0.149 GC
2 setlinecap
1 LJ
0.667 LW
N
129.667 712 M
129.667 705.48 L
S
GR
GS
[0.75 0 0 0.75 0 0] CT
0.149 GC
2 setlinecap
1 LJ
0.667 LW
N
181.333 712 M
181.333 705.48 L
S
GR
GS
[0.75 0 0 0.75 0 0] CT
0.149 GC
2 setlinecap
1 LJ
0.667 LW
N
233 712 M
233 705.48 L
S
GR
GS
[0.75 0 0 0.75 0 0] CT
0.149 GC
2 setlinecap
1 LJ
0.667 LW
N
284.667 712 M
284.667 705.48 L
S
GR
GS
[0.75 0 0 0.75 0 0] CT
0.149 GC
2 setlinecap
1 LJ
0.667 LW
N
336.333 712 M
336.333 705.48 L
S
GR
GS
[0.75 0 0 0.75 0 0] CT
0.149 GC
2 setlinecap
1 LJ
0.667 LW
N
388 712 M
388 705.48 L
S
GR
GS
[0.75 0 0 0.75 0 0] CT
0.149 GC
2 setlinecap
1 LJ
0.667 LW
N
439.667 712 M
439.667 705.48 L
S
GR
GS
[0.75 0 0 0.75 0 0] CT
0.149 GC
2 setlinecap
1 LJ
0.667 LW
N
491.333 712 M
491.333 705.48 L
S
GR
GS
[0.75 0 0 0.75 0 0] CT
0.149 GC
2 setlinecap
1 LJ
0.667 LW
N
543 712 M
543 705.48 L
S
GR
GS
[0.75 0 0 0.75 0 0] CT
0.149 GC
2 setlinecap
1 LJ
0.667 LW
N
78 60 M
78 66.52 L
S
GR
GS
[0.75 0 0 0.75 0 0] CT
0.149 GC
2 setlinecap
1 LJ
0.667 LW
N
129.667 60 M
129.667 66.52 L
S
GR
GS
[0.75 0 0 0.75 0 0] CT
0.149 GC
2 setlinecap
1 LJ
0.667 LW
N
181.333 60 M
181.333 66.52 L
S
GR
GS
[0.75 0 0 0.75 0 0] CT
0.149 GC
2 setlinecap
1 LJ
0.667 LW
N
233 60 M
233 66.52 L
S
GR
GS
[0.75 0 0 0.75 0 0] CT
0.149 GC
2 setlinecap
1 LJ
0.667 LW
N
284.667 60 M
284.667 66.52 L
S
GR
GS
[0.75 0 0 0.75 0 0] CT
0.149 GC
2 setlinecap
1 LJ
0.667 LW
N
336.333 60 M
336.333 66.52 L
S
GR
GS
[0.75 0 0 0.75 0 0] CT
0.149 GC
2 setlinecap
1 LJ
0.667 LW
N
388 60 M
388 66.52 L
S
GR
GS
[0.75 0 0 0.75 0 0] CT
0.149 GC
2 setlinecap
1 LJ
0.667 LW
N
439.667 60 M
439.667 66.52 L
S
GR
GS
[0.75 0 0 0.75 0 0] CT
0.149 GC
2 setlinecap
1 LJ
0.667 LW
N
491.333 60 M
491.333 66.52 L
S
GR
GS
[0.75 0 0 0.75 0 0] CT
0.149 GC
2 setlinecap
1 LJ
0.667 LW
N
543 60 M
543 66.52 L
S
GR
GS
[0.75 0 0 0.75 58.5 537.99998] CT
0.149 GC
/Helvetica 13.333 F
GS
[1 0 0 1 0 0] CT
-4.5 13 moveto 
1 -1 scale
(0) t 
GR
GR
GS
[0.75 0 0 0.75 97.25 537.99998] CT
0.149 GC
/Helvetica 13.333 F
GS
[1 0 0 1 0 0] CT
-4.5 13 moveto 
1 -1 scale
(2) t 
GR
GR
GS
[0.75 0 0 0.75 136 537.99998] CT
0.149 GC
/Helvetica 13.333 F
GS
[1 0 0 1 0 0] CT
-4.5 13 moveto 
1 -1 scale
(4) t 
GR
GR
GS
[0.75 0 0 0.75 174.75 537.99998] CT
0.149 GC
/Helvetica 13.333 F
GS
[1 0 0 1 0 0] CT
-4.5 13 moveto 
1 -1 scale
(6) t 
GR
GR
GS
[0.75 0 0 0.75 213.49999 537.99998] CT
0.149 GC
/Helvetica 13.333 F
GS
[1 0 0 1 0 0] CT
-4.5 13 moveto 
1 -1 scale
(8) t 
GR
GR
GS
[0.75 0 0 0.75 252.25001 537.99998] CT
0.149 GC
/Helvetica 13.333 F
GS
[1 0 0 1 0 0] CT
-8.5 13 moveto 
1 -1 scale
(10) t 
GR
GR
GS
[0.75 0 0 0.75 291 537.99998] CT
0.149 GC
/Helvetica 13.333 F
GS
[1 0 0 1 0 0] CT
-8.5 13 moveto 
1 -1 scale
(12) t 
GR
GR
GS
[0.75 0 0 0.75 329.74999 537.99998] CT
0.149 GC
/Helvetica 13.333 F
GS
[1 0 0 1 0 0] CT
-8.5 13 moveto 
1 -1 scale
(14) t 
GR
GR
GS
[0.75 0 0 0.75 368.50001 537.99998] CT
0.149 GC
/Helvetica 13.333 F
GS
[1 0 0 1 0 0] CT
-8.5 13 moveto 
1 -1 scale
(16) t 
GR
GR
GS
[0.75 0 0 0.75 407.25 537.99998] CT
0.149 GC
/Helvetica 13.333 F
GS
[1 0 0 1 0 0] CT
-8.5 13 moveto 
1 -1 scale
(18) t 
GR
GR
GS
[0.75 0 0 0.75 232.87516 551.75002] CT
0.149 GC
/Helvetica 14.667 F
GS
[1 0 0 1 0 0] CT
-86.5 14 moveto 
1 -1 scale
(mode angular number l) t 
GR
GR
GS
[0.75 0 0 0.75 0 0] CT
0.149 GC
2 setlinecap
1 LJ
0.667 LW
N
78 712 M
78 60 L
S
GR
GS
[0.75 0 0 0.75 0 0] CT
0.149 GC
2 setlinecap
1 LJ
0.667 LW
N
543 712 M
543 60 L
S
GR
GS
[0.75 0 0 0.75 0 0] CT
0.149 GC
2 setlinecap
1 LJ
0.667 LW
N
78 712 M
84.52 712 L
S
GR
GS
[0.75 0 0 0.75 0 0] CT
0.149 GC
2 setlinecap
1 LJ
0.667 LW
N
78 646.8 M
84.52 646.8 L
S
GR
GS
[0.75 0 0 0.75 0 0] CT
0.149 GC
2 setlinecap
1 LJ
0.667 LW
N
78 581.6 M
84.52 581.6 L
S
GR
GS
[0.75 0 0 0.75 0 0] CT
0.149 GC
2 setlinecap
1 LJ
0.667 LW
N
78 516.4 M
84.52 516.4 L
S
GR
GS
[0.75 0 0 0.75 0 0] CT
0.149 GC
2 setlinecap
1 LJ
0.667 LW
N
78 451.2 M
84.52 451.2 L
S
GR
GS
[0.75 0 0 0.75 0 0] CT
0.149 GC
2 setlinecap
1 LJ
0.667 LW
N
78 386 M
84.52 386 L
S
GR
GS
[0.75 0 0 0.75 0 0] CT
0.149 GC
2 setlinecap
1 LJ
0.667 LW
N
78 320.8 M
84.52 320.8 L
S
GR
GS
[0.75 0 0 0.75 0 0] CT
0.149 GC
2 setlinecap
1 LJ
0.667 LW
N
78 255.6 M
84.52 255.6 L
S
GR
GS
[0.75 0 0 0.75 0 0] CT
0.149 GC
2 setlinecap
1 LJ
0.667 LW
N
78 190.4 M
84.52 190.4 L
S
GR
GS
[0.75 0 0 0.75 0 0] CT
0.149 GC
2 setlinecap
1 LJ
0.667 LW
N
78 125.2 M
84.52 125.2 L
S
GR
GS
[0.75 0 0 0.75 0 0] CT
0.149 GC
2 setlinecap
1 LJ
0.667 LW
N
78 60 M
84.52 60 L
S
GR
GS
[0.75 0 0 0.75 0 0] CT
0.149 GC
2 setlinecap
1 LJ
0.667 LW
N
543 712 M
536.48 712 L
S
GR
GS
[0.75 0 0 0.75 0 0] CT
0.149 GC
2 setlinecap
1 LJ
0.667 LW
N
543 646.8 M
536.48 646.8 L
S
GR
GS
[0.75 0 0 0.75 0 0] CT
0.149 GC
2 setlinecap
1 LJ
0.667 LW
N
543 581.6 M
536.48 581.6 L
S
GR
GS
[0.75 0 0 0.75 0 0] CT
0.149 GC
2 setlinecap
1 LJ
0.667 LW
N
543 516.4 M
536.48 516.4 L
S
GR
GS
[0.75 0 0 0.75 0 0] CT
0.149 GC
2 setlinecap
1 LJ
0.667 LW
N
543 451.2 M
536.48 451.2 L
S
GR
GS
[0.75 0 0 0.75 0 0] CT
0.149 GC
2 setlinecap
1 LJ
0.667 LW
N
543 386 M
536.48 386 L
S
GR
GS
[0.75 0 0 0.75 0 0] CT
0.149 GC
2 setlinecap
1 LJ
0.667 LW
N
543 320.8 M
536.48 320.8 L
S
GR
GS
[0.75 0 0 0.75 0 0] CT
0.149 GC
2 setlinecap
1 LJ
0.667 LW
N
543 255.6 M
536.48 255.6 L
S
GR
GS
[0.75 0 0 0.75 0 0] CT
0.149 GC
2 setlinecap
1 LJ
0.667 LW
N
543 190.4 M
536.48 190.4 L
S
GR
GS
[0.75 0 0 0.75 0 0] CT
0.149 GC
2 setlinecap
1 LJ
0.667 LW
N
543 125.2 M
536.48 125.2 L
S
GR
GS
[0.75 0 0 0.75 0 0] CT
0.149 GC
2 setlinecap
1 LJ
0.667 LW
N
543 60 M
536.48 60 L
S
GR
GS
[0.75 0 0 0.75 54.5 534] CT
0.149 GC
/Helvetica 13.333 F
GS
[1 0 0 1 0 0] CT
-9 4.5 moveto 
1 -1 scale
(0) t 
GR
GR
GS
[0.75 0 0 0.75 54.5 485.09999] CT
0.149 GC
/Helvetica 13.333 F
GS
[1 0 0 1 0 0] CT
-26 4.5 moveto 
1 -1 scale
(100) t 
GR
GR
GS
[0.75 0 0 0.75 54.5 436.19998] CT
0.149 GC
/Helvetica 13.333 F
GS
[1 0 0 1 0 0] CT
-26 4.5 moveto 
1 -1 scale
(200) t 
GR
GR
GS
[0.75 0 0 0.75 54.5 387.30002] CT
0.149 GC
/Helvetica 13.333 F
GS
[1 0 0 1 0 0] CT
-26 4.5 moveto 
1 -1 scale
(300) t 
GR
GR
GS
[0.75 0 0 0.75 54.5 338.40001] CT
0.149 GC
/Helvetica 13.333 F
GS
[1 0 0 1 0 0] CT
-26 4.5 moveto 
1 -1 scale
(400) t 
GR
GR
GS
[0.75 0 0 0.75 54.5 289.5] CT
0.149 GC
/Helvetica 13.333 F
GS
[1 0 0 1 0 0] CT
-26 4.5 moveto 
1 -1 scale
(500) t 
GR
GR
GS
[0.75 0 0 0.75 54.5 240.59999] CT
0.149 GC
/Helvetica 13.333 F
GS
[1 0 0 1 0 0] CT
-26 4.5 moveto 
1 -1 scale
(600) t 
GR
GR
GS
[0.75 0 0 0.75 54.5 191.7] CT
0.149 GC
/Helvetica 13.333 F
GS
[1 0 0 1 0 0] CT
-26 4.5 moveto 
1 -1 scale
(700) t 
GR
GR
GS
[0.75 0 0 0.75 54.5 142.8] CT
0.149 GC
/Helvetica 13.333 F
GS
[1 0 0 1 0 0] CT
-26 4.5 moveto 
1 -1 scale
(800) t 
GR
GR
GS
[0.75 0 0 0.75 54.5 93.9] CT
0.149 GC
/Helvetica 13.333 F
GS
[1 0 0 1 0 0] CT
-26 4.5 moveto 
1 -1 scale
(900) t 
GR
GR
GS
[0.75 0 0 0.75 54.5 45] CT
0.149 GC
/Helvetica 13.333 F
GS
[1 0 0 1 0 0] CT
-34 4.5 moveto 
1 -1 scale
(1000) t 
GR
GR
GS
[0 -0.75 0.75 0 26 289.49977] CT
0.149 GC
/Helvetica 14.667 F
GS
[1 0 0 1 0 0] CT
-157 -4 moveto 
1 -1 scale
(mode frequency \(Hz\) \(csound = 2500 m/s\)) t 
GR
GR
GS
[0.75 0 0 0.75 61.5 27] CT
/Helvetica-Bold 11.733 F
GS
[1 0 0 1 0 0] CT
0 0 moveto 
1 -1 scale
(n) t 
GR
GR
GS
[0.75 0 0 0.75 68.25 21.75] CT
/Helvetica-Bold 14.667 F
GS
[1 0 0 1 0 0] CT
0 0 moveto 
1 -1 scale
(S) t 
GR
GR
GS
[0.75 0 0 0.75 76.5 27] CT
/Helvetica-Bold 11.733 F
GS
[1 0 0 1 0 0] CT
0 0 moveto 
1 -1 scale
(l) t 
GR
GR
GS
[0.75 0 0 0.75 80.25 21.75] CT
/Helvetica-Bold 14.667 F
GS
[1 0 0 1 0 0] CT
0 0 moveto 
1 -1 scale
( mode frequencies for elastic or rigid spherical shell) t 
GR
GR
GS
[0.75 0 0 0.75 163.5 39.75] CT
/Helvetica-Bold 14.667 F
GS
[1 0 0 1 0 0] CT
0 0 moveto 
1 -1 scale
(BigSister-sodium-rigid) t 
GR
GR
GS
[0.75 0 0 0.75 58.5 534] CT
1 0 0 RC
N
4 0 M
4 -2.209 2.209 -4 0 -4 C
-2.209 -4 -4 -2.209 -4 0 C
-4 2.209 -2.209 4 0 4 C
2.209 4 4 2.209 4 0 C
cp
f
GR
GS
[0.75 0 0 0.75 58.5 534] CT
1 0 0 RC
10.0 ML
N
4 0 M
4 -2.209 2.209 -4 0 -4 C
-2.209 -4 -4 -2.209 -4 0 C
-4 2.209 -2.209 4 0 4 C
2.209 4 4 2.209 4 0 C
cp
S
GR
GS
[0.75 0 0 0.75 77.875 506.32407] CT
1 0 0 RC
N
/f351177404{4 0 M
4 -2.209 2.209 -4 0 -4 C
-2.209 -4 -4 -2.209 -4 0 C
-4 2.209 -2.209 4 0 4 C
2.209 4 4 2.209 4 0 C
cp}def
f351177404
f
GR
GS
[0.75 0 0 0.75 77.875 506.32407] CT
1 0 0 RC
10.0 ML
N
4 0 M
4 -2.209 2.209 -4 0 -4 C
-2.209 -4 -4 -2.209 -4 0 C
-4 2.209 -2.209 4 0 4 C
2.209 4 4 2.209 4 0 C
cp
S
GR
GS
[0.75 0 0 0.75 97.25 506.37497] CT
1 0 0 RC
N
f351177404
f
GR
GS
[0.75 0 0 0.75 97.25 506.37497] CT
1 0 0 RC
10.0 ML
N
4 0 M
4 -2.209 2.209 -4 0 -4 C
-2.209 -4 -4 -2.209 -4 0 C
-4 2.209 -2.209 4 0 4 C
2.209 4 4 2.209 4 0 C
cp
S
GR
GS
[0.75 0 0 0.75 116.625 506.45192] CT
1 0 0 RC
N
f351177404
f
GR
GS
[0.75 0 0 0.75 116.625 506.45192] CT
1 0 0 RC
10.0 ML
N
4 0 M
4 -2.209 2.209 -4 0 -4 C
-2.209 -4 -4 -2.209 -4 0 C
-4 2.209 -2.209 4 0 4 C
2.209 4 4 2.209 4 0 C
cp
S
GR
GS
[0.75 0 0 0.75 136 506.55547] CT
1 0 0 RC
N
f351177404
f
GR
GS
[0.75 0 0 0.75 136 506.55547] CT
1 0 0 RC
10.0 ML
N
4 0 M
4 -2.209 2.209 -4 0 -4 C
-2.209 -4 -4 -2.209 -4 0 C
-4 2.209 -2.209 4 0 4 C
2.209 4 4 2.209 4 0 C
cp
S
GR
GS
[0.75 0 0 0.75 155.375 506.68648] CT
1 0 0 RC
N
f351177404
f
GR
GS
[0.75 0 0 0.75 155.375 506.68648] CT
1 0 0 RC
10.0 ML
N
4 0 M
4 -2.209 2.209 -4 0 -4 C
-2.209 -4 -4 -2.209 -4 0 C
-4 2.209 -2.209 4 0 4 C
2.209 4 4 2.209 4 0 C
cp
S
GR
GS
[0.75 0 0 0.75 174.75 506.84583] CT
1 0 0 RC
N
f351177404
f
GR
GS
[0.75 0 0 0.75 174.75 506.84583] CT
1 0 0 RC
10.0 ML
N
4 0 M
4 -2.209 2.209 -4 0 -4 C
-2.209 -4 -4 -2.209 -4 0 C
-4 2.209 -2.209 4 0 4 C
2.209 4 4 2.209 4 0 C
cp
S
GR
GS
[0.75 0 0 0.75 194.12501 507.03465] CT
1 0 0 RC
N
f351177404
f
GR
GS
[0.75 0 0 0.75 194.12501 507.03465] CT
1 0 0 RC
10.0 ML
N
4 0 M
4 -2.209 2.209 -4 0 -4 C
-2.209 -4 -4 -2.209 -4 0 C
-4 2.209 -2.209 4 0 4 C
2.209 4 4 2.209 4 0 C
cp
S
GR
GS
[0.75 0 0 0.75 213.49999 507.25415] CT
1 0 0 RC
N
f351177404
f
GR
GS
[0.75 0 0 0.75 213.49999 507.25415] CT
1 0 0 RC
10.0 ML
N
4 0 M
4 -2.209 2.209 -4 0 -4 C
-2.209 -4 -4 -2.209 -4 0 C
-4 2.209 -2.209 4 0 4 C
2.209 4 4 2.209 4 0 C
cp
S
GR
GS
[0.75 0 0 0.75 232.875 507.50587] CT
1 0 0 RC
N
f351177404
f
GR
GS
[0.75 0 0 0.75 232.875 507.50587] CT
1 0 0 RC
10.0 ML
N
4 0 M
4 -2.209 2.209 -4 0 -4 C
-2.209 -4 -4 -2.209 -4 0 C
-4 2.209 -2.209 4 0 4 C
2.209 4 4 2.209 4 0 C
cp
S
GR
GS
[0.75 0 0 0.75 252.25001 507.79189] CT
1 0 0 RC
N
f351177404
f
GR
GS
[0.75 0 0 0.75 252.25001 507.79189] CT
1 0 0 RC
10.0 ML
N
4 0 M
4 -2.209 2.209 -4 0 -4 C
-2.209 -4 -4 -2.209 -4 0 C
-4 2.209 -2.209 4 0 4 C
2.209 4 4 2.209 4 0 C
cp
S
GR
GS
[0.75 0 0 0.75 271.62499 508.11493] CT
1 0 0 RC
N
f351177404
f
GR
GS
[0.75 0 0 0.75 271.62499 508.11493] CT
1 0 0 RC
10.0 ML
N
4 0 M
4 -2.209 2.209 -4 0 -4 C
-2.209 -4 -4 -2.209 -4 0 C
-4 2.209 -2.209 4 0 4 C
2.209 4 4 2.209 4 0 C
cp
S
GR
GS
[0.75 0 0 0.75 291 508.47844] CT
1 0 0 RC
N
f351177404
f
GR
GS
[0.75 0 0 0.75 291 508.47844] CT
1 0 0 RC
10.0 ML
N
4 0 M
4 -2.209 2.209 -4 0 -4 C
-2.209 -4 -4 -2.209 -4 0 C
-4 2.209 -2.209 4 0 4 C
2.209 4 4 2.209 4 0 C
cp
S
GR
GS
[0.75 0 0 0.75 310.37501 508.88603] CT
1 0 0 RC
N
f351177404
f
GR
GS
[0.75 0 0 0.75 310.37501 508.88603] CT
1 0 0 RC
10.0 ML
N
4 0 M
4 -2.209 2.209 -4 0 -4 C
-2.209 -4 -4 -2.209 -4 0 C
-4 2.209 -2.209 4 0 4 C
2.209 4 4 2.209 4 0 C
cp
S
GR
GS
[0.75 0 0 0.75 329.74999 509.33908] CT
1 0 0 RC
N
f351177404
f
GR
GS
[0.75 0 0 0.75 329.74999 509.33908] CT
1 0 0 RC
10.0 ML
N
4 0 M
4 -2.209 2.209 -4 0 -4 C
-2.209 -4 -4 -2.209 -4 0 C
-4 2.209 -2.209 4 0 4 C
2.209 4 4 2.209 4 0 C
cp
S
GR
GS
[0.75 0 0 0.75 349.125 509.83159] CT
1 0 0 RC
N
f351177404
f
GR
GS
[0.75 0 0 0.75 349.125 509.83159] CT
1 0 0 RC
10.0 ML
N
4 0 M
4 -2.209 2.209 -4 0 -4 C
-2.209 -4 -4 -2.209 -4 0 C
-4 2.209 -2.209 4 0 4 C
2.209 4 4 2.209 4 0 C
cp
S
GR
GS
[0.75 0 0 0.75 368.50001 510.34525] CT
1 0 0 RC
N
f351177404
f
GR
GS
[0.75 0 0 0.75 368.50001 510.34525] CT
1 0 0 RC
10.0 ML
N
4 0 M
4 -2.209 2.209 -4 0 -4 C
-2.209 -4 -4 -2.209 -4 0 C
-4 2.209 -2.209 4 0 4 C
2.209 4 4 2.209 4 0 C
cp
S
GR
GS
[0.75 0 0 0.75 387.87502 510.85167] CT
1 0 0 RC
N
f351177404
f
GR
GS
[0.75 0 0 0.75 387.87502 510.85167] CT
1 0 0 RC
10.0 ML
N
4 0 M
4 -2.209 2.209 -4 0 -4 C
-2.209 -4 -4 -2.209 -4 0 C
-4 2.209 -2.209 4 0 4 C
2.209 4 4 2.209 4 0 C
cp
S
GR
GS
[0.75 0 0 0.75 407.25 511.32312] CT
1 0 0 RC
N
f351177404
f
GR
GS
[0.75 0 0 0.75 407.25 511.32312] CT
1 0 0 RC
10.0 ML
N
4 0 M
4 -2.209 2.209 -4 0 -4 C
-2.209 -4 -4 -2.209 -4 0 C
-4 2.209 -2.209 4 0 4 C
2.209 4 4 2.209 4 0 C
cp
S
GR
GS
[0.75 0 0 0.75 58.5 534] CT
0 0 1 RC
N
/f1737057230{-3.464 -2 M
-1.155 -2 L
0 -4 L
1.155 -2 L
3.464 -2 L
2 0 L
3.464 2 L
1.155 2 L
0 4 L
-1.155 2 L
-3.464 2 L
-2 0 L
cp}def
f1737057230
f
GR
GS
[0.75 0 0 0.75 58.5 534] CT
0 0 1 RC
10.0 ML
N
-3.464 -2 M
-1.155 -2 L
0 -4 L
1.155 -2 L
3.464 -2 L
2 0 L
3.464 2 L
1.155 2 L
0 4 L
-1.155 2 L
-3.464 2 L
-2 0 L
cp
S
GR
GS
[0.75 0 0 0.75 77.875 501.4416] CT
0 0 1 RC
N
f1737057230
f
GR
GS
[0.75 0 0 0.75 77.875 501.4416] CT
0 0 1 RC
10.0 ML
N
-3.464 -2 M
-1.155 -2 L
0 -4 L
1.155 -2 L
3.464 -2 L
2 0 L
3.464 2 L
1.155 2 L
0 4 L
-1.155 2 L
-3.464 2 L
-2 0 L
cp
S
GR
GS
[0.75 0 0 0.75 97.25 501.52002] CT
0 0 1 RC
N
f1737057230
f
GR
GS
[0.75 0 0 0.75 97.25 501.52002] CT
0 0 1 RC
10.0 ML
N
-3.464 -2 M
-1.155 -2 L
0 -4 L
1.155 -2 L
3.464 -2 L
2 0 L
3.464 2 L
1.155 2 L
0 4 L
-1.155 2 L
-3.464 2 L
-2 0 L
cp
S
GR
GS
[0.75 0 0 0.75 116.625 501.63899] CT
0 0 1 RC
N
f1737057230
f
GR
GS
[0.75 0 0 0.75 116.625 501.63899] CT
0 0 1 RC
10.0 ML
N
-3.464 -2 M
-1.155 -2 L
0 -4 L
1.155 -2 L
3.464 -2 L
2 0 L
3.464 2 L
1.155 2 L
0 4 L
-1.155 2 L
-3.464 2 L
-2 0 L
cp
S
GR
GS
[0.75 0 0 0.75 136 501.80013] CT
0 0 1 RC
N
f1737057230
f
GR
GS
[0.75 0 0 0.75 136 501.80013] CT
0 0 1 RC
10.0 ML
N
-3.464 -2 M
-1.155 -2 L
0 -4 L
1.155 -2 L
3.464 -2 L
2 0 L
3.464 2 L
1.155 2 L
0 4 L
-1.155 2 L
-3.464 2 L
-2 0 L
cp
S
GR
GS
[0.75 0 0 0.75 155.375 502.00539] CT
0 0 1 RC
N
f1737057230
f
GR
GS
[0.75 0 0 0.75 155.375 502.00539] CT
0 0 1 RC
10.0 ML
N
-3.464 -2 M
-1.155 -2 L
0 -4 L
1.155 -2 L
3.464 -2 L
2 0 L
3.464 2 L
1.155 2 L
0 4 L
-1.155 2 L
-3.464 2 L
-2 0 L
cp
S
GR
GS
[0.75 0 0 0.75 174.75 502.25697] CT
0 0 1 RC
N
f1737057230
f
GR
GS
[0.75 0 0 0.75 174.75 502.25697] CT
0 0 1 RC
10.0 ML
N
-3.464 -2 M
-1.155 -2 L
0 -4 L
1.155 -2 L
3.464 -2 L
2 0 L
3.464 2 L
1.155 2 L
0 4 L
-1.155 2 L
-3.464 2 L
-2 0 L
cp
S
GR
GS
[0.75 0 0 0.75 194.12501 502.55777] CT
0 0 1 RC
N
f1737057230
f
GR
GS
[0.75 0 0 0.75 194.12501 502.55777] CT
0 0 1 RC
10.0 ML
N
-3.464 -2 M
-1.155 -2 L
0 -4 L
1.155 -2 L
3.464 -2 L
2 0 L
3.464 2 L
1.155 2 L
0 4 L
-1.155 2 L
-3.464 2 L
-2 0 L
cp
S
GR
GS
[0.75 0 0 0.75 213.49999 502.91121] CT
0 0 1 RC
N
f1737057230
f
GR
GS
[0.75 0 0 0.75 213.49999 502.91121] CT
0 0 1 RC
10.0 ML
N
-3.464 -2 M
-1.155 -2 L
0 -4 L
1.155 -2 L
3.464 -2 L
2 0 L
3.464 2 L
1.155 2 L
0 4 L
-1.155 2 L
-3.464 2 L
-2 0 L
cp
S
GR
GS
[0.75 0 0 0.75 232.875 503.32155] CT
0 0 1 RC
N
f1737057230
f
GR
GS
[0.75 0 0 0.75 232.875 503.32155] CT
0 0 1 RC
10.0 ML
N
-3.464 -2 M
-1.155 -2 L
0 -4 L
1.155 -2 L
3.464 -2 L
2 0 L
3.464 2 L
1.155 2 L
0 4 L
-1.155 2 L
-3.464 2 L
-2 0 L
cp
S
GR
GS
[0.75 0 0 0.75 252.25001 503.79419] CT
0 0 1 RC
N
f1737057230
f
GR
GS
[0.75 0 0 0.75 252.25001 503.79419] CT
0 0 1 RC
10.0 ML
N
-3.464 -2 M
-1.155 -2 L
0 -4 L
1.155 -2 L
3.464 -2 L
2 0 L
3.464 2 L
1.155 2 L
0 4 L
-1.155 2 L
-3.464 2 L
-2 0 L
cp
S
GR
GS
[0.75 0 0 0.75 271.62499 504.33417] CT
0 0 1 RC
N
f1737057230
f
GR
GS
[0.75 0 0 0.75 271.62499 504.33417] CT
0 0 1 RC
10.0 ML
N
-3.464 -2 M
-1.155 -2 L
0 -4 L
1.155 -2 L
3.464 -2 L
2 0 L
3.464 2 L
1.155 2 L
0 4 L
-1.155 2 L
-3.464 2 L
-2 0 L
cp
S
GR
GS
[0.75 0 0 0.75 291 504.94176] CT
0 0 1 RC
N
f1737057230
f
GR
GS
[0.75 0 0 0.75 291 504.94176] CT
0 0 1 RC
10.0 ML
N
-3.464 -2 M
-1.155 -2 L
0 -4 L
1.155 -2 L
3.464 -2 L
2 0 L
3.464 2 L
1.155 2 L
0 4 L
-1.155 2 L
-3.464 2 L
-2 0 L
cp
S
GR
GS
[0.75 0 0 0.75 310.37501 505.60405] CT
0 0 1 RC
N
f1737057230
f
GR
GS
[0.75 0 0 0.75 310.37501 505.60405] CT
0 0 1 RC
10.0 ML
N
-3.464 -2 M
-1.155 -2 L
0 -4 L
1.155 -2 L
3.464 -2 L
2 0 L
3.464 2 L
1.155 2 L
0 4 L
-1.155 2 L
-3.464 2 L
-2 0 L
cp
S
GR
GS
[0.75 0 0 0.75 329.74999 506.2885] CT
0 0 1 RC
N
f1737057230
f
GR
GS
[0.75 0 0 0.75 329.74999 506.2885] CT
0 0 1 RC
10.0 ML
N
-3.464 -2 M
-1.155 -2 L
0 -4 L
1.155 -2 L
3.464 -2 L
2 0 L
3.464 2 L
1.155 2 L
0 4 L
-1.155 2 L
-3.464 2 L
-2 0 L
cp
S
GR
GS
[0.75 0 0 0.75 349.125 506.9501] CT
0 0 1 RC
N
f1737057230
f
GR
GS
[0.75 0 0 0.75 349.125 506.9501] CT
0 0 1 RC
10.0 ML
N
-3.464 -2 M
-1.155 -2 L
0 -4 L
1.155 -2 L
3.464 -2 L
2 0 L
3.464 2 L
1.155 2 L
0 4 L
-1.155 2 L
-3.464 2 L
-2 0 L
cp
S
GR
GS
[0.75 0 0 0.75 368.50001 507.5511] CT
0 0 1 RC
N
f1737057230
f
GR
GS
[0.75 0 0 0.75 368.50001 507.5511] CT
0 0 1 RC
10.0 ML
N
-3.464 -2 M
-1.155 -2 L
0 -4 L
1.155 -2 L
3.464 -2 L
2 0 L
3.464 2 L
1.155 2 L
0 4 L
-1.155 2 L
-3.464 2 L
-2 0 L
cp
S
GR
GS
[0.75 0 0 0.75 387.87502 508.07359] CT
0 0 1 RC
N
f1737057230
f
GR
GS
[0.75 0 0 0.75 387.87502 508.07359] CT
0 0 1 RC
10.0 ML
N
-3.464 -2 M
-1.155 -2 L
0 -4 L
1.155 -2 L
3.464 -2 L
2 0 L
3.464 2 L
1.155 2 L
0 4 L
-1.155 2 L
-3.464 2 L
-2 0 L
cp
S
GR
GS
[0.75 0 0 0.75 407.25 508.51634] CT
0 0 1 RC
N
f1737057230
f
GR
GS
[0.75 0 0 0.75 407.25 508.51634] CT
0 0 1 RC
10.0 ML
N
-3.464 -2 M
-1.155 -2 L
0 -4 L
1.155 -2 L
3.464 -2 L
2 0 L
3.464 2 L
1.155 2 L
0 4 L
-1.155 2 L
-3.464 2 L
-2 0 L
cp
S
GR
GS
[0.75 0 0 0.75 58.5 534] CT
N
/f-1741330208{-3.804 -1.236 M
-0.94 -1.236 L
0 -4 L
0.94 -1.236 L
3.804 -1.236 L
1.522 0.494 L
2.351 3.236 L
0 1.6 L
-2.351 3.236 L
-1.522 0.494 L
cp}def
f-1741330208
f
GR
GS
[0.75 0 0 0.75 58.5 534] CT
10.0 ML
N
-3.804 -1.236 M
-0.94 -1.236 L
0 -4 L
0.94 -1.236 L
3.804 -1.236 L
1.522 0.494 L
2.351 3.236 L
0 1.6 L
-2.351 3.236 L
-1.522 0.494 L
cp
S
GR
GS
[0.75 0 0 0.75 77.875 494.59122] CT
N
f-1741330208
f
GR
GS
[0.75 0 0 0.75 77.875 494.59122] CT
10.0 ML
N
-3.804 -1.236 M
-0.94 -1.236 L
0 -4 L
0.94 -1.236 L
3.804 -1.236 L
1.522 0.494 L
2.351 3.236 L
0 1.6 L
-2.351 3.236 L
-1.522 0.494 L
cp
S
GR
GS
[0.75 0 0 0.75 97.25 494.72539] CT
N
f-1741330208
f
GR
GS
[0.75 0 0 0.75 97.25 494.72539] CT
10.0 ML
N
-3.804 -1.236 M
-0.94 -1.236 L
0 -4 L
0.94 -1.236 L
3.804 -1.236 L
1.522 0.494 L
2.351 3.236 L
0 1.6 L
-2.351 3.236 L
-1.522 0.494 L
cp
S
GR
GS
[0.75 0 0 0.75 116.625 494.93037] CT
N
f-1741330208
f
GR
GS
[0.75 0 0 0.75 116.625 494.93037] CT
10.0 ML
N
-3.804 -1.236 M
-0.94 -1.236 L
0 -4 L
0.94 -1.236 L
3.804 -1.236 L
1.522 0.494 L
2.351 3.236 L
0 1.6 L
-2.351 3.236 L
-1.522 0.494 L
cp
S
GR
GS
[0.75 0 0 0.75 136 495.21048] CT
N
f-1741330208
f
GR
GS
[0.75 0 0 0.75 136 495.21048] CT
10.0 ML
N
-3.804 -1.236 M
-0.94 -1.236 L
0 -4 L
0.94 -1.236 L
3.804 -1.236 L
1.522 0.494 L
2.351 3.236 L
0 1.6 L
-2.351 3.236 L
-1.522 0.494 L
cp
S
GR
GS
[0.75 0 0 0.75 155.375 495.57106] CT
N
f-1741330208
f
GR
GS
[0.75 0 0 0.75 155.375 495.57106] CT
10.0 ML
N
-3.804 -1.236 M
-0.94 -1.236 L
0 -4 L
0.94 -1.236 L
3.804 -1.236 L
1.522 0.494 L
2.351 3.236 L
0 1.6 L
-2.351 3.236 L
-1.522 0.494 L
cp
S
GR
GS
[0.75 0 0 0.75 174.75 496.01857] CT
N
f-1741330208
f
GR
GS
[0.75 0 0 0.75 174.75 496.01857] CT
10.0 ML
N
-3.804 -1.236 M
-0.94 -1.236 L
0 -4 L
0.94 -1.236 L
3.804 -1.236 L
1.522 0.494 L
2.351 3.236 L
0 1.6 L
-2.351 3.236 L
-1.522 0.494 L
cp
S
GR
GS
[0.75 0 0 0.75 194.12501 496.56084] CT
N
f-1741330208
f
GR
GS
[0.75 0 0 0.75 194.12501 496.56084] CT
10.0 ML
N
-3.804 -1.236 M
-0.94 -1.236 L
0 -4 L
0.94 -1.236 L
3.804 -1.236 L
1.522 0.494 L
2.351 3.236 L
0 1.6 L
-2.351 3.236 L
-1.522 0.494 L
cp
S
GR
GS
[0.75 0 0 0.75 213.49999 497.20679] CT
N
f-1741330208
f
GR
GS
[0.75 0 0 0.75 213.49999 497.20679] CT
10.0 ML
N
-3.804 -1.236 M
-0.94 -1.236 L
0 -4 L
0.94 -1.236 L
3.804 -1.236 L
1.522 0.494 L
2.351 3.236 L
0 1.6 L
-2.351 3.236 L
-1.522 0.494 L
cp
S
GR
GS
[0.75 0 0 0.75 232.875 497.96365] CT
N
f-1741330208
f
GR
GS
[0.75 0 0 0.75 232.875 497.96365] CT
10.0 ML
N
-3.804 -1.236 M
-0.94 -1.236 L
0 -4 L
0.94 -1.236 L
3.804 -1.236 L
1.522 0.494 L
2.351 3.236 L
0 1.6 L
-2.351 3.236 L
-1.522 0.494 L
cp
S
GR
GS
[0.75 0 0 0.75 252.25001 498.82823] CT
N
f-1741330208
f
GR
GS
[0.75 0 0 0.75 252.25001 498.82823] CT
10.0 ML
N
-3.804 -1.236 M
-0.94 -1.236 L
0 -4 L
0.94 -1.236 L
3.804 -1.236 L
1.522 0.494 L
2.351 3.236 L
0 1.6 L
-2.351 3.236 L
-1.522 0.494 L
cp
S
GR
GS
[0.75 0 0 0.75 271.62499 499.77145] CT
N
f-1741330208
f
GR
GS
[0.75 0 0 0.75 271.62499 499.77145] CT
10.0 ML
N
-3.804 -1.236 M
-0.94 -1.236 L
0 -4 L
0.94 -1.236 L
3.804 -1.236 L
1.522 0.494 L
2.351 3.236 L
0 1.6 L
-2.351 3.236 L
-1.522 0.494 L
cp
S
GR
GS
[0.75 0 0 0.75 291 500.73157] CT
N
f-1741330208
f
GR
GS
[0.75 0 0 0.75 291 500.73157] CT
10.0 ML
N
-3.804 -1.236 M
-0.94 -1.236 L
0 -4 L
0.94 -1.236 L
3.804 -1.236 L
1.522 0.494 L
2.351 3.236 L
0 1.6 L
-2.351 3.236 L
-1.522 0.494 L
cp
S
GR
GS
[0.75 0 0 0.75 310.37501 501.63432] CT
N
f-1741330208
f
GR
GS
[0.75 0 0 0.75 310.37501 501.63432] CT
10.0 ML
N
-3.804 -1.236 M
-0.94 -1.236 L
0 -4 L
0.94 -1.236 L
3.804 -1.236 L
1.522 0.494 L
2.351 3.236 L
0 1.6 L
-2.351 3.236 L
-1.522 0.494 L
cp
S
GR
GS
[0.75 0 0 0.75 329.74999 502.42699] CT
N
f-1741330208
f
GR
GS
[0.75 0 0 0.75 329.74999 502.42699] CT
10.0 ML
N
-3.804 -1.236 M
-0.94 -1.236 L
0 -4 L
0.94 -1.236 L
3.804 -1.236 L
1.522 0.494 L
2.351 3.236 L
0 1.6 L
-2.351 3.236 L
-1.522 0.494 L
cp
S
GR
GS
[0.75 0 0 0.75 349.125 503.09084] CT
N
f-1741330208
f
GR
GS
[0.75 0 0 0.75 349.125 503.09084] CT
10.0 ML
N
-3.804 -1.236 M
-0.94 -1.236 L
0 -4 L
0.94 -1.236 L
3.804 -1.236 L
1.522 0.494 L
2.351 3.236 L
0 1.6 L
-2.351 3.236 L
-1.522 0.494 L
cp
S
GR
GS
[0.75 0 0 0.75 368.50001 503.6272] CT
N
f-1741330208
f
GR
GS
[0.75 0 0 0.75 368.50001 503.6272] CT
10.0 ML
N
-3.804 -1.236 M
-0.94 -1.236 L
0 -4 L
0.94 -1.236 L
3.804 -1.236 L
1.522 0.494 L
2.351 3.236 L
0 1.6 L
-2.351 3.236 L
-1.522 0.494 L
cp
S
GR
GS
[0.75 0 0 0.75 387.87502 504.03786] CT
N
f-1741330208
f
GR
GS
[0.75 0 0 0.75 387.87502 504.03786] CT
10.0 ML
N
-3.804 -1.236 M
-0.94 -1.236 L
0 -4 L
0.94 -1.236 L
3.804 -1.236 L
1.522 0.494 L
2.351 3.236 L
0 1.6 L
-2.351 3.236 L
-1.522 0.494 L
cp
S
GR
GS
[0.75 0 0 0.75 407.25 504.31155] CT
N
f-1741330208
f
GR
GS
[0.75 0 0 0.75 407.25 504.31155] CT
10.0 ML
N
-3.804 -1.236 M
-0.94 -1.236 L
0 -4 L
0.94 -1.236 L
3.804 -1.236 L
1.522 0.494 L
2.351 3.236 L
0 1.6 L
-2.351 3.236 L
-1.522 0.494 L
cp
S
GR
GS
[0.75 0 0 0.75 58.5 534] CT
0 1 0 RC
N
/f227889816{-3 -3 M
-3 3 L
3 3 L
3 -3 L
cp}def
f227889816
f
GR
GS
[0.75 0 0 0.75 58.5 534] CT
0 1 0 RC
10.0 ML
N
-3 -3 M
-3 3 L
3 3 L
3 -3 L
cp
S
GR
GS
[0.75 0 0 0.75 77.875 484.22319] CT
0 1 0 RC
N
f227889816
f
GR
GS
[0.75 0 0 0.75 77.875 484.22319] CT
0 1 0 RC
10.0 ML
N
-3 -3 M
-3 3 L
3 3 L
3 -3 L
cp
S
GR
GS
[0.75 0 0 0.75 97.25 484.49167] CT
0 1 0 RC
N
f227889816
f
GR
GS
[0.75 0 0 0.75 97.25 484.49167] CT
0 1 0 RC
10.0 ML
N
-3 -3 M
-3 3 L
3 3 L
3 -3 L
cp
S
GR
GS
[0.75 0 0 0.75 116.625 484.90681] CT
0 1 0 RC
N
f227889816
f
GR
GS
[0.75 0 0 0.75 116.625 484.90681] CT
0 1 0 RC
10.0 ML
N
-3 -3 M
-3 3 L
3 3 L
3 -3 L
cp
S
GR
GS
[0.75 0 0 0.75 136 485.48199] CT
0 1 0 RC
N
f227889816
f
GR
GS
[0.75 0 0 0.75 136 485.48199] CT
0 1 0 RC
10.0 ML
N
-3 -3 M
-3 3 L
3 3 L
3 -3 L
cp
S
GR
GS
[0.75 0 0 0.75 155.375 486.2336] CT
0 1 0 RC
N
f227889816
f
GR
GS
[0.75 0 0 0.75 155.375 486.2336] CT
0 1 0 RC
10.0 ML
N
-3 -3 M
-3 3 L
3 3 L
3 -3 L
cp
S
GR
GS
[0.75 0 0 0.75 174.75 487.17897] CT
0 1 0 RC
N
f227889816
f
GR
GS
[0.75 0 0 0.75 174.75 487.17897] CT
0 1 0 RC
10.0 ML
N
-3 -3 M
-3 3 L
3 3 L
3 -3 L
cp
S
GR
GS
[0.75 0 0 0.75 194.12501 488.32924] CT
0 1 0 RC
N
f227889816
f
GR
GS
[0.75 0 0 0.75 194.12501 488.32924] CT
0 1 0 RC
10.0 ML
N
-3 -3 M
-3 3 L
3 3 L
3 -3 L
cp
S
GR
GS
[0.75 0 0 0.75 213.49999 489.66879] CT
0 1 0 RC
N
f227889816
f
GR
GS
[0.75 0 0 0.75 213.49999 489.66879] CT
0 1 0 RC
10.0 ML
N
-3 -3 M
-3 3 L
3 3 L
3 -3 L
cp
S
GR
GS
[0.75 0 0 0.75 232.875 491.12563] CT
0 1 0 RC
N
f227889816
f
GR
GS
[0.75 0 0 0.75 232.875 491.12563] CT
0 1 0 RC
10.0 ML
N
-3 -3 M
-3 3 L
3 3 L
3 -3 L
cp
S
GR
GS
[0.75 0 0 0.75 252.25001 492.57097] CT
0 1 0 RC
N
f227889816
f
GR
GS
[0.75 0 0 0.75 252.25001 492.57097] CT
0 1 0 RC
10.0 ML
N
-3 -3 M
-3 3 L
3 3 L
3 -3 L
cp
S
GR
GS
[0.75 0 0 0.75 271.62499 493.87395] CT
0 1 0 RC
N
f227889816
f
GR
GS
[0.75 0 0 0.75 271.62499 493.87395] CT
0 1 0 RC
10.0 ML
N
-3 -3 M
-3 3 L
3 3 L
3 -3 L
cp
S
GR
GS
[0.75 0 0 0.75 291 494.95844] CT
0 1 0 RC
N
f227889816
f
GR
GS
[0.75 0 0 0.75 291 494.95844] CT
0 1 0 RC
10.0 ML
N
-3 -3 M
-3 3 L
3 3 L
3 -3 L
cp
S
GR
GS
[0.75 0 0 0.75 310.37501 495.80342] CT
0 1 0 RC
N
f227889816
f
GR
GS
[0.75 0 0 0.75 310.37501 495.80342] CT
0 1 0 RC
10.0 ML
N
-3 -3 M
-3 3 L
3 3 L
3 -3 L
cp
S
GR
GS
[0.75 0 0 0.75 329.74999 496.40172] CT
0 1 0 RC
N
f227889816
f
GR
GS
[0.75 0 0 0.75 329.74999 496.40172] CT
0 1 0 RC
10.0 ML
N
-3 -3 M
-3 3 L
3 3 L
3 -3 L
cp
S
GR
GS
[0.75 0 0 0.75 349.125 496.71442] CT
0 1 0 RC
N
f227889816
f
GR
GS
[0.75 0 0 0.75 349.125 496.71442] CT
0 1 0 RC
10.0 ML
N
-3 -3 M
-3 3 L
3 3 L
3 -3 L
cp
S
GR
GS
[0.75 0 0 0.75 368.50001 496.61595] CT
0 1 0 RC
N
f227889816
f
GR
GS
[0.75 0 0 0.75 368.50001 496.61595] CT
0 1 0 RC
10.0 ML
N
-3 -3 M
-3 3 L
3 3 L
3 -3 L
cp
S
GR
GS
[0.75 0 0 0.75 387.87502 495.74542] CT
0 1 0 RC
N
f227889816
f
GR
GS
[0.75 0 0 0.75 387.87502 495.74542] CT
0 1 0 RC
10.0 ML
N
-3 -3 M
-3 3 L
3 3 L
3 -3 L
cp
S
GR
GS
[0.75 0 0 0.75 407.25 492.81477] CT
0 1 0 RC
N
f227889816
f
GR
GS
[0.75 0 0 0.75 407.25 492.81477] CT
0 1 0 RC
10.0 ML
N
-3 -3 M
-3 3 L
3 3 L
3 -3 L
cp
S
GR
GS
[0.75 0 0 0.75 58.5 534] CT
1 0 1 RC
N
/f1022997606{0 5.332 M
-4.618 -2.666 L
4.618 -2.666 L
cp}def
f1022997606
f
GR
GS
[0.75 0 0 0.75 58.5 534] CT
1 0 1 RC
10.0 ML
N
0 5.332 M
-4.618 -2.666 L
4.618 -2.666 L
cp
S
GR
GS
[0.75 0 0 0.75 77.875 466.53406] CT
1 0 1 RC
N
f1022997606
f
GR
GS
[0.75 0 0 0.75 77.875 466.53406] CT
1 0 1 RC
10.0 ML
N
0 5.332 M
-4.618 -2.666 L
4.618 -2.666 L
cp
S
GR
GS
[0.75 0 0 0.75 97.25 467.23082] CT
1 0 1 RC
N
f1022997606
f
GR
GS
[0.75 0 0 0.75 97.25 467.23082] CT
1 0 1 RC
10.0 ML
N
0 5.332 M
-4.618 -2.666 L
4.618 -2.666 L
cp
S
GR
GS
[0.75 0 0 0.75 116.625 468.32437] CT
1 0 1 RC
N
f1022997606
f
GR
GS
[0.75 0 0 0.75 116.625 468.32437] CT
1 0 1 RC
10.0 ML
N
0 5.332 M
-4.618 -2.666 L
4.618 -2.666 L
cp
S
GR
GS
[0.75 0 0 0.75 136 469.85609] CT
1 0 1 RC
N
f1022997606
f
GR
GS
[0.75 0 0 0.75 136 469.85609] CT
1 0 1 RC
10.0 ML
N
0 5.332 M
-4.618 -2.666 L
4.618 -2.666 L
cp
S
GR
GS
[0.75 0 0 0.75 155.375 471.84343] CT
1 0 1 RC
N
f1022997606
f
GR
GS
[0.75 0 0 0.75 155.375 471.84343] CT
1 0 1 RC
10.0 ML
N
0 5.332 M
-4.618 -2.666 L
4.618 -2.666 L
cp
S
GR
GS
[0.75 0 0 0.75 174.75 474.21959] CT
1 0 1 RC
N
f1022997606
f
GR
GS
[0.75 0 0 0.75 174.75 474.21959] CT
1 0 1 RC
10.0 ML
N
0 5.332 M
-4.618 -2.666 L
4.618 -2.666 L
cp
S
GR
GS
[0.75 0 0 0.75 194.12501 476.77098] CT
1 0 1 RC
N
f1022997606
f
GR
GS
[0.75 0 0 0.75 194.12501 476.77098] CT
1 0 1 RC
10.0 ML
N
0 5.332 M
-4.618 -2.666 L
4.618 -2.666 L
cp
S
GR
GS
[0.75 0 0 0.75 213.49999 479.18326] CT
1 0 1 RC
N
f1022997606
f
GR
GS
[0.75 0 0 0.75 213.49999 479.18326] CT
1 0 1 RC
10.0 ML
N
0 5.332 M
-4.618 -2.666 L
4.618 -2.666 L
cp
S
GR
GS
[0.75 0 0 0.75 232.875 481.1949] CT
1 0 1 RC
N
f1022997606
f
GR
GS
[0.75 0 0 0.75 232.875 481.1949] CT
1 0 1 RC
10.0 ML
N
0 5.332 M
-4.618 -2.666 L
4.618 -2.666 L
cp
S
GR
GS
[0.75 0 0 0.75 252.25001 482.6738] CT
1 0 1 RC
N
f1022997606
f
GR
GS
[0.75 0 0 0.75 252.25001 482.6738] CT
1 0 1 RC
10.0 ML
N
0 5.332 M
-4.618 -2.666 L
4.618 -2.666 L
cp
S
GR
GS
[0.75 0 0 0.75 271.62499 483.53302] CT
1 0 1 RC
N
f1022997606
f
GR
GS
[0.75 0 0 0.75 271.62499 483.53302] CT
1 0 1 RC
10.0 ML
N
0 5.332 M
-4.618 -2.666 L
4.618 -2.666 L
cp
S
GR
GS
[0.75 0 0 0.75 291 483.52615] CT
1 0 1 RC
N
f1022997606
f
GR
GS
[0.75 0 0 0.75 291 483.52615] CT
1 0 1 RC
10.0 ML
N
0 5.332 M
-4.618 -2.666 L
4.618 -2.666 L
cp
S
GR
GS
[0.75 0 0 0.75 310.37501 481.68777] CT
1 0 1 RC
N
f1022997606
f
GR
GS
[0.75 0 0 0.75 310.37501 481.68777] CT
1 0 1 RC
10.0 ML
N
0 5.332 M
-4.618 -2.666 L
4.618 -2.666 L
cp
S
GR
GS
[0.75 0 0 0.75 329.74999 472.08943] CT
1 0 1 RC
N
f1022997606
f
GR
GS
[0.75 0 0 0.75 329.74999 472.08943] CT
1 0 1 RC
10.0 ML
N
0 5.332 M
-4.618 -2.666 L
4.618 -2.666 L
cp
S
GR
GS
[0.75 0 0 0.75 368.50001 508.08183] CT
1 0 1 RC
N
f1022997606
f
GR
GS
[0.75 0 0 0.75 368.50001 508.08183] CT
1 0 1 RC
10.0 ML
N
0 5.332 M
-4.618 -2.666 L
4.618 -2.666 L
cp
S
GR
GS
[0.75 0 0 0.75 387.87502 502.51447] CT
1 0 1 RC
N
f1022997606
f
GR
GS
[0.75 0 0 0.75 387.87502 502.51447] CT
1 0 1 RC
10.0 ML
N
0 5.332 M
-4.618 -2.666 L
4.618 -2.666 L
cp
S
GR
GS
[0.75 0 0 0.75 407.25 500.98888] CT
1 0 1 RC
N
f1022997606
f
GR
GS
[0.75 0 0 0.75 407.25 500.98888] CT
1 0 1 RC
10.0 ML
N
0 5.332 M
-4.618 -2.666 L
4.618 -2.666 L
cp
S
GR
GS
[0.75 0 0 0.75 58.5 534] CT
1 0 0 RC
N
/f860094634{0 -4 M
0 4 L
-4 0 M
4 0 L}def
f860094634
f
GR
GS
[0.75 0 0 0.75 58.5 534] CT
1 0 0 RC
10.0 ML
N
0 -4 M
0 4 L
-4 0 M
4 0 L
S
GR
GS
[0.75 0 0 0.75 77.875 428.79579] CT
1 0 0 RC
N
f860094634
f
GR
GS
[0.75 0 0 0.75 77.875 428.79579] CT
1 0 0 RC
10.0 ML
N
0 -4 M
0 4 L
-4 0 M
4 0 L
S
GR
GS
[0.75 0 0 0.75 97.25 431.72745] CT
1 0 0 RC
N
f860094634
f
GR
GS
[0.75 0 0 0.75 97.25 431.72745] CT
1 0 0 RC
10.0 ML
N
0 -4 M
0 4 L
-4 0 M
4 0 L
S
GR
GS
[0.75 0 0 0.75 116.625 436.13599] CT
1 0 0 RC
N
f860094634
f
GR
GS
[0.75 0 0 0.75 116.625 436.13599] CT
1 0 0 RC
10.0 ML
N
0 -4 M
0 4 L
-4 0 M
4 0 L
S
GR
GS
[0.75 0 0 0.75 136 441.60901] CT
1 0 0 RC
N
f860094634
f
GR
GS
[0.75 0 0 0.75 136 441.60901] CT
1 0 0 RC
10.0 ML
N
0 -4 M
0 4 L
-4 0 M
4 0 L
S
GR
GS
[0.75 0 0 0.75 155.375 447.21327] CT
1 0 0 RC
N
f860094634
f
GR
GS
[0.75 0 0 0.75 155.375 447.21327] CT
1 0 0 RC
10.0 ML
N
0 -4 M
0 4 L
-4 0 M
4 0 L
S
GR
GS
[0.75 0 0 0.75 174.75 451.88251] CT
1 0 0 RC
N
f860094634
f
GR
GS
[0.75 0 0 0.75 174.75 451.88251] CT
1 0 0 RC
10.0 ML
N
0 -4 M
0 4 L
-4 0 M
4 0 L
S
GR
GS
[0.75 0 0 0.75 194.12501 454.80441] CT
1 0 0 RC
N
f860094634
f
GR
GS
[0.75 0 0 0.75 194.12501 454.80441] CT
1 0 0 RC
10.0 ML
N
0 -4 M
0 4 L
-4 0 M
4 0 L
S
GR
GS
[0.75 0 0 0.75 213.49999 454.90425] CT
1 0 0 RC
N
f860094634
f
GR
GS
[0.75 0 0 0.75 213.49999 454.90425] CT
1 0 0 RC
10.0 ML
N
0 -4 M
0 4 L
-4 0 M
4 0 L
S
GR
GS
[0.75 0 0 0.75 232.875 446.8428] CT
1 0 0 RC
N
f860094634
f
GR
GS
[0.75 0 0 0.75 232.875 446.8428] CT
1 0 0 RC
10.0 ML
N
0 -4 M
0 4 L
-4 0 M
4 0 L
S
GR
GS
[0.75 0 0 0.75 271.62499 496.5249] CT
1 0 0 RC
N
f860094634
f
GR
GS
[0.75 0 0 0.75 271.62499 496.5249] CT
1 0 0 RC
10.0 ML
N
0 -4 M
0 4 L
-4 0 M
4 0 L
S
GR
GS
[0.75 0 0 0.75 291 487.23592] CT
1 0 0 RC
N
f860094634
f
GR
GS
[0.75 0 0 0.75 291 487.23592] CT
1 0 0 RC
10.0 ML
N
0 -4 M
0 4 L
-4 0 M
4 0 L
S
GR
GS
[0.75 0 0 0.75 310.37501 485.25005] CT
1 0 0 RC
N
f860094634
f
GR
GS
[0.75 0 0 0.75 310.37501 485.25005] CT
1 0 0 RC
10.0 ML
N
0 -4 M
0 4 L
-4 0 M
4 0 L
S
GR
GS
[0.75 0 0 0.75 329.74999 484.96857] CT
1 0 0 RC
N
f860094634
f
GR
GS
[0.75 0 0 0.75 329.74999 484.96857] CT
1 0 0 RC
10.0 ML
N
0 -4 M
0 4 L
-4 0 M
4 0 L
S
GR
GS
[0.75 0 0 0.75 349.125 485.29463] CT
1 0 0 RC
N
f860094634
f
GR
GS
[0.75 0 0 0.75 349.125 485.29463] CT
1 0 0 RC
10.0 ML
N
0 -4 M
0 4 L
-4 0 M
4 0 L
S
GR
GS
[0.75 0 0 0.75 368.50001 485.87508] CT
1 0 0 RC
N
f860094634
f
GR
GS
[0.75 0 0 0.75 368.50001 485.87508] CT
1 0 0 RC
10.0 ML
N
0 -4 M
0 4 L
-4 0 M
4 0 L
S
GR
GS
[0.75 0 0 0.75 387.87502 486.56612] CT
1 0 0 RC
N
f860094634
f
GR
GS
[0.75 0 0 0.75 387.87502 486.56612] CT
1 0 0 RC
10.0 ML
N
0 -4 M
0 4 L
-4 0 M
4 0 L
S
GR
GS
[0.75 0 0 0.75 407.25 487.30119] CT
1 0 0 RC
N
f860094634
f
GR
GS
[0.75 0 0 0.75 407.25 487.30119] CT
1 0 0 RC
10.0 ML
N
0 -4 M
0 4 L
-4 0 M
4 0 L
S
GR
GS
[0.75 0 0 0.75 58.5 534] CT
0 0 1 RC
N
/f1719669614{-2.828 -2.828 M
2.828 2.828 L
-2.828 2.828 M
2.828 -2.828 L}def
f1719669614
f
GR
GS
[0.75 0 0 0.75 58.5 534] CT
0 0 1 RC
10.0 ML
N
-2.828 -2.828 M
2.828 2.828 L
-2.828 2.828 M
2.828 -2.828 L
S
GR
GS
[0.75 0 0 0.75 77.875 277.65122] CT
0 0 1 RC
N
f1719669614
f
GR
GS
[0.75 0 0 0.75 77.875 277.65122] CT
0 0 1 RC
10.0 ML
N
-2.828 -2.828 M
2.828 2.828 L
-2.828 2.828 M
2.828 -2.828 L
S
GR
GS
[0.75 0 0 0.75 97.25 308.24714] CT
0 0 1 RC
N
f1719669614
f
GR
GS
[0.75 0 0 0.75 97.25 308.24714] CT
0 0 1 RC
10.0 ML
N
-2.828 -2.828 M
2.828 2.828 L
-2.828 2.828 M
2.828 -2.828 L
S
GR
GS
[0.75 0 0 0.75 116.625 328.99832] CT
0 0 1 RC
N
f1719669614
f
GR
GS
[0.75 0 0 0.75 116.625 328.99832] CT
0 0 1 RC
10.0 ML
N
-2.828 -2.828 M
2.828 2.828 L
-2.828 2.828 M
2.828 -2.828 L
S
GR
GS
[0.75 0 0 0.75 136 320.08981] CT
0 0 1 RC
N
f1719669614
f
GR
GS
[0.75 0 0 0.75 136 320.08981] CT
0 0 1 RC
10.0 ML
N
-2.828 -2.828 M
2.828 2.828 L
-2.828 2.828 M
2.828 -2.828 L
S
GR
GS
[0.75 0 0 0.75 174.75 477.24568] CT
0 0 1 RC
N
f1719669614
f
GR
GS
[0.75 0 0 0.75 174.75 477.24568] CT
0 0 1 RC
10.0 ML
N
-2.828 -2.828 M
2.828 2.828 L
-2.828 2.828 M
2.828 -2.828 L
S
GR
GS
[0.75 0 0 0.75 194.12501 452.96365] CT
0 0 1 RC
N
f1719669614
f
GR
GS
[0.75 0 0 0.75 194.12501 452.96365] CT
0 0 1 RC
10.0 ML
N
-2.828 -2.828 M
2.828 2.828 L
-2.828 2.828 M
2.828 -2.828 L
S
GR
GS
[0.75 0 0 0.75 213.49999 448.6886] CT
0 0 1 RC
N
f1719669614
f
GR
GS
[0.75 0 0 0.75 213.49999 448.6886] CT
0 0 1 RC
10.0 ML
N
-2.828 -2.828 M
2.828 2.828 L
-2.828 2.828 M
2.828 -2.828 L
S
GR
GS
[0.75 0 0 0.75 232.875 448.62831] CT
0 0 1 RC
N
f1719669614
f
GR
GS
[0.75 0 0 0.75 232.875 448.62831] CT
0 0 1 RC
10.0 ML
N
-2.828 -2.828 M
2.828 2.828 L
-2.828 2.828 M
2.828 -2.828 L
S
GR
GS
[0.75 0 0 0.75 252.25001 449.87553] CT
0 0 1 RC
N
f1719669614
f
GR
GS
[0.75 0 0 0.75 252.25001 449.87553] CT
0 0 1 RC
10.0 ML
N
-2.828 -2.828 M
2.828 2.828 L
-2.828 2.828 M
2.828 -2.828 L
S
GR
GS
[0.75 0 0 0.75 271.62499 451.56541] CT
0 0 1 RC
N
f1719669614
f
GR
GS
[0.75 0 0 0.75 271.62499 451.56541] CT
0 0 1 RC
10.0 ML
N
-2.828 -2.828 M
2.828 2.828 L
-2.828 2.828 M
2.828 -2.828 L
S
GR
GS
[0.75 0 0 0.75 291 453.37898] CT
0 0 1 RC
N
f1719669614
f
GR
GS
[0.75 0 0 0.75 291 453.37898] CT
0 0 1 RC
10.0 ML
N
-2.828 -2.828 M
2.828 2.828 L
-2.828 2.828 M
2.828 -2.828 L
S
GR
GS
[0.75 0 0 0.75 310.37501 455.18573] CT
0 0 1 RC
N
f1719669614
f
GR
GS
[0.75 0 0 0.75 310.37501 455.18573] CT
0 0 1 RC
10.0 ML
N
-2.828 -2.828 M
2.828 2.828 L
-2.828 2.828 M
2.828 -2.828 L
S
GR
GS
[0.75 0 0 0.75 329.74999 456.93059] CT
0 0 1 RC
N
f1719669614
f
GR
GS
[0.75 0 0 0.75 329.74999 456.93059] CT
0 0 1 RC
10.0 ML
N
-2.828 -2.828 M
2.828 2.828 L
-2.828 2.828 M
2.828 -2.828 L
S
GR
GS
[0.75 0 0 0.75 349.125 458.59158] CT
0 0 1 RC
N
f1719669614
f
GR
GS
[0.75 0 0 0.75 349.125 458.59158] CT
0 0 1 RC
10.0 ML
N
-2.828 -2.828 M
2.828 2.828 L
-2.828 2.828 M
2.828 -2.828 L
S
GR
GS
[0.75 0 0 0.75 368.50001 460.16217] CT
0 0 1 RC
N
f1719669614
f
GR
GS
[0.75 0 0 0.75 368.50001 460.16217] CT
0 0 1 RC
10.0 ML
N
-2.828 -2.828 M
2.828 2.828 L
-2.828 2.828 M
2.828 -2.828 L
S
GR
GS
[0.75 0 0 0.75 387.87502 461.64299] CT
0 0 1 RC
N
f1719669614
f
GR
GS
[0.75 0 0 0.75 387.87502 461.64299] CT
0 0 1 RC
10.0 ML
N
-2.828 -2.828 M
2.828 2.828 L
-2.828 2.828 M
2.828 -2.828 L
S
GR
GS
[0.75 0 0 0.75 407.25 463.03802] CT
0 0 1 RC
N
f1719669614
f
GR
GS
[0.75 0 0 0.75 407.25 463.03802] CT
0 0 1 RC
10.0 ML
N
-2.828 -2.828 M
2.828 2.828 L
-2.828 2.828 M
2.828 -2.828 L
S
GR
GS
[0.75 0 0 0.75 58.5 534] CT
N
f351177404
f
GR
GS
[0.75 0 0 0.75 58.5 534] CT
10.0 ML
N
4 0 M
4 -2.209 2.209 -4 0 -4 C
-2.209 -4 -4 -2.209 -4 0 C
-4 2.209 -2.209 4 0 4 C
2.209 4 4 2.209 4 0 C
cp
S
GR
GS
[0.75 0 0 0.75 77.875 437.03128] CT
N
f351177404
f
GR
GS
[0.75 0 0 0.75 77.875 437.03128] CT
10.0 ML
N
4 0 M
4 -2.209 2.209 -4 0 -4 C
-2.209 -4 -4 -2.209 -4 0 C
-4 2.209 -2.209 4 0 4 C
2.209 4 4 2.209 4 0 C
cp
S
GR
GS
[0.75 0 0 0.75 97.25 116.7038] CT
N
f351177404
f
GR
GS
[0.75 0 0 0.75 97.25 116.7038] CT
10.0 ML
N
4 0 M
4 -2.209 2.209 -4 0 -4 C
-2.209 -4 -4 -2.209 -4 0 C
-4 2.209 -2.209 4 0 4 C
2.209 4 4 2.209 4 0 C
cp
S
GR
GS
[0.75 0 0 0.75 116.625 85.77637] CT
N
f351177404
f
GR
GS
[0.75 0 0 0.75 116.625 85.77637] CT
10.0 ML
N
4 0 M
4 -2.209 2.209 -4 0 -4 C
-2.209 -4 -4 -2.209 -4 0 C
-4 2.209 -2.209 4 0 4 C
2.209 4 4 2.209 4 0 C
cp
S
GR
GS
[0.75 0 0 0.75 136 110.53119] CT
N
f351177404
f
GR
GS
[0.75 0 0 0.75 136 110.53119] CT
10.0 ML
N
4 0 M
4 -2.209 2.209 -4 0 -4 C
-2.209 -4 -4 -2.209 -4 0 C
-4 2.209 -2.209 4 0 4 C
2.209 4 4 2.209 4 0 C
cp
S
GR
GS
[0.75 0 0 0.75 155.375 138.95975] CT
N
f351177404
f
GR
GS
[0.75 0 0 0.75 155.375 138.95975] CT
10.0 ML
N
4 0 M
4 -2.209 2.209 -4 0 -4 C
-2.209 -4 -4 -2.209 -4 0 C
-4 2.209 -2.209 4 0 4 C
2.209 4 4 2.209 4 0 C
cp
S
GR
GS
[0.75 0 0 0.75 174.75 163.82673] CT
N
f351177404
f
GR
GS
[0.75 0 0 0.75 174.75 163.82673] CT
10.0 ML
N
4 0 M
4 -2.209 2.209 -4 0 -4 C
-2.209 -4 -4 -2.209 -4 0 C
-4 2.209 -2.209 4 0 4 C
2.209 4 4 2.209 4 0 C
cp
S
GR
GS
[0.75 0 0 0.75 194.12501 184.73718] CT
N
f351177404
f
GR
GS
[0.75 0 0 0.75 194.12501 184.73718] CT
10.0 ML
N
4 0 M
4 -2.209 2.209 -4 0 -4 C
-2.209 -4 -4 -2.209 -4 0 C
-4 2.209 -2.209 4 0 4 C
2.209 4 4 2.209 4 0 C
cp
S
GR
GS
[0.75 0 0 0.75 213.49999 202.32578] CT
N
f351177404
f
GR
GS
[0.75 0 0 0.75 213.49999 202.32578] CT
10.0 ML
N
4 0 M
4 -2.209 2.209 -4 0 -4 C
-2.209 -4 -4 -2.209 -4 0 C
-4 2.209 -2.209 4 0 4 C
2.209 4 4 2.209 4 0 C
cp
S
GR
GS
[0.75 0 0 0.75 232.875 217.26661] CT
N
f351177404
f
GR
GS
[0.75 0 0 0.75 232.875 217.26661] CT
10.0 ML
N
4 0 M
4 -2.209 2.209 -4 0 -4 C
-2.209 -4 -4 -2.209 -4 0 C
-4 2.209 -2.209 4 0 4 C
2.209 4 4 2.209 4 0 C
cp
S
GR
GS
[0.75 0 0 0.75 252.25001 230.10942] CT
N
f351177404
f
GR
GS
[0.75 0 0 0.75 252.25001 230.10942] CT
10.0 ML
N
4 0 M
4 -2.209 2.209 -4 0 -4 C
-2.209 -4 -4 -2.209 -4 0 C
-4 2.209 -2.209 4 0 4 C
2.209 4 4 2.209 4 0 C
cp
S
GR
GS
[0.75 0 0 0.75 271.62499 241.27721] CT
N
f351177404
f
GR
GS
[0.75 0 0 0.75 271.62499 241.27721] CT
10.0 ML
N
4 0 M
4 -2.209 2.209 -4 0 -4 C
-2.209 -4 -4 -2.209 -4 0 C
-4 2.209 -2.209 4 0 4 C
2.209 4 4 2.209 4 0 C
cp
S
GR
GS
[0.75 0 0 0.75 291 251.09148] CT
N
f351177404
f
GR
GS
[0.75 0 0 0.75 291 251.09148] CT
10.0 ML
N
4 0 M
4 -2.209 2.209 -4 0 -4 C
-2.209 -4 -4 -2.209 -4 0 C
-4 2.209 -2.209 4 0 4 C
2.209 4 4 2.209 4 0 C
cp
S
GR
GS
[0.75 0 0 0.75 310.37501 259.79775] CT
N
f351177404
f
GR
GS
[0.75 0 0 0.75 310.37501 259.79775] CT
10.0 ML
N
4 0 M
4 -2.209 2.209 -4 0 -4 C
-2.209 -4 -4 -2.209 -4 0 C
-4 2.209 -2.209 4 0 4 C
2.209 4 4 2.209 4 0 C
cp
S
GR
GS
[0.75 0 0 0.75 329.74999 267.58555] CT
N
f351177404
f
GR
GS
[0.75 0 0 0.75 329.74999 267.58555] CT
10.0 ML
N
4 0 M
4 -2.209 2.209 -4 0 -4 C
-2.209 -4 -4 -2.209 -4 0 C
-4 2.209 -2.209 4 0 4 C
2.209 4 4 2.209 4 0 C
cp
S
GR
GS
[0.75 0 0 0.75 349.125 274.60293] CT
N
f351177404
f
GR
GS
[0.75 0 0 0.75 349.125 274.60293] CT
10.0 ML
N
4 0 M
4 -2.209 2.209 -4 0 -4 C
-2.209 -4 -4 -2.209 -4 0 C
-4 2.209 -2.209 4 0 4 C
2.209 4 4 2.209 4 0 C
cp
S
GR
GS
[0.75 0 0 0.75 368.50001 280.96706] CT
N
f351177404
f
GR
GS
[0.75 0 0 0.75 368.50001 280.96706] CT
10.0 ML
N
4 0 M
4 -2.209 2.209 -4 0 -4 C
-2.209 -4 -4 -2.209 -4 0 C
-4 2.209 -2.209 4 0 4 C
2.209 4 4 2.209 4 0 C
cp
S
GR
GS
[0.75 0 0 0.75 387.87502 286.77177] CT
N
f351177404
f
GR
GS
[0.75 0 0 0.75 387.87502 286.77177] CT
10.0 ML
N
4 0 M
4 -2.209 2.209 -4 0 -4 C
-2.209 -4 -4 -2.209 -4 0 C
-4 2.209 -2.209 4 0 4 C
2.209 4 4 2.209 4 0 C
cp
S
GR
GS
[0.75 0 0 0.75 407.25 292.09319] CT
N
f351177404
f
GR
GS
[0.75 0 0 0.75 407.25 292.09319] CT
10.0 ML
N
4 0 M
4 -2.209 2.209 -4 0 -4 C
-2.209 -4 -4 -2.209 -4 0 C
-4 2.209 -2.209 4 0 4 C
2.209 4 4 2.209 4 0 C
cp
S
GR
GS
[0.75 0 0 0.75 0 0] CT
1 GC
N
/f-268635008{532 198 M
532 71 L
455 71 L
455 198 L
cp}def
f-268635008
f
GR
GS
[0.75 0 0 0.75 376.5 60.34706] CT
/Helvetica 12 F
GS
[1 0 0 1 0 0] CT
0 4.5 moveto 
1 -1 scale
(n=7) t 
GR
GR
GS
[0.75 0 0 0.75 359.25 60.34706] CT
1 0 0 RC
N
f351177404
f
GR
GS
[0.75 0 0 0.75 359.25 60.34706] CT
1 0 0 RC
10.0 ML
N
4 0 M
4 -2.209 2.209 -4 0 -4 C
-2.209 -4 -4 -2.209 -4 0 C
-4 2.209 -2.209 4 0 4 C
2.209 4 4 2.209 4 0 C
cp
S
GR
GS
[0.75 0 0 0.75 376.5 71.92647] CT
/Helvetica 12 F
GS
[1 0 0 1 0 0] CT
0 4.5 moveto 
1 -1 scale
(6) t 
GR
GR
GS
[0.75 0 0 0.75 359.25 71.92647] CT
0 0 1 RC
N
f1737057230
f
GR
GS
[0.75 0 0 0.75 359.25 71.92647] CT
0 0 1 RC
10.0 ML
N
-3.464 -2 M
-1.155 -2 L
0 -4 L
1.155 -2 L
3.464 -2 L
2 0 L
3.464 2 L
1.155 2 L
0 4 L
-1.155 2 L
-3.464 2 L
-2 0 L
cp
S
GR
GS
[0.75 0 0 0.75 376.5 83.50588] CT
/Helvetica 12 F
GS
[1 0 0 1 0 0] CT
0 4.5 moveto 
1 -1 scale
(5) t 
GR
GR
GS
[0.75 0 0 0.75 359.25 83.50588] CT
N
f-1741330208
f
GR
GS
[0.75 0 0 0.75 359.25 83.50588] CT
10.0 ML
N
-3.804 -1.236 M
-0.94 -1.236 L
0 -4 L
0.94 -1.236 L
3.804 -1.236 L
1.522 0.494 L
2.351 3.236 L
0 1.6 L
-2.351 3.236 L
-1.522 0.494 L
cp
S
GR
GS
[0.75 0 0 0.75 376.5 95.08529] CT
/Helvetica 12 F
GS
[1 0 0 1 0 0] CT
0 4.5 moveto 
1 -1 scale
(4) t 
GR
GR
GS
[0.75 0 0 0.75 359.25 95.0853] CT
0 1 0 RC
N
f227889816
f
GR
GS
[0.75 0 0 0.75 359.25 95.0853] CT
0 1 0 RC
10.0 ML
N
-3 -3 M
-3 3 L
3 3 L
3 -3 L
cp
S
GR
GS
[0.75 0 0 0.75 376.5 106.6647] CT
/Helvetica 12 F
GS
[1 0 0 1 0 0] CT
0 4.5 moveto 
1 -1 scale
(3) t 
GR
GR
GS
[0.75 0 0 0.75 359.25 106.6647] CT
1 0 1 RC
N
f1022997606
f
GR
GS
[0.75 0 0 0.75 359.25 106.6647] CT
1 0 1 RC
10.0 ML
N
0 5.332 M
-4.618 -2.666 L
4.618 -2.666 L
cp
S
GR
GS
[0.75 0 0 0.75 376.5 118.24412] CT
/Helvetica 12 F
GS
[1 0 0 1 0 0] CT
0 4.5 moveto 
1 -1 scale
(2) t 
GR
GR
GS
[0.75 0 0 0.75 359.25 118.24412] CT
1 0 0 RC
N
f860094634
f
GR
GS
[0.75 0 0 0.75 359.25 118.24412] CT
1 0 0 RC
10.0 ML
N
0 -4 M
0 4 L
-4 0 M
4 0 L
S
GR
GS
[0.75 0 0 0.75 376.5 129.82353] CT
/Helvetica 12 F
GS
[1 0 0 1 0 0] CT
0 4.5 moveto 
1 -1 scale
(1) t 
GR
GR
GS
[0.75 0 0 0.75 359.25 129.82353] CT
0 0 1 RC
N
f1719669614
f
GR
GS
[0.75 0 0 0.75 359.25 129.82353] CT
0 0 1 RC
10.0 ML
N
-2.828 -2.828 M
2.828 2.828 L
-2.828 2.828 M
2.828 -2.828 L
S
GR
GS
[0.75 0 0 0.75 376.5 141.40295] CT
/Helvetica 12 F
GS
[1 0 0 1 0 0] CT
0 4.5 moveto 
1 -1 scale
(0) t 
GR
GR
GS
[0.75 0 0 0.75 359.25 141.40295] CT
N
f351177404
f
GR
GS
[0.75 0 0 0.75 359.25 141.40295] CT
10.0 ML
N
4 0 M
4 -2.209 2.209 -4 0 -4 C
-2.209 -4 -4 -2.209 -4 0 C
-4 2.209 -2.209 4 0 4 C
2.209 4 4 2.209 4 0 C
cp
S
GR
GS
[0.75 0 0 0.75 0 0] CT
0.149 GC
10.0 ML
0.667 LW
N
455 198 M
455 71 L
532 71 L
532 198 L
cp
S
GR
%%Trailer
%%Pages: 1
%%EOF
