%!PS-Adobe-3.0 EPSF-3.0
%%Creator: (MATLAB, The Mathworks, Inc. Version 9.4.0.813654 \(R2018a\). Operating System: Linux)
%%Title: /data/geodynamo/natafh/Dynamo/Acoustics/elastic_shell_library/checking_scripts/Mehl_Fig1_good.eps
%%CreationDate: 2019-07-02T08:24:58
%%Pages: (atend)
%%BoundingBox: 0 0 527 442
%%LanguageLevel: 3
%%EndComments
%%BeginProlog
%%BeginResource: procset (Apache XML Graphics Std ProcSet) 1.2 0
%%Version: 1.2 0
%%Copyright: (Copyright 2001-2003,2010 The Apache Software Foundation. License terms: http://www.apache.org/licenses/LICENSE-2.0)
/bd{bind def}bind def
/ld{load def}bd
/GR/grestore ld
/GS/gsave ld
/RM/rmoveto ld
/C/curveto ld
/t/show ld
/L/lineto ld
/ML/setmiterlimit ld
/CT/concat ld
/f/fill ld
/N/newpath ld
/S/stroke ld
/CC/setcmykcolor ld
/A/ashow ld
/cp/closepath ld
/RC/setrgbcolor ld
/LJ/setlinejoin ld
/GC/setgray ld
/LW/setlinewidth ld
/M/moveto ld
/re {4 2 roll M
1 index 0 rlineto
0 exch rlineto
neg 0 rlineto
cp } bd
/_ctm matrix def
/_tm matrix def
/BT { _ctm currentmatrix pop matrix _tm copy pop 0 0 moveto } bd
/ET { _ctm setmatrix } bd
/iTm { _ctm setmatrix _tm concat } bd
/Tm { _tm astore pop iTm 0 0 moveto } bd
/ux 0.0 def
/uy 0.0 def
/F {
  /Tp exch def
  /Tf exch def
  Tf findfont Tp scalefont setfont
  /cf Tf def  /cs Tp def
} bd
/ULS {currentpoint /uy exch def /ux exch def} bd
/ULE {
  /Tcx currentpoint pop def
  gsave
  newpath
  cf findfont cs scalefont dup
  /FontMatrix get 0 get /Ts exch def /FontInfo get dup
  /UnderlinePosition get Ts mul /To exch def
  /UnderlineThickness get Ts mul /Tt exch def
  ux uy To add moveto  Tcx uy To add lineto
  Tt setlinewidth stroke
  grestore
} bd
/OLE {
  /Tcx currentpoint pop def
  gsave
  newpath
  cf findfont cs scalefont dup
  /FontMatrix get 0 get /Ts exch def /FontInfo get dup
  /UnderlinePosition get Ts mul /To exch def
  /UnderlineThickness get Ts mul /Tt exch def
  ux uy To add cs add moveto Tcx uy To add cs add lineto
  Tt setlinewidth stroke
  grestore
} bd
/SOE {
  /Tcx currentpoint pop def
  gsave
  newpath
  cf findfont cs scalefont dup
  /FontMatrix get 0 get /Ts exch def /FontInfo get dup
  /UnderlinePosition get Ts mul /To exch def
  /UnderlineThickness get Ts mul /Tt exch def
  ux uy To add cs 10 mul 26 idiv add moveto Tcx uy To add cs 10 mul 26 idiv add lineto
  Tt setlinewidth stroke
  grestore
} bd
/QT {
/Y22 exch store
/X22 exch store
/Y21 exch store
/X21 exch store
currentpoint
/Y21 load 2 mul add 3 div exch
/X21 load 2 mul add 3 div exch
/X21 load 2 mul /X22 load add 3 div
/Y21 load 2 mul /Y22 load add 3 div
/X22 load /Y22 load curveto
} bd
/SSPD {
dup length /d exch dict def
{
/v exch def
/k exch def
currentpagedevice k known {
/cpdv currentpagedevice k get def
v cpdv ne {
/upd false def
/nullv v type /nulltype eq def
/nullcpdv cpdv type /nulltype eq def
nullv nullcpdv or
{
/upd true def
} {
/sametype v type cpdv type eq def
sametype {
v type /arraytype eq {
/vlen v length def
/cpdvlen cpdv length def
vlen cpdvlen eq {
0 1 vlen 1 sub {
/i exch def
/obj v i get def
/cpdobj cpdv i get def
obj cpdobj ne {
/upd true def
exit
} if
} for
} {
/upd true def
} ifelse
} {
v type /dicttype eq {
v {
/dv exch def
/dk exch def
/cpddv cpdv dk get def
dv cpddv ne {
/upd true def
exit
} if
} forall
} {
/upd true def
} ifelse
} ifelse
} if
} ifelse
upd true eq {
d k v put
} if
} if
} if
} forall
d length 0 gt {
d setpagedevice
} if
} bd
/RE { % /NewFontName [NewEncodingArray] /FontName RE -
  findfont dup length dict begin
  {
    1 index /FID ne
    {def} {pop pop} ifelse
  } forall
  /Encoding exch def
  /FontName 1 index def
  currentdict definefont pop
  end
} bind def
%%EndResource
%%BeginResource: procset (Apache XML Graphics EPS ProcSet) 1.0 0
%%Version: 1.0 0
%%Copyright: (Copyright 2002-2003 The Apache Software Foundation. License terms: http://www.apache.org/licenses/LICENSE-2.0)
/BeginEPSF { %def
/b4_Inc_state save def         % Save state for cleanup
/dict_count countdictstack def % Count objects on dict stack
/op_count count 1 sub def      % Count objects on operand stack
userdict begin                 % Push userdict on dict stack
/showpage { } def              % Redefine showpage, { } = null proc
0 setgray 0 setlinecap         % Prepare graphics state
1 setlinewidth 0 setlinejoin
10 setmiterlimit [ ] 0 setdash newpath
/languagelevel where           % If level not equal to 1 then
{pop languagelevel             % set strokeadjust and
1 ne                           % overprint to their defaults.
{false setstrokeadjust false setoverprint
} if
} if
} bd
/EndEPSF { %def
count op_count sub {pop} repeat            % Clean up stacks
countdictstack dict_count sub {end} repeat
b4_Inc_state restore
} bd
%%EndResource
%FOPBeginFontDict
%%IncludeResource: font Courier-Oblique
%%IncludeResource: font Courier-BoldOblique
%%IncludeResource: font Courier-Bold
%%IncludeResource: font ZapfDingbats
%%IncludeResource: font Symbol
%%IncludeResource: font Helvetica
%%IncludeResource: font Helvetica-Oblique
%%IncludeResource: font Helvetica-Bold
%%IncludeResource: font Helvetica-BoldOblique
%%IncludeResource: font Times-Roman
%%IncludeResource: font Times-Italic
%%IncludeResource: font Times-Bold
%%IncludeResource: font Times-BoldItalic
%%IncludeResource: font Courier
%FOPEndFontDict
%%BeginResource: encoding WinAnsiEncoding
/WinAnsiEncoding [
/.notdef /.notdef /.notdef /.notdef /.notdef
/.notdef /.notdef /.notdef /.notdef /.notdef
/.notdef /.notdef /.notdef /.notdef /.notdef
/.notdef /.notdef /.notdef /.notdef /.notdef
/.notdef /.notdef /.notdef /.notdef /.notdef
/.notdef /.notdef /.notdef /.notdef /.notdef
/.notdef /.notdef /space /exclam /quotedbl
/numbersign /dollar /percent /ampersand /quotesingle
/parenleft /parenright /asterisk /plus /comma
/hyphen /period /slash /zero /one
/two /three /four /five /six
/seven /eight /nine /colon /semicolon
/less /equal /greater /question /at
/A /B /C /D /E
/F /G /H /I /J
/K /L /M /N /O
/P /Q /R /S /T
/U /V /W /X /Y
/Z /bracketleft /backslash /bracketright /asciicircum
/underscore /quoteleft /a /b /c
/d /e /f /g /h
/i /j /k /l /m
/n /o /p /q /r
/s /t /u /v /w
/x /y /z /braceleft /bar
/braceright /asciitilde /bullet /Euro /bullet
/quotesinglbase /florin /quotedblbase /ellipsis /dagger
/daggerdbl /circumflex /perthousand /Scaron /guilsinglleft
/OE /bullet /Zcaron /bullet /bullet
/quoteleft /quoteright /quotedblleft /quotedblright /bullet
/endash /emdash /asciitilde /trademark /scaron
/guilsinglright /oe /bullet /zcaron /Ydieresis
/space /exclamdown /cent /sterling /currency
/yen /brokenbar /section /dieresis /copyright
/ordfeminine /guillemotleft /logicalnot /sfthyphen /registered
/macron /degree /plusminus /twosuperior /threesuperior
/acute /mu /paragraph /middot /cedilla
/onesuperior /ordmasculine /guillemotright /onequarter /onehalf
/threequarters /questiondown /Agrave /Aacute /Acircumflex
/Atilde /Adieresis /Aring /AE /Ccedilla
/Egrave /Eacute /Ecircumflex /Edieresis /Igrave
/Iacute /Icircumflex /Idieresis /Eth /Ntilde
/Ograve /Oacute /Ocircumflex /Otilde /Odieresis
/multiply /Oslash /Ugrave /Uacute /Ucircumflex
/Udieresis /Yacute /Thorn /germandbls /agrave
/aacute /acircumflex /atilde /adieresis /aring
/ae /ccedilla /egrave /eacute /ecircumflex
/edieresis /igrave /iacute /icircumflex /idieresis
/eth /ntilde /ograve /oacute /ocircumflex
/otilde /odieresis /divide /oslash /ugrave
/uacute /ucircumflex /udieresis /yacute /thorn
/ydieresis
] def
%%EndResource
%FOPBeginFontReencode
/Courier-Oblique findfont
dup length dict begin
  {1 index /FID ne {def} {pop pop} ifelse} forall
  /Encoding WinAnsiEncoding def
  currentdict
end
/Courier-Oblique exch definefont pop
/Courier-BoldOblique findfont
dup length dict begin
  {1 index /FID ne {def} {pop pop} ifelse} forall
  /Encoding WinAnsiEncoding def
  currentdict
end
/Courier-BoldOblique exch definefont pop
/Courier-Bold findfont
dup length dict begin
  {1 index /FID ne {def} {pop pop} ifelse} forall
  /Encoding WinAnsiEncoding def
  currentdict
end
/Courier-Bold exch definefont pop
/Helvetica findfont
dup length dict begin
  {1 index /FID ne {def} {pop pop} ifelse} forall
  /Encoding WinAnsiEncoding def
  currentdict
end
/Helvetica exch definefont pop
/Helvetica-Oblique findfont
dup length dict begin
  {1 index /FID ne {def} {pop pop} ifelse} forall
  /Encoding WinAnsiEncoding def
  currentdict
end
/Helvetica-Oblique exch definefont pop
/Helvetica-Bold findfont
dup length dict begin
  {1 index /FID ne {def} {pop pop} ifelse} forall
  /Encoding WinAnsiEncoding def
  currentdict
end
/Helvetica-Bold exch definefont pop
/Helvetica-BoldOblique findfont
dup length dict begin
  {1 index /FID ne {def} {pop pop} ifelse} forall
  /Encoding WinAnsiEncoding def
  currentdict
end
/Helvetica-BoldOblique exch definefont pop
/Times-Roman findfont
dup length dict begin
  {1 index /FID ne {def} {pop pop} ifelse} forall
  /Encoding WinAnsiEncoding def
  currentdict
end
/Times-Roman exch definefont pop
/Times-Italic findfont
dup length dict begin
  {1 index /FID ne {def} {pop pop} ifelse} forall
  /Encoding WinAnsiEncoding def
  currentdict
end
/Times-Italic exch definefont pop
/Times-Bold findfont
dup length dict begin
  {1 index /FID ne {def} {pop pop} ifelse} forall
  /Encoding WinAnsiEncoding def
  currentdict
end
/Times-Bold exch definefont pop
/Times-BoldItalic findfont
dup length dict begin
  {1 index /FID ne {def} {pop pop} ifelse} forall
  /Encoding WinAnsiEncoding def
  currentdict
end
/Times-BoldItalic exch definefont pop
/Courier findfont
dup length dict begin
  {1 index /FID ne {def} {pop pop} ifelse} forall
  /Encoding WinAnsiEncoding def
  currentdict
end
/Courier exch definefont pop
%FOPEndFontReencode
%%EndProlog
%%Page: 1 1
%%PageBoundingBox: 0 0 527 442
%%BeginPageSetup
[1 0 0 -1 0 442] CT
%%EndPageSetup
GS
[0.75 0 0 0.75 0 0.25] CT
N
0 0 M
703 0 L
703 589 L
0 589 L
0 0 L
cp
clip
1 GC
N
0 0 703 589 re
f
GR
GS
[0.75 0 0 0.75 0 0.25] CT
1 GC
N
0 0 703 589 re
f
GR
GS
[0.75 0 0 0.75 0 0.25] CT
1 GC
N
91 524 M
636 524 L
636 44 L
91 44 L
cp
f
GR
GS
[0.75 0 0 0.75 0 0.25] CT
0.149 GC
2 setlinecap
1 LJ
0.667 LW
N
91 524 M
636 524 L
S
GR
GS
[0.75 0 0 0.75 0 0.25] CT
0.149 GC
2 setlinecap
1 LJ
0.667 LW
N
91 44 M
636 44 L
S
GR
GS
[0.75 0 0 0.75 0 0.25] CT
0.149 GC
2 setlinecap
1 LJ
0.667 LW
N
91 524 M
91 518.55 L
S
GR
GS
[0.75 0 0 0.75 0 0.25] CT
0.149 GC
2 setlinecap
1 LJ
0.667 LW
N
200 524 M
200 518.55 L
S
GR
GS
[0.75 0 0 0.75 0 0.25] CT
0.149 GC
2 setlinecap
1 LJ
0.667 LW
N
309 524 M
309 518.55 L
S
GR
GS
[0.75 0 0 0.75 0 0.25] CT
0.149 GC
2 setlinecap
1 LJ
0.667 LW
N
418 524 M
418 518.55 L
S
GR
GS
[0.75 0 0 0.75 0 0.25] CT
0.149 GC
2 setlinecap
1 LJ
0.667 LW
N
527 524 M
527 518.55 L
S
GR
GS
[0.75 0 0 0.75 0 0.25] CT
0.149 GC
2 setlinecap
1 LJ
0.667 LW
N
636 524 M
636 518.55 L
S
GR
GS
[0.75 0 0 0.75 0 0.25] CT
0.149 GC
2 setlinecap
1 LJ
0.667 LW
N
91 44 M
91 49.45 L
S
GR
GS
[0.75 0 0 0.75 0 0.25] CT
0.149 GC
2 setlinecap
1 LJ
0.667 LW
N
200 44 M
200 49.45 L
S
GR
GS
[0.75 0 0 0.75 0 0.25] CT
0.149 GC
2 setlinecap
1 LJ
0.667 LW
N
309 44 M
309 49.45 L
S
GR
GS
[0.75 0 0 0.75 0 0.25] CT
0.149 GC
2 setlinecap
1 LJ
0.667 LW
N
418 44 M
418 49.45 L
S
GR
GS
[0.75 0 0 0.75 0 0.25] CT
0.149 GC
2 setlinecap
1 LJ
0.667 LW
N
527 44 M
527 49.45 L
S
GR
GS
[0.75 0 0 0.75 0 0.25] CT
0.149 GC
2 setlinecap
1 LJ
0.667 LW
N
636 44 M
636 49.45 L
S
GR
GS
[0.75 0 0 0.75 68.25 398.45001] CT
0.149 GC
/Helvetica 21.333 F
GS
[1 0 0 1 0 0] CT
-7 20 moveto 
1 -1 scale
(1) t 
GR
GR
GS
[0.75 0 0 0.75 150.00002 398.45001] CT
0.149 GC
/Helvetica 21.333 F
GS
[1 0 0 1 0 0] CT
-17 20 moveto 
1 -1 scale
(1.2) t 
GR
GR
GS
[0.75 0 0 0.75 231.75 398.45001] CT
0.149 GC
/Helvetica 21.333 F
GS
[1 0 0 1 0 0] CT
-17 20 moveto 
1 -1 scale
(1.4) t 
GR
GR
GS
[0.75 0 0 0.75 313.5 398.45001] CT
0.149 GC
/Helvetica 21.333 F
GS
[1 0 0 1 0 0] CT
-17 20 moveto 
1 -1 scale
(1.6) t 
GR
GR
GS
[0.75 0 0 0.75 395.25 398.45001] CT
0.149 GC
/Helvetica 21.333 F
GS
[1 0 0 1 0 0] CT
-17 20 moveto 
1 -1 scale
(1.8) t 
GR
GR
GS
[0.75 0 0 0.75 477 398.45001] CT
0.149 GC
/Helvetica 21.333 F
GS
[1 0 0 1 0 0] CT
-7 20 moveto 
1 -1 scale
(2) t 
GR
GR
GS
[0.75 0 0 0.75 272.62521 418.95] CT
0.149 GC
/Helvetica 23.467 F
GS
[1 0 0 1 0 0] CT
-19 22 moveto 
1 -1 scale
(b/a) t 
GR
GR
GS
[0.75 0 0 0.75 0 0.25] CT
0.149 GC
2 setlinecap
1 LJ
0.667 LW
N
91 524 M
91 44 L
S
GR
GS
[0.75 0 0 0.75 0 0.25] CT
0.149 GC
2 setlinecap
1 LJ
0.667 LW
N
636 524 M
636 44 L
S
GR
GS
[0.75 0 0 0.75 0 0.25] CT
0.149 GC
2 setlinecap
1 LJ
0.667 LW
N
91 524 M
96.45 524 L
S
GR
GS
[0.75 0 0 0.75 0 0.25] CT
0.149 GC
2 setlinecap
1 LJ
0.667 LW
N
91 476 M
96.45 476 L
S
GR
GS
[0.75 0 0 0.75 0 0.25] CT
0.149 GC
2 setlinecap
1 LJ
0.667 LW
N
91 428 M
96.45 428 L
S
GR
GS
[0.75 0 0 0.75 0 0.25] CT
0.149 GC
2 setlinecap
1 LJ
0.667 LW
N
91 380 M
96.45 380 L
S
GR
GS
[0.75 0 0 0.75 0 0.25] CT
0.149 GC
2 setlinecap
1 LJ
0.667 LW
N
91 332 M
96.45 332 L
S
GR
GS
[0.75 0 0 0.75 0 0.25] CT
0.149 GC
2 setlinecap
1 LJ
0.667 LW
N
91 284 M
96.45 284 L
S
GR
GS
[0.75 0 0 0.75 0 0.25] CT
0.149 GC
2 setlinecap
1 LJ
0.667 LW
N
91 236 M
96.45 236 L
S
GR
GS
[0.75 0 0 0.75 0 0.25] CT
0.149 GC
2 setlinecap
1 LJ
0.667 LW
N
91 188 M
96.45 188 L
S
GR
GS
[0.75 0 0 0.75 0 0.25] CT
0.149 GC
2 setlinecap
1 LJ
0.667 LW
N
91 140 M
96.45 140 L
S
GR
GS
[0.75 0 0 0.75 0 0.25] CT
0.149 GC
2 setlinecap
1 LJ
0.667 LW
N
91 92 M
96.45 92 L
S
GR
GS
[0.75 0 0 0.75 0 0.25] CT
0.149 GC
2 setlinecap
1 LJ
0.667 LW
N
91 44 M
96.45 44 L
S
GR
GS
[0.75 0 0 0.75 0 0.25] CT
0.149 GC
2 setlinecap
1 LJ
0.667 LW
N
636 524 M
630.55 524 L
S
GR
GS
[0.75 0 0 0.75 0 0.25] CT
0.149 GC
2 setlinecap
1 LJ
0.667 LW
N
636 476 M
630.55 476 L
S
GR
GS
[0.75 0 0 0.75 0 0.25] CT
0.149 GC
2 setlinecap
1 LJ
0.667 LW
N
636 428 M
630.55 428 L
S
GR
GS
[0.75 0 0 0.75 0 0.25] CT
0.149 GC
2 setlinecap
1 LJ
0.667 LW
N
636 380 M
630.55 380 L
S
GR
GS
[0.75 0 0 0.75 0 0.25] CT
0.149 GC
2 setlinecap
1 LJ
0.667 LW
N
636 332 M
630.55 332 L
S
GR
GS
[0.75 0 0 0.75 0 0.25] CT
0.149 GC
2 setlinecap
1 LJ
0.667 LW
N
636 284 M
630.55 284 L
S
GR
GS
[0.75 0 0 0.75 0 0.25] CT
0.149 GC
2 setlinecap
1 LJ
0.667 LW
N
636 236 M
630.55 236 L
S
GR
GS
[0.75 0 0 0.75 0 0.25] CT
0.149 GC
2 setlinecap
1 LJ
0.667 LW
N
636 188 M
630.55 188 L
S
GR
GS
[0.75 0 0 0.75 0 0.25] CT
0.149 GC
2 setlinecap
1 LJ
0.667 LW
N
636 140 M
630.55 140 L
S
GR
GS
[0.75 0 0 0.75 0 0.25] CT
0.149 GC
2 setlinecap
1 LJ
0.667 LW
N
636 92 M
630.55 92 L
S
GR
GS
[0.75 0 0 0.75 0 0.25] CT
0.149 GC
2 setlinecap
1 LJ
0.667 LW
N
636 44 M
630.55 44 L
S
GR
GS
[0.75 0 0 0.75 63.05 393.25] CT
0.149 GC
/Helvetica 21.333 F
GS
[1 0 0 1 0 0] CT
-14 7 moveto 
1 -1 scale
(0) t 
GR
GR
GS
[0.75 0 0 0.75 63.05 357.25] CT
0.149 GC
/Helvetica 21.333 F
GS
[1 0 0 1 0 0] CT
-34 7 moveto 
1 -1 scale
(0.2) t 
GR
GR
GS
[0.75 0 0 0.75 63.05 321.25] CT
0.149 GC
/Helvetica 21.333 F
GS
[1 0 0 1 0 0] CT
-34 7 moveto 
1 -1 scale
(0.4) t 
GR
GR
GS
[0.75 0 0 0.75 63.05 285.25] CT
0.149 GC
/Helvetica 21.333 F
GS
[1 0 0 1 0 0] CT
-34 7 moveto 
1 -1 scale
(0.6) t 
GR
GR
GS
[0.75 0 0 0.75 63.05 249.25] CT
0.149 GC
/Helvetica 21.333 F
GS
[1 0 0 1 0 0] CT
-34 7 moveto 
1 -1 scale
(0.8) t 
GR
GR
GS
[0.75 0 0 0.75 63.05 213.25] CT
0.149 GC
/Helvetica 21.333 F
GS
[1 0 0 1 0 0] CT
-14 7 moveto 
1 -1 scale
(1) t 
GR
GR
GS
[0.75 0 0 0.75 63.05 177.24999] CT
0.149 GC
/Helvetica 21.333 F
GS
[1 0 0 1 0 0] CT
-34 7 moveto 
1 -1 scale
(1.2) t 
GR
GR
GS
[0.75 0 0 0.75 63.05 141.25] CT
0.149 GC
/Helvetica 21.333 F
GS
[1 0 0 1 0 0] CT
-34 7 moveto 
1 -1 scale
(1.4) t 
GR
GR
GS
[0.75 0 0 0.75 63.05 105.25] CT
0.149 GC
/Helvetica 21.333 F
GS
[1 0 0 1 0 0] CT
-34 7 moveto 
1 -1 scale
(1.6) t 
GR
GR
GS
[0.75 0 0 0.75 63.05 69.25001] CT
0.149 GC
/Helvetica 21.333 F
GS
[1 0 0 1 0 0] CT
-34 7 moveto 
1 -1 scale
(1.8) t 
GR
GR
GS
[0.75 0 0 0.75 63.05 33.25] CT
0.149 GC
/Helvetica 21.333 F
GS
[1 0 0 1 0 0] CT
-14 7 moveto 
1 -1 scale
(2) t 
GR
GR
GS
[0 -0.75 0.75 0 22.5 280] CT
0.149 GC
/Helvetica 23.467 F
GS
[1 0 0 1 0 0] CT
0 0 moveto 
1 -1 scale
(normalized ) t 
GR
GR
GS
[0 -0.75 0.75 0 22.5 175.75] CT
0.149 GC
N
0.734 0 M
0.734 -0.813 L
2.531 -0.813 2.984 -2.172 QT
7.484 -16.219 L
7.563 -16.469 7.813 -16.469 QT
8.125 -16.469 L
8.25 -16.469 8.344 -16.398 QT
8.438 -16.328 8.469 -16.219 QT
13.156 -1.531 L
13.359 -1.047 13.875 -0.93 QT
14.391 -0.813 15.203 -0.813 QT
15.203 0 L
8.969 0 L
8.969 -0.813 L
10.922 -0.813 10.922 -1.422 QT
10.922 -1.5 10.906 -1.531 QT
7.266 -12.953 L
3.844 -2.172 L
3.797 -2.016 3.797 -1.938 QT
3.797 -1.359 4.367 -1.086 QT
4.938 -0.813 5.578 -0.813 QT
5.578 0 L
0.734 0 L
cp
f
GR
GS
[0 -0.75 0.75 0 30.75 163] CT
0.149 GC
/Helvetica 18.773 F
GS
[1 0 0 1 0 0] CT
0 0 moveto 
1 -1 scale
(ns) t 
GR
GR
GS
[0.75 0 0 0.75 272.62525 29.94998] CT
/Helvetica-Bold 23.467 F
GS
[1 0 0 1 0 0] CT
-338 -6 moveto 
1 -1 scale
(compare with Figure 1 of Mehl \(1985\) - 02-Jul-2019) t 
GR
GR
GS
[0.75 0 0 0.75 0 0.25] CT
0 0 1 RC
1 LJ
2.667 LW
N
101.9 191.435 M
112.8 194.642 L
123.7 197.754 L
134.6 200.775 L
145.5 203.71 L
156.4 206.564 L
167.3 209.339 L
178.2 212.04 L
189.1 214.67 L
200 217.232 L
210.9 219.729 L
221.8 222.164 L
232.7 224.54 L
243.6 226.859 L
254.5 229.124 L
265.4 231.338 L
276.3 233.501 L
287.2 235.617 L
298.1 237.686 L
309 239.712 L
319.9 241.696 L
330.8 243.639 L
341.7 245.543 L
352.6 247.41 L
363.5 249.241 L
374.4 251.037 L
385.3 252.799 L
396.2 254.53 L
407.1 256.229 L
418 257.899 L
428.9 259.539 L
439.8 261.152 L
450.7 262.738 L
461.6 264.299 L
472.5 265.834 L
483.4 267.345 L
494.3 268.832 L
505.2 270.297 L
516.1 271.74 L
527 273.162 L
537.9 274.564 L
548.8 275.945 L
559.7 277.308 L
570.6 278.652 L
581.5 279.977 L
592.4 281.285 L
603.3 282.577 L
614.2 283.851 L
625.1 285.11 L
636 286.353 L
S
GR
GS
[0.75 0 0 0.75 0 0.25] CT
1 0 0 RC
1 LJ
2.667 LW
N
101.9 116.751 M
112.8 120.848 L
123.7 124.93 L
134.6 128.995 L
145.5 133.042 L
156.4 137.068 L
167.3 141.074 L
178.2 145.057 L
189.1 149.019 L
200 152.959 L
210.9 156.876 L
221.8 160.77 L
232.7 164.643 L
243.6 168.492 L
254.5 172.319 L
265.4 176.124 L
276.3 179.905 L
287.2 183.664 L
298.1 187.399 L
309 191.111 L
319.9 194.798 L
330.8 198.461 L
341.7 202.099 L
352.6 205.71 L
363.5 209.295 L
374.4 212.852 L
385.3 216.38 L
396.2 219.879 L
407.1 223.348 L
418 226.784 L
428.9 230.189 L
439.8 233.559 L
450.7 236.895 L
461.6 240.195 L
472.5 243.458 L
483.4 246.684 L
494.3 249.871 L
505.2 253.019 L
516.1 256.127 L
527 259.194 L
537.9 262.22 L
548.8 265.203 L
559.7 268.145 L
570.6 271.043 L
581.5 273.899 L
592.4 276.711 L
603.3 279.48 L
614.2 282.205 L
625.1 284.887 L
636 287.525 L
S
GR
GS
[0.75 0 0 0.75 0 0.25] CT
1 LJ
2.667 LW
N
101.9 386.991 M
112.8 388.189 L
123.7 389.276 L
134.6 390.262 L
145.5 391.156 L
156.4 391.97 L
167.3 392.71 L
178.2 393.387 L
189.1 394.007 L
200 394.579 L
210.9 395.109 L
221.8 395.603 L
232.7 396.067 L
243.6 396.505 L
254.5 396.923 L
265.4 397.324 L
276.3 397.711 L
287.2 398.088 L
298.1 398.457 L
309 398.82 L
319.9 399.181 L
330.8 399.539 L
341.7 399.897 L
352.6 400.256 L
363.5 400.617 L
374.4 400.98 L
385.3 401.347 L
396.2 401.718 L
407.1 402.093 L
418 402.472 L
428.9 402.856 L
439.8 403.245 L
450.7 403.639 L
461.6 404.039 L
472.5 404.443 L
483.4 404.852 L
494.3 405.265 L
505.2 405.684 L
516.1 406.107 L
527 406.534 L
537.9 406.966 L
548.8 407.401 L
559.7 407.84 L
570.6 408.283 L
581.5 408.729 L
592.4 409.179 L
603.3 409.631 L
614.2 410.086 L
625.1 410.543 L
636 411.003 L
S
GR
GS
[0.75 0 0 0.75 0 0.25] CT
0 1 0 RC
1 LJ
2.667 LW
N
101.9 360.618 M
112.8 361.299 L
123.7 361.426 L
134.6 361.083 L
145.5 360.351 L
156.4 359.308 L
167.3 358.028 L
178.2 356.575 L
189.1 355.006 L
200 353.371 L
210.9 351.708 L
221.8 350.051 L
232.7 348.426 L
243.6 346.853 L
254.5 345.348 L
265.4 343.923 L
276.3 342.584 L
287.2 341.338 L
298.1 340.187 L
309 339.133 L
319.9 338.175 L
330.8 337.312 L
341.7 336.543 L
352.6 335.864 L
363.5 335.273 L
374.4 334.766 L
385.3 334.34 L
396.2 333.991 L
407.1 333.715 L
418 333.509 L
428.9 333.37 L
439.8 333.294 L
450.7 333.277 L
461.6 333.316 L
472.5 333.409 L
483.4 333.551 L
494.3 333.741 L
505.2 333.976 L
516.1 334.252 L
527 334.568 L
537.9 334.922 L
548.8 335.31 L
559.7 335.731 L
570.6 336.183 L
581.5 336.664 L
592.4 337.172 L
603.3 337.706 L
614.2 338.264 L
625.1 338.845 L
636 339.446 L
S
GR
GS
[0.75 0 0 0.75 0 0.25] CT
0 1 1 RC
1 LJ
2.667 LW
N
101.9 349.437 M
112.8 348.123 L
123.7 345.173 L
134.6 340.967 L
145.5 335.871 L
156.4 330.21 L
167.3 324.253 L
178.2 318.21 L
189.1 312.24 L
200 306.456 L
210.9 300.937 L
221.8 295.732 L
232.7 290.871 L
243.6 286.367 L
254.5 282.222 L
265.4 278.432 L
276.3 274.986 L
287.2 271.87 L
298.1 269.068 L
309 266.561 L
319.9 264.334 L
330.8 262.368 L
341.7 260.647 L
352.6 259.153 L
363.5 257.872 L
374.4 256.789 L
385.3 255.89 L
396.2 255.162 L
407.1 254.593 L
418 254.171 L
428.9 253.887 L
439.8 253.731 L
450.7 253.694 L
461.6 253.767 L
472.5 253.943 L
483.4 254.215 L
494.3 254.577 L
505.2 255.021 L
516.1 255.544 L
527 256.138 L
537.9 256.8 L
548.8 257.524 L
559.7 258.308 L
570.6 259.145 L
581.5 260.034 L
592.4 260.97 L
603.3 261.95 L
614.2 262.971 L
625.1 264.03 L
636 265.124 L
S
GR
GS
[0.75 0 0 0.75 0 0.25] CT
1 0 1 RC
1 LJ
2.667 LW
N
101.9 342.714 M
112.8 337.23 L
123.7 328.274 L
134.6 317.073 L
145.5 304.677 L
156.4 291.879 L
167.3 279.229 L
178.2 267.083 L
189.1 255.654 L
200 245.055 L
210.9 235.333 L
221.8 226.489 L
232.7 218.5 L
243.6 211.323 L
254.5 204.911 L
265.4 199.21 L
276.3 194.166 L
287.2 189.726 L
298.1 185.842 L
309 182.465 L
319.9 179.553 L
330.8 177.065 L
341.7 174.967 L
352.6 173.224 L
363.5 171.806 L
374.4 170.686 L
385.3 169.84 L
396.2 169.245 L
407.1 168.881 L
418 168.729 L
428.9 168.772 L
439.8 168.997 L
450.7 169.388 L
461.6 169.933 L
472.5 170.621 L
483.4 171.441 L
494.3 172.383 L
505.2 173.439 L
516.1 174.6 L
527 175.857 L
537.9 177.205 L
548.8 178.636 L
559.7 180.144 L
570.6 181.723 L
581.5 183.366 L
592.4 185.07 L
603.3 186.829 L
614.2 188.637 L
625.1 190.49 L
636 192.385 L
S
GR
GS
[0.75 0 0 0.75 0 0.25] CT
0.078 0.169 0.549 RC
1 LJ
2.667 LW
N
101.9 337.039 M
112.8 324.483 L
123.7 306.141 L
134.6 284.948 L
145.5 262.99 L
156.4 241.555 L
167.3 221.364 L
178.2 202.773 L
189.1 185.915 L
200 170.791 L
210.9 157.329 L
221.8 145.422 L
232.7 134.944 L
243.6 125.768 L
254.5 117.77 L
265.4 110.833 L
276.3 104.851 L
287.2 99.726 L
298.1 95.373 L
309 91.713 L
319.9 88.677 L
330.8 86.204 L
341.7 84.24 L
352.6 82.737 L
363.5 81.652 L
374.4 80.947 L
385.3 80.588 L
396.2 80.546 L
407.1 80.793 L
418 81.306 L
428.9 82.063 L
439.8 83.044 L
450.7 84.232 L
461.6 85.61 L
472.5 87.162 L
483.4 88.876 L
494.3 90.737 L
505.2 92.735 L
516.1 94.857 L
527 97.094 L
537.9 99.433 L
548.8 101.867 L
559.7 104.385 L
570.6 106.979 L
581.5 109.64 L
592.4 112.36 L
603.3 115.133 L
614.2 117.949 L
625.1 120.803 L
636 123.688 L
S
GR
GS
[0.75 0 0 0.75 0 0.25] CT
1 GC
N
669 483 M
669 315 L
605 315 L
605 483 L
cp
f
GR
GS
[0.75 0 0 0.75 489 246.625] CT
/Helvetica 19.2 F
GS
[1 0 0 1 0 0] CT
0 6.5 moveto 
1 -1 scale
(0) t 
GR
GR
GS
[0.75 0 0 0.75 0 0.25] CT
0 0 1 RC
1 LJ
2.667 LW
N
609 328.5 M
649 328.5 L
S
GR
GS
[0.75 0 0 0.75 489 264.25] CT
/Helvetica 19.2 F
GS
[1 0 0 1 0 0] CT
0 6.5 moveto 
1 -1 scale
(1) t 
GR
GR
GS
[0.75 0 0 0.75 0 0.25] CT
1 0 0 RC
1 LJ
2.667 LW
N
609 352 M
649 352 L
S
GR
GS
[0.75 0 0 0.75 489 281.875] CT
/Helvetica 19.2 F
GS
[1 0 0 1 0 0] CT
0 6.5 moveto 
1 -1 scale
(2) t 
GR
GR
GS
[0.75 0 0 0.75 0 0.25] CT
1 LJ
2.667 LW
N
609 375.5 M
649 375.5 L
S
GR
GS
[0.75 0 0 0.75 489 299.5] CT
/Helvetica 19.2 F
GS
[1 0 0 1 0 0] CT
0 6.5 moveto 
1 -1 scale
(3) t 
GR
GR
GS
[0.75 0 0 0.75 0 0.25] CT
0 1 0 RC
1 LJ
2.667 LW
N
609 399 M
649 399 L
S
GR
GS
[0.75 0 0 0.75 489 317.125] CT
/Helvetica 19.2 F
GS
[1 0 0 1 0 0] CT
0 6.5 moveto 
1 -1 scale
(4) t 
GR
GR
GS
[0.75 0 0 0.75 0 0.25] CT
0 1 1 RC
1 LJ
2.667 LW
N
609 422.5 M
649 422.5 L
S
GR
GS
[0.75 0 0 0.75 489 334.75] CT
/Helvetica 19.2 F
GS
[1 0 0 1 0 0] CT
0 6.5 moveto 
1 -1 scale
(5) t 
GR
GR
GS
[0.75 0 0 0.75 0 0.25] CT
1 0 1 RC
1 LJ
2.667 LW
N
609 446 M
649 446 L
S
GR
GS
[0.75 0 0 0.75 489 352.375] CT
/Helvetica 19.2 F
GS
[1 0 0 1 0 0] CT
0 6.5 moveto 
1 -1 scale
(6) t 
GR
GR
GS
[0.75 0 0 0.75 0 0.25] CT
0.078 0.169 0.549 RC
1 LJ
2.667 LW
N
609 469.5 M
649 469.5 L
S
GR
GS
[0.75 0 0 0.75 0 0.25] CT
0.149 GC
10.0 ML
0.667 LW
N
605 483 M
605 315 L
669 315 L
669 483 L
cp
S
GR
%%Trailer
%%Pages: 1
%%EOF
