%!PS-Adobe-3.0 EPSF-3.0
%%Creator: (MATLAB, The Mathworks, Inc. Version 9.4.0.813654 \(R2018a\). Operating System: Linux)
%%Title: /data/geodynamo/natafh/Dynamo/Acoustics/elastic_shell_library/checking_scripts/Figures/ZoRo2_frequency_shifts_zoom.eps
%%CreationDate: 2019-07-02T16:54:44
%%Pages: (atend)
%%BoundingBox: 0 0 590 668
%%LanguageLevel: 3
%%EndComments
%%BeginProlog
%%BeginResource: procset (Apache XML Graphics Std ProcSet) 1.2 0
%%Version: 1.2 0
%%Copyright: (Copyright 2001-2003,2010 The Apache Software Foundation. License terms: http://www.apache.org/licenses/LICENSE-2.0)
/bd{bind def}bind def
/ld{load def}bd
/GR/grestore ld
/GS/gsave ld
/RM/rmoveto ld
/C/curveto ld
/t/show ld
/L/lineto ld
/ML/setmiterlimit ld
/CT/concat ld
/f/fill ld
/N/newpath ld
/S/stroke ld
/CC/setcmykcolor ld
/A/ashow ld
/cp/closepath ld
/RC/setrgbcolor ld
/LJ/setlinejoin ld
/GC/setgray ld
/LW/setlinewidth ld
/M/moveto ld
/re {4 2 roll M
1 index 0 rlineto
0 exch rlineto
neg 0 rlineto
cp } bd
/_ctm matrix def
/_tm matrix def
/BT { _ctm currentmatrix pop matrix _tm copy pop 0 0 moveto } bd
/ET { _ctm setmatrix } bd
/iTm { _ctm setmatrix _tm concat } bd
/Tm { _tm astore pop iTm 0 0 moveto } bd
/ux 0.0 def
/uy 0.0 def
/F {
  /Tp exch def
  /Tf exch def
  Tf findfont Tp scalefont setfont
  /cf Tf def  /cs Tp def
} bd
/ULS {currentpoint /uy exch def /ux exch def} bd
/ULE {
  /Tcx currentpoint pop def
  gsave
  newpath
  cf findfont cs scalefont dup
  /FontMatrix get 0 get /Ts exch def /FontInfo get dup
  /UnderlinePosition get Ts mul /To exch def
  /UnderlineThickness get Ts mul /Tt exch def
  ux uy To add moveto  Tcx uy To add lineto
  Tt setlinewidth stroke
  grestore
} bd
/OLE {
  /Tcx currentpoint pop def
  gsave
  newpath
  cf findfont cs scalefont dup
  /FontMatrix get 0 get /Ts exch def /FontInfo get dup
  /UnderlinePosition get Ts mul /To exch def
  /UnderlineThickness get Ts mul /Tt exch def
  ux uy To add cs add moveto Tcx uy To add cs add lineto
  Tt setlinewidth stroke
  grestore
} bd
/SOE {
  /Tcx currentpoint pop def
  gsave
  newpath
  cf findfont cs scalefont dup
  /FontMatrix get 0 get /Ts exch def /FontInfo get dup
  /UnderlinePosition get Ts mul /To exch def
  /UnderlineThickness get Ts mul /Tt exch def
  ux uy To add cs 10 mul 26 idiv add moveto Tcx uy To add cs 10 mul 26 idiv add lineto
  Tt setlinewidth stroke
  grestore
} bd
/QT {
/Y22 exch store
/X22 exch store
/Y21 exch store
/X21 exch store
currentpoint
/Y21 load 2 mul add 3 div exch
/X21 load 2 mul add 3 div exch
/X21 load 2 mul /X22 load add 3 div
/Y21 load 2 mul /Y22 load add 3 div
/X22 load /Y22 load curveto
} bd
/SSPD {
dup length /d exch dict def
{
/v exch def
/k exch def
currentpagedevice k known {
/cpdv currentpagedevice k get def
v cpdv ne {
/upd false def
/nullv v type /nulltype eq def
/nullcpdv cpdv type /nulltype eq def
nullv nullcpdv or
{
/upd true def
} {
/sametype v type cpdv type eq def
sametype {
v type /arraytype eq {
/vlen v length def
/cpdvlen cpdv length def
vlen cpdvlen eq {
0 1 vlen 1 sub {
/i exch def
/obj v i get def
/cpdobj cpdv i get def
obj cpdobj ne {
/upd true def
exit
} if
} for
} {
/upd true def
} ifelse
} {
v type /dicttype eq {
v {
/dv exch def
/dk exch def
/cpddv cpdv dk get def
dv cpddv ne {
/upd true def
exit
} if
} forall
} {
/upd true def
} ifelse
} ifelse
} if
} ifelse
upd true eq {
d k v put
} if
} if
} if
} forall
d length 0 gt {
d setpagedevice
} if
} bd
/RE { % /NewFontName [NewEncodingArray] /FontName RE -
  findfont dup length dict begin
  {
    1 index /FID ne
    {def} {pop pop} ifelse
  } forall
  /Encoding exch def
  /FontName 1 index def
  currentdict definefont pop
  end
} bind def
%%EndResource
%%BeginResource: procset (Apache XML Graphics EPS ProcSet) 1.0 0
%%Version: 1.0 0
%%Copyright: (Copyright 2002-2003 The Apache Software Foundation. License terms: http://www.apache.org/licenses/LICENSE-2.0)
/BeginEPSF { %def
/b4_Inc_state save def         % Save state for cleanup
/dict_count countdictstack def % Count objects on dict stack
/op_count count 1 sub def      % Count objects on operand stack
userdict begin                 % Push userdict on dict stack
/showpage { } def              % Redefine showpage, { } = null proc
0 setgray 0 setlinecap         % Prepare graphics state
1 setlinewidth 0 setlinejoin
10 setmiterlimit [ ] 0 setdash newpath
/languagelevel where           % If level not equal to 1 then
{pop languagelevel             % set strokeadjust and
1 ne                           % overprint to their defaults.
{false setstrokeadjust false setoverprint
} if
} if
} bd
/EndEPSF { %def
count op_count sub {pop} repeat            % Clean up stacks
countdictstack dict_count sub {end} repeat
b4_Inc_state restore
} bd
%%EndResource
%FOPBeginFontDict
%%IncludeResource: font Courier-Oblique
%%IncludeResource: font Courier-BoldOblique
%%IncludeResource: font Courier-Bold
%%IncludeResource: font ZapfDingbats
%%IncludeResource: font Symbol
%%IncludeResource: font Helvetica
%%IncludeResource: font Helvetica-Oblique
%%IncludeResource: font Helvetica-Bold
%%IncludeResource: font Helvetica-BoldOblique
%%IncludeResource: font Times-Roman
%%IncludeResource: font Times-Italic
%%IncludeResource: font Times-Bold
%%IncludeResource: font Times-BoldItalic
%%IncludeResource: font Courier
%FOPEndFontDict
%%BeginResource: encoding WinAnsiEncoding
/WinAnsiEncoding [
/.notdef /.notdef /.notdef /.notdef /.notdef
/.notdef /.notdef /.notdef /.notdef /.notdef
/.notdef /.notdef /.notdef /.notdef /.notdef
/.notdef /.notdef /.notdef /.notdef /.notdef
/.notdef /.notdef /.notdef /.notdef /.notdef
/.notdef /.notdef /.notdef /.notdef /.notdef
/.notdef /.notdef /space /exclam /quotedbl
/numbersign /dollar /percent /ampersand /quotesingle
/parenleft /parenright /asterisk /plus /comma
/hyphen /period /slash /zero /one
/two /three /four /five /six
/seven /eight /nine /colon /semicolon
/less /equal /greater /question /at
/A /B /C /D /E
/F /G /H /I /J
/K /L /M /N /O
/P /Q /R /S /T
/U /V /W /X /Y
/Z /bracketleft /backslash /bracketright /asciicircum
/underscore /quoteleft /a /b /c
/d /e /f /g /h
/i /j /k /l /m
/n /o /p /q /r
/s /t /u /v /w
/x /y /z /braceleft /bar
/braceright /asciitilde /bullet /Euro /bullet
/quotesinglbase /florin /quotedblbase /ellipsis /dagger
/daggerdbl /circumflex /perthousand /Scaron /guilsinglleft
/OE /bullet /Zcaron /bullet /bullet
/quoteleft /quoteright /quotedblleft /quotedblright /bullet
/endash /emdash /asciitilde /trademark /scaron
/guilsinglright /oe /bullet /zcaron /Ydieresis
/space /exclamdown /cent /sterling /currency
/yen /brokenbar /section /dieresis /copyright
/ordfeminine /guillemotleft /logicalnot /sfthyphen /registered
/macron /degree /plusminus /twosuperior /threesuperior
/acute /mu /paragraph /middot /cedilla
/onesuperior /ordmasculine /guillemotright /onequarter /onehalf
/threequarters /questiondown /Agrave /Aacute /Acircumflex
/Atilde /Adieresis /Aring /AE /Ccedilla
/Egrave /Eacute /Ecircumflex /Edieresis /Igrave
/Iacute /Icircumflex /Idieresis /Eth /Ntilde
/Ograve /Oacute /Ocircumflex /Otilde /Odieresis
/multiply /Oslash /Ugrave /Uacute /Ucircumflex
/Udieresis /Yacute /Thorn /germandbls /agrave
/aacute /acircumflex /atilde /adieresis /aring
/ae /ccedilla /egrave /eacute /ecircumflex
/edieresis /igrave /iacute /icircumflex /idieresis
/eth /ntilde /ograve /oacute /ocircumflex
/otilde /odieresis /divide /oslash /ugrave
/uacute /ucircumflex /udieresis /yacute /thorn
/ydieresis
] def
%%EndResource
%FOPBeginFontReencode
/Courier-Oblique findfont
dup length dict begin
  {1 index /FID ne {def} {pop pop} ifelse} forall
  /Encoding WinAnsiEncoding def
  currentdict
end
/Courier-Oblique exch definefont pop
/Courier-BoldOblique findfont
dup length dict begin
  {1 index /FID ne {def} {pop pop} ifelse} forall
  /Encoding WinAnsiEncoding def
  currentdict
end
/Courier-BoldOblique exch definefont pop
/Courier-Bold findfont
dup length dict begin
  {1 index /FID ne {def} {pop pop} ifelse} forall
  /Encoding WinAnsiEncoding def
  currentdict
end
/Courier-Bold exch definefont pop
/Helvetica findfont
dup length dict begin
  {1 index /FID ne {def} {pop pop} ifelse} forall
  /Encoding WinAnsiEncoding def
  currentdict
end
/Helvetica exch definefont pop
/Helvetica-Oblique findfont
dup length dict begin
  {1 index /FID ne {def} {pop pop} ifelse} forall
  /Encoding WinAnsiEncoding def
  currentdict
end
/Helvetica-Oblique exch definefont pop
/Helvetica-Bold findfont
dup length dict begin
  {1 index /FID ne {def} {pop pop} ifelse} forall
  /Encoding WinAnsiEncoding def
  currentdict
end
/Helvetica-Bold exch definefont pop
/Helvetica-BoldOblique findfont
dup length dict begin
  {1 index /FID ne {def} {pop pop} ifelse} forall
  /Encoding WinAnsiEncoding def
  currentdict
end
/Helvetica-BoldOblique exch definefont pop
/Times-Roman findfont
dup length dict begin
  {1 index /FID ne {def} {pop pop} ifelse} forall
  /Encoding WinAnsiEncoding def
  currentdict
end
/Times-Roman exch definefont pop
/Times-Italic findfont
dup length dict begin
  {1 index /FID ne {def} {pop pop} ifelse} forall
  /Encoding WinAnsiEncoding def
  currentdict
end
/Times-Italic exch definefont pop
/Times-Bold findfont
dup length dict begin
  {1 index /FID ne {def} {pop pop} ifelse} forall
  /Encoding WinAnsiEncoding def
  currentdict
end
/Times-Bold exch definefont pop
/Times-BoldItalic findfont
dup length dict begin
  {1 index /FID ne {def} {pop pop} ifelse} forall
  /Encoding WinAnsiEncoding def
  currentdict
end
/Times-BoldItalic exch definefont pop
/Courier findfont
dup length dict begin
  {1 index /FID ne {def} {pop pop} ifelse} forall
  /Encoding WinAnsiEncoding def
  currentdict
end
/Courier exch definefont pop
%FOPEndFontReencode
%%EndProlog
%%Page: 1 1
%%PageBoundingBox: 0 0 590 668
%%BeginPageSetup
[1 0 0 -1 0 668] CT
%%EndPageSetup
GS
[0.75 0 0 0.75 0 0.5] CT
1 GC
N
0 0 787 890 re
f
GR
GS
[0.75 0 0 0.75 0 0.5] CT
1 GC
N
0 0 787 890 re
f
GR
GS
[0.75 0 0 0.75 0 0.5] CT
1 GC
N
102 792 M
712 792 L
712 72 L
102 72 L
cp
f
GR
GS
[0.75 0 0 0.75 0 0.5] CT
0.873 GC
1 LJ
0.667 LW
N
102 792 M
102 72 L
S
GR
GS
[0.75 0 0 0.75 0 0.5] CT
0.873 GC
1 LJ
0.667 LW
N
254.5 792 M
254.5 72 L
S
GR
GS
[0.75 0 0 0.75 0 0.5] CT
0.873 GC
1 LJ
0.667 LW
N
407 792 M
407 72 L
S
GR
GS
[0.75 0 0 0.75 0 0.5] CT
0.873 GC
1 LJ
0.667 LW
N
559.5 792 M
559.5 72 L
S
GR
GS
[0.75 0 0 0.75 0 0.5] CT
0.873 GC
1 LJ
0.667 LW
N
712 792 M
712 72 L
S
GR
GS
[0.75 0 0 0.75 0 0.5] CT
0.873 GC
1 LJ
0.667 LW
N
712 792 M
102 792 L
S
GR
GS
[0.75 0 0 0.75 0 0.5] CT
0.873 GC
1 LJ
0.667 LW
N
712 672 M
102 672 L
S
GR
GS
[0.75 0 0 0.75 0 0.5] CT
0.873 GC
1 LJ
0.667 LW
N
712 552 M
102 552 L
S
GR
GS
[0.75 0 0 0.75 0 0.5] CT
0.873 GC
1 LJ
0.667 LW
N
712 432 M
102 432 L
S
GR
GS
[0.75 0 0 0.75 0 0.5] CT
0.873 GC
1 LJ
0.667 LW
N
712 312 M
102 312 L
S
GR
GS
[0.75 0 0 0.75 0 0.5] CT
0.873 GC
1 LJ
0.667 LW
N
712 192 M
102 192 L
S
GR
GS
[0.75 0 0 0.75 0 0.5] CT
0.873 GC
1 LJ
0.667 LW
N
712 72 M
102 72 L
S
GR
GS
[0.75 0 0 0.75 0 0.5] CT
0.149 GC
2 setlinecap
1 LJ
0.667 LW
N
102 792 M
712 792 L
S
GR
GS
[0.75 0 0 0.75 0 0.5] CT
0.149 GC
2 setlinecap
1 LJ
0.667 LW
N
102 72 M
712 72 L
S
GR
GS
[0.75 0 0 0.75 0 0.5] CT
0.149 GC
2 setlinecap
1 LJ
0.667 LW
N
102 792 M
102 784.8 L
S
GR
GS
[0.75 0 0 0.75 0 0.5] CT
0.149 GC
2 setlinecap
1 LJ
0.667 LW
N
254.5 792 M
254.5 784.8 L
S
GR
GS
[0.75 0 0 0.75 0 0.5] CT
0.149 GC
2 setlinecap
1 LJ
0.667 LW
N
407 792 M
407 784.8 L
S
GR
GS
[0.75 0 0 0.75 0 0.5] CT
0.149 GC
2 setlinecap
1 LJ
0.667 LW
N
559.5 792 M
559.5 784.8 L
S
GR
GS
[0.75 0 0 0.75 0 0.5] CT
0.149 GC
2 setlinecap
1 LJ
0.667 LW
N
712 792 M
712 784.8 L
S
GR
GS
[0.75 0 0 0.75 0 0.5] CT
0.149 GC
2 setlinecap
1 LJ
0.667 LW
N
102 72 M
102 79.2 L
S
GR
GS
[0.75 0 0 0.75 0 0.5] CT
0.149 GC
2 setlinecap
1 LJ
0.667 LW
N
254.5 72 M
254.5 79.2 L
S
GR
GS
[0.75 0 0 0.75 0 0.5] CT
0.149 GC
2 setlinecap
1 LJ
0.667 LW
N
407 72 M
407 79.2 L
S
GR
GS
[0.75 0 0 0.75 0 0.5] CT
0.149 GC
2 setlinecap
1 LJ
0.667 LW
N
559.5 72 M
559.5 79.2 L
S
GR
GS
[0.75 0 0 0.75 0 0.5] CT
0.149 GC
2 setlinecap
1 LJ
0.667 LW
N
712 72 M
712 79.2 L
S
GR
GS
[0.75 0 0 0.75 76.5 599.70001] CT
0.149 GC
/Helvetica 21.333 F
GS
[1 0 0 1 0 0] CT
-7 20 moveto 
1 -1 scale
(0) t 
GR
GR
GS
[0.75 0 0 0.75 190.875 599.70001] CT
0.149 GC
/Helvetica 21.333 F
GS
[1 0 0 1 0 0] CT
-7 20 moveto 
1 -1 scale
(5) t 
GR
GR
GS
[0.75 0 0 0.75 305.25 599.70001] CT
0.149 GC
/Helvetica 21.333 F
GS
[1 0 0 1 0 0] CT
-14 20 moveto 
1 -1 scale
(10) t 
GR
GR
GS
[0.75 0 0 0.75 419.625 599.70001] CT
0.149 GC
/Helvetica 21.333 F
GS
[1 0 0 1 0 0] CT
-14 20 moveto 
1 -1 scale
(15) t 
GR
GR
GS
[0.75 0 0 0.75 534 599.70001] CT
0.149 GC
/Helvetica 21.333 F
GS
[1 0 0 1 0 0] CT
-14 20 moveto 
1 -1 scale
(20) t 
GR
GR
GS
[0.75 0 0 0.75 305.25023 620.2] CT
0.149 GC
/Helvetica 23.467 F
GS
[1 0 0 1 0 0] CT
-138.5 22 moveto 
1 -1 scale
(mode angular number l) t 
GR
GR
GS
[0.75 0 0 0.75 0 0.5] CT
0.149 GC
2 setlinecap
1 LJ
0.667 LW
N
102 792 M
102 72 L
S
GR
GS
[0.75 0 0 0.75 0 0.5] CT
0.149 GC
2 setlinecap
1 LJ
0.667 LW
N
712 792 M
712 72 L
S
GR
GS
[0.75 0 0 0.75 0 0.5] CT
0.149 GC
2 setlinecap
1 LJ
0.667 LW
N
102 792 M
109.2 792 L
S
GR
GS
[0.75 0 0 0.75 0 0.5] CT
0.149 GC
2 setlinecap
1 LJ
0.667 LW
N
102 672 M
109.2 672 L
S
GR
GS
[0.75 0 0 0.75 0 0.5] CT
0.149 GC
2 setlinecap
1 LJ
0.667 LW
N
102 552 M
109.2 552 L
S
GR
GS
[0.75 0 0 0.75 0 0.5] CT
0.149 GC
2 setlinecap
1 LJ
0.667 LW
N
102 432 M
109.2 432 L
S
GR
GS
[0.75 0 0 0.75 0 0.5] CT
0.149 GC
2 setlinecap
1 LJ
0.667 LW
N
102 312 M
109.2 312 L
S
GR
GS
[0.75 0 0 0.75 0 0.5] CT
0.149 GC
2 setlinecap
1 LJ
0.667 LW
N
102 192 M
109.2 192 L
S
GR
GS
[0.75 0 0 0.75 0 0.5] CT
0.149 GC
2 setlinecap
1 LJ
0.667 LW
N
102 72 M
109.2 72 L
S
GR
GS
[0.75 0 0 0.75 0 0.5] CT
0.149 GC
2 setlinecap
1 LJ
0.667 LW
N
712 792 M
704.8 792 L
S
GR
GS
[0.75 0 0 0.75 0 0.5] CT
0.149 GC
2 setlinecap
1 LJ
0.667 LW
N
712 672 M
704.8 672 L
S
GR
GS
[0.75 0 0 0.75 0 0.5] CT
0.149 GC
2 setlinecap
1 LJ
0.667 LW
N
712 552 M
704.8 552 L
S
GR
GS
[0.75 0 0 0.75 0 0.5] CT
0.149 GC
2 setlinecap
1 LJ
0.667 LW
N
712 432 M
704.8 432 L
S
GR
GS
[0.75 0 0 0.75 0 0.5] CT
0.149 GC
2 setlinecap
1 LJ
0.667 LW
N
712 312 M
704.8 312 L
S
GR
GS
[0.75 0 0 0.75 0 0.5] CT
0.149 GC
2 setlinecap
1 LJ
0.667 LW
N
712 192 M
704.8 192 L
S
GR
GS
[0.75 0 0 0.75 0 0.5] CT
0.149 GC
2 setlinecap
1 LJ
0.667 LW
N
712 72 M
704.8 72 L
S
GR
GS
[0.75 0 0 0.75 71.3 594.5] CT
0.149 GC
/Helvetica 21.333 F
GS
[1 0 0 1 0 0] CT
-22 7 moveto 
1 -1 scale
(-4) t 
GR
GR
GS
[0.75 0 0 0.75 71.3 504.5] CT
0.149 GC
/Helvetica 21.333 F
GS
[1 0 0 1 0 0] CT
-22 7 moveto 
1 -1 scale
(-3) t 
GR
GR
GS
[0.75 0 0 0.75 71.3 414.5] CT
0.149 GC
/Helvetica 21.333 F
GS
[1 0 0 1 0 0] CT
-22 7 moveto 
1 -1 scale
(-2) t 
GR
GR
GS
[0.75 0 0 0.75 71.3 324.5] CT
0.149 GC
/Helvetica 21.333 F
GS
[1 0 0 1 0 0] CT
-22 7 moveto 
1 -1 scale
(-1) t 
GR
GR
GS
[0.75 0 0 0.75 71.3 234.5] CT
0.149 GC
/Helvetica 21.333 F
GS
[1 0 0 1 0 0] CT
-14 7 moveto 
1 -1 scale
(0) t 
GR
GR
GS
[0.75 0 0 0.75 71.3 144.5] CT
0.149 GC
/Helvetica 21.333 F
GS
[1 0 0 1 0 0] CT
-14 7 moveto 
1 -1 scale
(1) t 
GR
GR
GS
[0.75 0 0 0.75 71.3 54.5] CT
0.149 GC
/Helvetica 21.333 F
GS
[1 0 0 1 0 0] CT
-14 7 moveto 
1 -1 scale
(2) t 
GR
GR
GS
[0 -0.75 0.75 0 51.8 324.49975] CT
0.149 GC
/Helvetica 23.467 F
GS
[1 0 0 1 0 0] CT
-277.5 -6 moveto 
1 -1 scale
(mode frequency \(Hz\) \(csound = 343.2638 m/s\)) t 
GR
GR
GS
[0.75 0 0 0.75 31.5 26.75] CT
/Helvetica-Bold 18.773 F
GS
[1 0 0 1 0 0] CT
0 0 moveto 
1 -1 scale
(n) t 
GR
GR
GS
[0.75 0 0 0.75 42 18.5] CT
/Helvetica-Bold 23.467 F
GS
[1 0 0 1 0 0] CT
0 0 moveto 
1 -1 scale
(S) t 
GR
GR
GS
[0.75 0 0 0.75 54.75 26.75] CT
/Helvetica-Bold 18.773 F
GS
[1 0 0 1 0 0] CT
0 0 moveto 
1 -1 scale
(l) t 
GR
GR
GS
[0.75 0 0 0.75 60 18.5] CT
/Helvetica-Bold 23.467 F
GS
[1 0 0 1 0 0] CT
0 0 moveto 
1 -1 scale
( mode frequencies for elastic or rigid spherical shell) t 
GR
GR
GS
[0.75 0 0 0.75 230.25 47] CT
/Helvetica-Bold 23.467 F
GS
[1 0 0 1 0 0] CT
0 0 moveto 
1 -1 scale
(ZoRo2-air-rigid) t 
GR
GR
GS
[0.75 0 0 0.75 76.5 234.5] CT
1 0 0 RC
N
4 0 M
4 -2.209 2.209 -4 0 -4 C
-2.209 -4 -4 -2.209 -4 0 C
-4 2.209 -2.209 4 0 4 C
2.209 4 4 2.209 4 0 C
cp
f
GR
GS
[0.75 0 0 0.75 76.5 234.5] CT
1 0 0 RC
10.0 ML
N
4 0 M
4 -2.209 2.209 -4 0 -4 C
-2.209 -4 -4 -2.209 -4 0 C
-4 2.209 -2.209 4 0 4 C
2.209 4 4 2.209 4 0 C
cp
S
GR
GS
[0.75 0 0 0.75 99.375 244.21809] CT
1 0 0 RC
N
/f351177404{4 0 M
4 -2.209 2.209 -4 0 -4 C
-2.209 -4 -4 -2.209 -4 0 C
-4 2.209 -2.209 4 0 4 C
2.209 4 4 2.209 4 0 C
cp}def
f351177404
f
GR
GS
[0.75 0 0 0.75 99.375 244.21809] CT
1 0 0 RC
10.0 ML
N
4 0 M
4 -2.209 2.209 -4 0 -4 C
-2.209 -4 -4 -2.209 -4 0 C
-4 2.209 -2.209 4 0 4 C
2.209 4 4 2.209 4 0 C
cp
S
GR
GS
[0.75 0 0 0.75 122.25 230.10604] CT
1 0 0 RC
N
f351177404
f
GR
GS
[0.75 0 0 0.75 122.25 230.10604] CT
1 0 0 RC
10.0 ML
N
4 0 M
4 -2.209 2.209 -4 0 -4 C
-2.209 -4 -4 -2.209 -4 0 C
-4 2.209 -2.209 4 0 4 C
2.209 4 4 2.209 4 0 C
cp
S
GR
GS
[0.75 0 0 0.75 145.125 227.28352] CT
1 0 0 RC
N
f351177404
f
GR
GS
[0.75 0 0 0.75 145.125 227.28352] CT
1 0 0 RC
10.0 ML
N
4 0 M
4 -2.209 2.209 -4 0 -4 C
-2.209 -4 -4 -2.209 -4 0 C
-4 2.209 -2.209 4 0 4 C
2.209 4 4 2.209 4 0 C
cp
S
GR
GS
[0.75 0 0 0.75 168 226.6104] CT
1 0 0 RC
N
f351177404
f
GR
GS
[0.75 0 0 0.75 168 226.6104] CT
1 0 0 RC
10.0 ML
N
4 0 M
4 -2.209 2.209 -4 0 -4 C
-2.209 -4 -4 -2.209 -4 0 C
-4 2.209 -2.209 4 0 4 C
2.209 4 4 2.209 4 0 C
cp
S
GR
GS
[0.75 0 0 0.75 190.875 226.44842] CT
1 0 0 RC
N
f351177404
f
GR
GS
[0.75 0 0 0.75 190.875 226.44842] CT
1 0 0 RC
10.0 ML
N
4 0 M
4 -2.209 2.209 -4 0 -4 C
-2.209 -4 -4 -2.209 -4 0 C
-4 2.209 -2.209 4 0 4 C
2.209 4 4 2.209 4 0 C
cp
S
GR
GS
[0.75 0 0 0.75 213.75 226.36126] CT
1 0 0 RC
N
f351177404
f
GR
GS
[0.75 0 0 0.75 213.75 226.36126] CT
1 0 0 RC
10.0 ML
N
4 0 M
4 -2.209 2.209 -4 0 -4 C
-2.209 -4 -4 -2.209 -4 0 C
-4 2.209 -2.209 4 0 4 C
2.209 4 4 2.209 4 0 C
cp
S
GR
GS
[0.75 0 0 0.75 236.625 226.18301] CT
1 0 0 RC
N
f351177404
f
GR
GS
[0.75 0 0 0.75 236.625 226.18301] CT
1 0 0 RC
10.0 ML
N
4 0 M
4 -2.209 2.209 -4 0 -4 C
-2.209 -4 -4 -2.209 -4 0 C
-4 2.209 -2.209 4 0 4 C
2.209 4 4 2.209 4 0 C
cp
S
GR
GS
[0.75 0 0 0.75 259.5 225.80732] CT
1 0 0 RC
N
f351177404
f
GR
GS
[0.75 0 0 0.75 259.5 225.80732] CT
1 0 0 RC
10.0 ML
N
4 0 M
4 -2.209 2.209 -4 0 -4 C
-2.209 -4 -4 -2.209 -4 0 C
-4 2.209 -2.209 4 0 4 C
2.209 4 4 2.209 4 0 C
cp
S
GR
GS
[0.75 0 0 0.75 282.375 225.10584] CT
1 0 0 RC
N
f351177404
f
GR
GS
[0.75 0 0 0.75 282.375 225.10584] CT
1 0 0 RC
10.0 ML
N
4 0 M
4 -2.209 2.209 -4 0 -4 C
-2.209 -4 -4 -2.209 -4 0 C
-4 2.209 -2.209 4 0 4 C
2.209 4 4 2.209 4 0 C
cp
S
GR
GS
[0.75 0 0 0.75 305.25 223.84212] CT
1 0 0 RC
N
f351177404
f
GR
GS
[0.75 0 0 0.75 305.25 223.84212] CT
1 0 0 RC
10.0 ML
N
4 0 M
4 -2.209 2.209 -4 0 -4 C
-2.209 -4 -4 -2.209 -4 0 C
-4 2.209 -2.209 4 0 4 C
2.209 4 4 2.209 4 0 C
cp
S
GR
GS
[0.75 0 0 0.75 328.125 221.45371] CT
1 0 0 RC
N
f351177404
f
GR
GS
[0.75 0 0 0.75 328.125 221.45371] CT
1 0 0 RC
10.0 ML
N
4 0 M
4 -2.209 2.209 -4 0 -4 C
-2.209 -4 -4 -2.209 -4 0 C
-4 2.209 -2.209 4 0 4 C
2.209 4 4 2.209 4 0 C
cp
S
GR
GS
[0.75 0 0 0.75 351 216.14512] CT
1 0 0 RC
N
f351177404
f
GR
GS
[0.75 0 0 0.75 351 216.14512] CT
1 0 0 RC
10.0 ML
N
4 0 M
4 -2.209 2.209 -4 0 -4 C
-2.209 -4 -4 -2.209 -4 0 C
-4 2.209 -2.209 4 0 4 C
2.209 4 4 2.209 4 0 C
cp
S
GR
GS
[0.75 0 0 0.75 373.875 197.40814] CT
1 0 0 RC
N
f351177404
f
GR
GS
[0.75 0 0 0.75 373.875 197.40814] CT
1 0 0 RC
10.0 ML
N
4 0 M
4 -2.209 2.209 -4 0 -4 C
-2.209 -4 -4 -2.209 -4 0 C
-4 2.209 -2.209 4 0 4 C
2.209 4 4 2.209 4 0 C
cp
S
GR
GS
[0.75 0 0 0.75 396.75 395.74615] CT
1 0 0 RC
N
f351177404
f
GR
GS
[0.75 0 0 0.75 396.75 395.74615] CT
1 0 0 RC
10.0 ML
N
4 0 M
4 -2.209 2.209 -4 0 -4 C
-2.209 -4 -4 -2.209 -4 0 C
-4 2.209 -2.209 4 0 4 C
2.209 4 4 2.209 4 0 C
cp
S
GR
GS
[0.75 0 0 0.75 419.625 256.61445] CT
1 0 0 RC
N
f351177404
f
GR
GS
[0.75 0 0 0.75 419.625 256.61445] CT
1 0 0 RC
10.0 ML
N
4 0 M
4 -2.209 2.209 -4 0 -4 C
-2.209 -4 -4 -2.209 -4 0 C
-4 2.209 -2.209 4 0 4 C
2.209 4 4 2.209 4 0 C
cp
S
GR
GS
[0.75 0 0 0.75 442.5 245.58212] CT
1 0 0 RC
N
f351177404
f
GR
GS
[0.75 0 0 0.75 442.5 245.58212] CT
1 0 0 RC
10.0 ML
N
4 0 M
4 -2.209 2.209 -4 0 -4 C
-2.209 -4 -4 -2.209 -4 0 C
-4 2.209 -2.209 4 0 4 C
2.209 4 4 2.209 4 0 C
cp
S
GR
GS
[0.75 0 0 0.75 465.375 241.57616] CT
1 0 0 RC
N
f351177404
f
GR
GS
[0.75 0 0 0.75 465.375 241.57616] CT
1 0 0 RC
10.0 ML
N
4 0 M
4 -2.209 2.209 -4 0 -4 C
-2.209 -4 -4 -2.209 -4 0 C
-4 2.209 -2.209 4 0 4 C
2.209 4 4 2.209 4 0 C
cp
S
GR
GS
[0.75 0 0 0.75 488.25 239.53854] CT
1 0 0 RC
N
f351177404
f
GR
GS
[0.75 0 0 0.75 488.25 239.53854] CT
1 0 0 RC
10.0 ML
N
4 0 M
4 -2.209 2.209 -4 0 -4 C
-2.209 -4 -4 -2.209 -4 0 C
-4 2.209 -2.209 4 0 4 C
2.209 4 4 2.209 4 0 C
cp
S
GR
GS
[0.75 0 0 0.75 76.5 234.5] CT
0 0 1 RC
N
/f1737057230{-3.464 -2 M
-1.155 -2 L
0 -4 L
1.155 -2 L
3.464 -2 L
2 0 L
3.464 2 L
1.155 2 L
0 4 L
-1.155 2 L
-3.464 2 L
-2 0 L
cp}def
f1737057230
f
GR
GS
[0.75 0 0 0.75 76.5 234.5] CT
0 0 1 RC
10.0 ML
N
-3.464 -2 M
-1.155 -2 L
0 -4 L
1.155 -2 L
3.464 -2 L
2 0 L
3.464 2 L
1.155 2 L
0 4 L
-1.155 2 L
-3.464 2 L
-2 0 L
cp
S
GR
GS
[0.75 0 0 0.75 99.375 238.63432] CT
0 0 1 RC
N
f1737057230
f
GR
GS
[0.75 0 0 0.75 99.375 238.63432] CT
0 0 1 RC
10.0 ML
N
-3.464 -2 M
-1.155 -2 L
0 -4 L
1.155 -2 L
3.464 -2 L
2 0 L
3.464 2 L
1.155 2 L
0 4 L
-1.155 2 L
-3.464 2 L
-2 0 L
cp
S
GR
GS
[0.75 0 0 0.75 122.25 228.40337] CT
0 0 1 RC
N
f1737057230
f
GR
GS
[0.75 0 0 0.75 122.25 228.40337] CT
0 0 1 RC
10.0 ML
N
-3.464 -2 M
-1.155 -2 L
0 -4 L
1.155 -2 L
3.464 -2 L
2 0 L
3.464 2 L
1.155 2 L
0 4 L
-1.155 2 L
-3.464 2 L
-2 0 L
cp
S
GR
GS
[0.75 0 0 0.75 145.125 225.53106] CT
0 0 1 RC
N
f1737057230
f
GR
GS
[0.75 0 0 0.75 145.125 225.53106] CT
0 0 1 RC
10.0 ML
N
-3.464 -2 M
-1.155 -2 L
0 -4 L
1.155 -2 L
3.464 -2 L
2 0 L
3.464 2 L
1.155 2 L
0 4 L
-1.155 2 L
-3.464 2 L
-2 0 L
cp
S
GR
GS
[0.75 0 0 0.75 168 224.84636] CT
0 0 1 RC
N
f1737057230
f
GR
GS
[0.75 0 0 0.75 168 224.84636] CT
0 0 1 RC
10.0 ML
N
-3.464 -2 M
-1.155 -2 L
0 -4 L
1.155 -2 L
3.464 -2 L
2 0 L
3.464 2 L
1.155 2 L
0 4 L
-1.155 2 L
-3.464 2 L
-2 0 L
cp
S
GR
GS
[0.75 0 0 0.75 190.875 224.70125] CT
0 0 1 RC
N
f1737057230
f
GR
GS
[0.75 0 0 0.75 190.875 224.70125] CT
0 0 1 RC
10.0 ML
N
-3.464 -2 M
-1.155 -2 L
0 -4 L
1.155 -2 L
3.464 -2 L
2 0 L
3.464 2 L
1.155 2 L
0 4 L
-1.155 2 L
-3.464 2 L
-2 0 L
cp
S
GR
GS
[0.75 0 0 0.75 213.75 224.5831] CT
0 0 1 RC
N
f1737057230
f
GR
GS
[0.75 0 0 0.75 213.75 224.5831] CT
0 0 1 RC
10.0 ML
N
-3.464 -2 M
-1.155 -2 L
0 -4 L
1.155 -2 L
3.464 -2 L
2 0 L
3.464 2 L
1.155 2 L
0 4 L
-1.155 2 L
-3.464 2 L
-2 0 L
cp
S
GR
GS
[0.75 0 0 0.75 236.625 224.27789] CT
0 0 1 RC
N
f1737057230
f
GR
GS
[0.75 0 0 0.75 236.625 224.27789] CT
0 0 1 RC
10.0 ML
N
-3.464 -2 M
-1.155 -2 L
0 -4 L
1.155 -2 L
3.464 -2 L
2 0 L
3.464 2 L
1.155 2 L
0 4 L
-1.155 2 L
-3.464 2 L
-2 0 L
cp
S
GR
GS
[0.75 0 0 0.75 259.5 223.61818] CT
0 0 1 RC
N
f1737057230
f
GR
GS
[0.75 0 0 0.75 259.5 223.61818] CT
0 0 1 RC
10.0 ML
N
-3.464 -2 M
-1.155 -2 L
0 -4 L
1.155 -2 L
3.464 -2 L
2 0 L
3.464 2 L
1.155 2 L
0 4 L
-1.155 2 L
-3.464 2 L
-2 0 L
cp
S
GR
GS
[0.75 0 0 0.75 282.375 222.34585] CT
0 0 1 RC
N
f1737057230
f
GR
GS
[0.75 0 0 0.75 282.375 222.34585] CT
0 0 1 RC
10.0 ML
N
-3.464 -2 M
-1.155 -2 L
0 -4 L
1.155 -2 L
3.464 -2 L
2 0 L
3.464 2 L
1.155 2 L
0 4 L
-1.155 2 L
-3.464 2 L
-2 0 L
cp
S
GR
GS
[0.75 0 0 0.75 305.25 219.87347] CT
0 0 1 RC
N
f1737057230
f
GR
GS
[0.75 0 0 0.75 305.25 219.87347] CT
0 0 1 RC
10.0 ML
N
-3.464 -2 M
-1.155 -2 L
0 -4 L
1.155 -2 L
3.464 -2 L
2 0 L
3.464 2 L
1.155 2 L
0 4 L
-1.155 2 L
-3.464 2 L
-2 0 L
cp
S
GR
GS
[0.75 0 0 0.75 328.125 214.37282] CT
0 0 1 RC
N
f1737057230
f
GR
GS
[0.75 0 0 0.75 328.125 214.37282] CT
0 0 1 RC
10.0 ML
N
-3.464 -2 M
-1.155 -2 L
0 -4 L
1.155 -2 L
3.464 -2 L
2 0 L
3.464 2 L
1.155 2 L
0 4 L
-1.155 2 L
-3.464 2 L
-2 0 L
cp
S
GR
GS
[0.75 0 0 0.75 351 195.76635] CT
0 0 1 RC
N
f1737057230
f
GR
GS
[0.75 0 0 0.75 351 195.76635] CT
0 0 1 RC
10.0 ML
N
-3.464 -2 M
-1.155 -2 L
0 -4 L
1.155 -2 L
3.464 -2 L
2 0 L
3.464 2 L
1.155 2 L
0 4 L
-1.155 2 L
-3.464 2 L
-2 0 L
cp
S
GR
GS
[0.75 0 0 0.75 373.875 515.47873] CT
0 0 1 RC
N
f1737057230
f
GR
GS
[0.75 0 0 0.75 373.875 515.47873] CT
0 0 1 RC
10.0 ML
N
-3.464 -2 M
-1.155 -2 L
0 -4 L
1.155 -2 L
3.464 -2 L
2 0 L
3.464 2 L
1.155 2 L
0 4 L
-1.155 2 L
-3.464 2 L
-2 0 L
cp
S
GR
GS
[0.75 0 0 0.75 396.75 260.34094] CT
0 0 1 RC
N
f1737057230
f
GR
GS
[0.75 0 0 0.75 396.75 260.34094] CT
0 0 1 RC
10.0 ML
N
-3.464 -2 M
-1.155 -2 L
0 -4 L
1.155 -2 L
3.464 -2 L
2 0 L
3.464 2 L
1.155 2 L
0 4 L
-1.155 2 L
-3.464 2 L
-2 0 L
cp
S
GR
GS
[0.75 0 0 0.75 419.625 247.03446] CT
0 0 1 RC
N
f1737057230
f
GR
GS
[0.75 0 0 0.75 419.625 247.03446] CT
0 0 1 RC
10.0 ML
N
-3.464 -2 M
-1.155 -2 L
0 -4 L
1.155 -2 L
3.464 -2 L
2 0 L
3.464 2 L
1.155 2 L
0 4 L
-1.155 2 L
-3.464 2 L
-2 0 L
cp
S
GR
GS
[0.75 0 0 0.75 442.5 242.3796] CT
0 0 1 RC
N
f1737057230
f
GR
GS
[0.75 0 0 0.75 442.5 242.3796] CT
0 0 1 RC
10.0 ML
N
-3.464 -2 M
-1.155 -2 L
0 -4 L
1.155 -2 L
3.464 -2 L
2 0 L
3.464 2 L
1.155 2 L
0 4 L
-1.155 2 L
-3.464 2 L
-2 0 L
cp
S
GR
GS
[0.75 0 0 0.75 465.375 240.05183] CT
0 0 1 RC
N
f1737057230
f
GR
GS
[0.75 0 0 0.75 465.375 240.05183] CT
0 0 1 RC
10.0 ML
N
-3.464 -2 M
-1.155 -2 L
0 -4 L
1.155 -2 L
3.464 -2 L
2 0 L
3.464 2 L
1.155 2 L
0 4 L
-1.155 2 L
-3.464 2 L
-2 0 L
cp
S
GR
GS
[0.75 0 0 0.75 488.25 238.67757] CT
0 0 1 RC
N
f1737057230
f
GR
GS
[0.75 0 0 0.75 488.25 238.67757] CT
0 0 1 RC
10.0 ML
N
-3.464 -2 M
-1.155 -2 L
0 -4 L
1.155 -2 L
3.464 -2 L
2 0 L
3.464 2 L
1.155 2 L
0 4 L
-1.155 2 L
-3.464 2 L
-2 0 L
cp
S
GR
GS
[0.75 0 0 0.75 76.5 234.5] CT
N
/f-1741330208{-3.804 -1.236 M
-0.94 -1.236 L
0 -4 L
0.94 -1.236 L
3.804 -1.236 L
1.522 0.494 L
2.351 3.236 L
0 1.6 L
-2.351 3.236 L
-1.522 0.494 L
cp}def
f-1741330208
f
GR
GS
[0.75 0 0 0.75 76.5 234.5] CT
10.0 ML
N
-3.804 -1.236 M
-0.94 -1.236 L
0 -4 L
0.94 -1.236 L
3.804 -1.236 L
1.522 0.494 L
2.351 3.236 L
0 1.6 L
-2.351 3.236 L
-1.522 0.494 L
cp
S
GR
GS
[0.75 0 0 0.75 99.375 235.69456] CT
N
f-1741330208
f
GR
GS
[0.75 0 0 0.75 99.375 235.69456] CT
10.0 ML
N
-3.804 -1.236 M
-0.94 -1.236 L
0 -4 L
0.94 -1.236 L
3.804 -1.236 L
1.522 0.494 L
2.351 3.236 L
0 1.6 L
-2.351 3.236 L
-1.522 0.494 L
cp
S
GR
GS
[0.75 0 0 0.75 122.25 226.06161] CT
N
f-1741330208
f
GR
GS
[0.75 0 0 0.75 122.25 226.06161] CT
10.0 ML
N
-3.804 -1.236 M
-0.94 -1.236 L
0 -4 L
0.94 -1.236 L
3.804 -1.236 L
1.522 0.494 L
2.351 3.236 L
0 1.6 L
-2.351 3.236 L
-1.522 0.494 L
cp
S
GR
GS
[0.75 0 0 0.75 145.125 222.69183] CT
N
f-1741330208
f
GR
GS
[0.75 0 0 0.75 145.125 222.69183] CT
10.0 ML
N
-3.804 -1.236 M
-0.94 -1.236 L
0 -4 L
0.94 -1.236 L
3.804 -1.236 L
1.522 0.494 L
2.351 3.236 L
0 1.6 L
-2.351 3.236 L
-1.522 0.494 L
cp
S
GR
GS
[0.75 0 0 0.75 168 221.95377] CT
N
f-1741330208
f
GR
GS
[0.75 0 0 0.75 168 221.95377] CT
10.0 ML
N
-3.804 -1.236 M
-0.94 -1.236 L
0 -4 L
0.94 -1.236 L
3.804 -1.236 L
1.522 0.494 L
2.351 3.236 L
0 1.6 L
-2.351 3.236 L
-1.522 0.494 L
cp
S
GR
GS
[0.75 0 0 0.75 190.875 221.84123] CT
N
f-1741330208
f
GR
GS
[0.75 0 0 0.75 190.875 221.84123] CT
10.0 ML
N
-3.804 -1.236 M
-0.94 -1.236 L
0 -4 L
0.94 -1.236 L
3.804 -1.236 L
1.522 0.494 L
2.351 3.236 L
0 1.6 L
-2.351 3.236 L
-1.522 0.494 L
cp
S
GR
GS
[0.75 0 0 0.75 213.75 221.64863] CT
N
f-1741330208
f
GR
GS
[0.75 0 0 0.75 213.75 221.64863] CT
10.0 ML
N
-3.804 -1.236 M
-0.94 -1.236 L
0 -4 L
0.94 -1.236 L
3.804 -1.236 L
1.522 0.494 L
2.351 3.236 L
0 1.6 L
-2.351 3.236 L
-1.522 0.494 L
cp
S
GR
GS
[0.75 0 0 0.75 236.625 221.05006] CT
N
f-1741330208
f
GR
GS
[0.75 0 0 0.75 236.625 221.05006] CT
10.0 ML
N
-3.804 -1.236 M
-0.94 -1.236 L
0 -4 L
0.94 -1.236 L
3.804 -1.236 L
1.522 0.494 L
2.351 3.236 L
0 1.6 L
-2.351 3.236 L
-1.522 0.494 L
cp
S
GR
GS
[0.75 0 0 0.75 259.5 219.70702] CT
N
f-1741330208
f
GR
GS
[0.75 0 0 0.75 259.5 219.70702] CT
10.0 ML
N
-3.804 -1.236 M
-0.94 -1.236 L
0 -4 L
0.94 -1.236 L
3.804 -1.236 L
1.522 0.494 L
2.351 3.236 L
0 1.6 L
-2.351 3.236 L
-1.522 0.494 L
cp
S
GR
GS
[0.75 0 0 0.75 282.375 216.91217] CT
N
f-1741330208
f
GR
GS
[0.75 0 0 0.75 282.375 216.91217] CT
10.0 ML
N
-3.804 -1.236 M
-0.94 -1.236 L
0 -4 L
0.94 -1.236 L
3.804 -1.236 L
1.522 0.494 L
2.351 3.236 L
0 1.6 L
-2.351 3.236 L
-1.522 0.494 L
cp
S
GR
GS
[0.75 0 0 0.75 305.25 210.44614] CT
N
f-1741330208
f
GR
GS
[0.75 0 0 0.75 305.25 210.44614] CT
10.0 ML
N
-3.804 -1.236 M
-0.94 -1.236 L
0 -4 L
0.94 -1.236 L
3.804 -1.236 L
1.522 0.494 L
2.351 3.236 L
0 1.6 L
-2.351 3.236 L
-1.522 0.494 L
cp
S
GR
GS
[0.75 0 0 0.75 328.125 187.55331] CT
N
f-1741330208
f
GR
GS
[0.75 0 0 0.75 328.125 187.55331] CT
10.0 ML
N
-3.804 -1.236 M
-0.94 -1.236 L
0 -4 L
0.94 -1.236 L
3.804 -1.236 L
1.522 0.494 L
2.351 3.236 L
0 1.6 L
-2.351 3.236 L
-1.522 0.494 L
cp
S
GR
GS
[0.75 0 0 0.75 351 465.85825] CT
N
f-1741330208
f
GR
GS
[0.75 0 0 0.75 351 465.85825] CT
10.0 ML
N
-3.804 -1.236 M
-0.94 -1.236 L
0 -4 L
0.94 -1.236 L
3.804 -1.236 L
1.522 0.494 L
2.351 3.236 L
0 1.6 L
-2.351 3.236 L
-1.522 0.494 L
cp
S
GR
GS
[0.75 0 0 0.75 373.875 262.60548] CT
N
f-1741330208
f
GR
GS
[0.75 0 0 0.75 373.875 262.60548] CT
10.0 ML
N
-3.804 -1.236 M
-0.94 -1.236 L
0 -4 L
0.94 -1.236 L
3.804 -1.236 L
1.522 0.494 L
2.351 3.236 L
0 1.6 L
-2.351 3.236 L
-1.522 0.494 L
cp
S
GR
GS
[0.75 0 0 0.75 396.75 248.25848] CT
N
f-1741330208
f
GR
GS
[0.75 0 0 0.75 396.75 248.25848] CT
10.0 ML
N
-3.804 -1.236 M
-0.94 -1.236 L
0 -4 L
0.94 -1.236 L
3.804 -1.236 L
1.522 0.494 L
2.351 3.236 L
0 1.6 L
-2.351 3.236 L
-1.522 0.494 L
cp
S
GR
GS
[0.75 0 0 0.75 419.625 243.13825] CT
N
f-1741330208
f
GR
GS
[0.75 0 0 0.75 419.625 243.13825] CT
10.0 ML
N
-3.804 -1.236 M
-0.94 -1.236 L
0 -4 L
0.94 -1.236 L
3.804 -1.236 L
1.522 0.494 L
2.351 3.236 L
0 1.6 L
-2.351 3.236 L
-1.522 0.494 L
cp
S
GR
GS
[0.75 0 0 0.75 442.5 240.56475] CT
N
f-1741330208
f
GR
GS
[0.75 0 0 0.75 442.5 240.56475] CT
10.0 ML
N
-3.804 -1.236 M
-0.94 -1.236 L
0 -4 L
0.94 -1.236 L
3.804 -1.236 L
1.522 0.494 L
2.351 3.236 L
0 1.6 L
-2.351 3.236 L
-1.522 0.494 L
cp
S
GR
GS
[0.75 0 0 0.75 465.375 239.04461] CT
N
f-1741330208
f
GR
GS
[0.75 0 0 0.75 465.375 239.04461] CT
10.0 ML
N
-3.804 -1.236 M
-0.94 -1.236 L
0 -4 L
0.94 -1.236 L
3.804 -1.236 L
1.522 0.494 L
2.351 3.236 L
0 1.6 L
-2.351 3.236 L
-1.522 0.494 L
cp
S
GR
GS
[0.75 0 0 0.75 488.25 238.05692] CT
N
f-1741330208
f
GR
GS
[0.75 0 0 0.75 488.25 238.05692] CT
10.0 ML
N
-3.804 -1.236 M
-0.94 -1.236 L
0 -4 L
0.94 -1.236 L
3.804 -1.236 L
1.522 0.494 L
2.351 3.236 L
0 1.6 L
-2.351 3.236 L
-1.522 0.494 L
cp
S
GR
GS
[0.75 0 0 0.75 76.5 234.5] CT
0 1 0 RC
N
/f227889816{-3 -3 M
-3 3 L
3 3 L
3 -3 L
cp}def
f227889816
f
GR
GS
[0.75 0 0 0.75 76.5 234.5] CT
0 1 0 RC
10.0 ML
N
-3 -3 M
-3 3 L
3 3 L
3 -3 L
cp
S
GR
GS
[0.75 0 0 0.75 99.375 233.52286] CT
0 1 0 RC
N
f227889816
f
GR
GS
[0.75 0 0 0.75 99.375 233.52286] CT
0 1 0 RC
10.0 ML
N
-3 -3 M
-3 3 L
3 3 L
3 -3 L
cp
S
GR
GS
[0.75 0 0 0.75 122.25 221.95425] CT
0 1 0 RC
N
f227889816
f
GR
GS
[0.75 0 0 0.75 122.25 221.95425] CT
0 1 0 RC
10.0 ML
N
-3 -3 M
-3 3 L
3 3 L
3 -3 L
cp
S
GR
GS
[0.75 0 0 0.75 145.125 216.98019] CT
0 1 0 RC
N
f227889816
f
GR
GS
[0.75 0 0 0.75 145.125 216.98019] CT
0 1 0 RC
10.0 ML
N
-3 -3 M
-3 3 L
3 3 L
3 -3 L
cp
S
GR
GS
[0.75 0 0 0.75 168 216.15171] CT
0 1 0 RC
N
f227889816
f
GR
GS
[0.75 0 0 0.75 168 216.15171] CT
0 1 0 RC
10.0 ML
N
-3 -3 M
-3 3 L
3 3 L
3 -3 L
cp
S
GR
GS
[0.75 0 0 0.75 190.875 216.17064] CT
0 1 0 RC
N
f227889816
f
GR
GS
[0.75 0 0 0.75 190.875 216.17064] CT
0 1 0 RC
10.0 ML
N
-3 -3 M
-3 3 L
3 3 L
3 -3 L
cp
S
GR
GS
[0.75 0 0 0.75 213.75 215.7687] CT
0 1 0 RC
N
f227889816
f
GR
GS
[0.75 0 0 0.75 213.75 215.7687] CT
0 1 0 RC
10.0 ML
N
-3 -3 M
-3 3 L
3 3 L
3 -3 L
cp
S
GR
GS
[0.75 0 0 0.75 236.625 214.27206] CT
0 1 0 RC
N
f227889816
f
GR
GS
[0.75 0 0 0.75 236.625 214.27206] CT
0 1 0 RC
10.0 ML
N
-3 -3 M
-3 3 L
3 3 L
3 -3 L
cp
S
GR
GS
[0.75 0 0 0.75 259.5 210.58601] CT
0 1 0 RC
N
f227889816
f
GR
GS
[0.75 0 0 0.75 259.5 210.58601] CT
0 1 0 RC
10.0 ML
N
-3 -3 M
-3 3 L
3 3 L
3 -3 L
cp
S
GR
GS
[0.75 0 0 0.75 282.375 201.05453] CT
0 1 0 RC
N
f227889816
f
GR
GS
[0.75 0 0 0.75 282.375 201.05453] CT
0 1 0 RC
10.0 ML
N
-3 -3 M
-3 3 L
3 3 L
3 -3 L
cp
S
GR
GS
[0.75 0 0 0.75 305.25 158.74311] CT
0 1 0 RC
N
f227889816
f
GR
GS
[0.75 0 0 0.75 305.25 158.74311] CT
0 1 0 RC
10.0 ML
N
-3 -3 M
-3 3 L
3 3 L
3 -3 L
cp
S
GR
GS
[0.75 0 0 0.75 328.125 349.87146] CT
0 1 0 RC
N
f227889816
f
GR
GS
[0.75 0 0 0.75 328.125 349.87146] CT
0 1 0 RC
10.0 ML
N
-3 -3 M
-3 3 L
3 3 L
3 -3 L
cp
S
GR
GS
[0.75 0 0 0.75 351 262.27195] CT
0 1 0 RC
N
f227889816
f
GR
GS
[0.75 0 0 0.75 351 262.27195] CT
0 1 0 RC
10.0 ML
N
-3 -3 M
-3 3 L
3 3 L
3 -3 L
cp
S
GR
GS
[0.75 0 0 0.75 373.875 248.98296] CT
0 1 0 RC
N
f227889816
f
GR
GS
[0.75 0 0 0.75 373.875 248.98296] CT
0 1 0 RC
10.0 ML
N
-3 -3 M
-3 3 L
3 3 L
3 -3 L
cp
S
GR
GS
[0.75 0 0 0.75 396.75 243.76456] CT
0 1 0 RC
N
f227889816
f
GR
GS
[0.75 0 0 0.75 396.75 243.76456] CT
0 1 0 RC
10.0 ML
N
-3 -3 M
-3 3 L
3 3 L
3 -3 L
cp
S
GR
GS
[0.75 0 0 0.75 419.625 241.04613] CT
0 1 0 RC
N
f227889816
f
GR
GS
[0.75 0 0 0.75 419.625 241.04613] CT
0 1 0 RC
10.0 ML
N
-3 -3 M
-3 3 L
3 3 L
3 -3 L
cp
S
GR
GS
[0.75 0 0 0.75 442.5 239.41334] CT
0 1 0 RC
N
f227889816
f
GR
GS
[0.75 0 0 0.75 442.5 239.41334] CT
0 1 0 RC
10.0 ML
N
-3 -3 M
-3 3 L
3 3 L
3 -3 L
cp
S
GR
GS
[0.75 0 0 0.75 465.375 238.34359] CT
0 1 0 RC
N
f227889816
f
GR
GS
[0.75 0 0 0.75 465.375 238.34359] CT
0 1 0 RC
10.0 ML
N
-3 -3 M
-3 3 L
3 3 L
3 -3 L
cp
S
GR
GS
[0.75 0 0 0.75 488.25 237.60007] CT
0 1 0 RC
N
f227889816
f
GR
GS
[0.75 0 0 0.75 488.25 237.60007] CT
0 1 0 RC
10.0 ML
N
-3 -3 M
-3 3 L
3 3 L
3 -3 L
cp
S
GR
GS
[0.75 0 0 0.75 76.5 234.5] CT
1 0 1 RC
N
/f1022997606{0 5.332 M
-4.618 -2.666 L
4.618 -2.666 L
cp}def
f1022997606
f
GR
GS
[0.75 0 0 0.75 76.5 234.5] CT
1 0 1 RC
10.0 ML
N
0 5.332 M
-4.618 -2.666 L
4.618 -2.666 L
cp
S
GR
GS
[0.75 0 0 0.75 99.375 231.413] CT
1 0 1 RC
N
f1022997606
f
GR
GS
[0.75 0 0 0.75 99.375 231.413] CT
1 0 1 RC
10.0 ML
N
0 5.332 M
-4.618 -2.666 L
4.618 -2.666 L
cp
S
GR
GS
[0.75 0 0 0.75 122.25 210.85683] CT
1 0 1 RC
N
f1022997606
f
GR
GS
[0.75 0 0 0.75 122.25 210.85683] CT
1 0 1 RC
10.0 ML
N
0 5.332 M
-4.618 -2.666 L
4.618 -2.666 L
cp
S
GR
GS
[0.75 0 0 0.75 145.125 197.92628] CT
1 0 1 RC
N
f1022997606
f
GR
GS
[0.75 0 0 0.75 145.125 197.92628] CT
1 0 1 RC
10.0 ML
N
0 5.332 M
-4.618 -2.666 L
4.618 -2.666 L
cp
S
GR
GS
[0.75 0 0 0.75 168 197.59525] CT
1 0 1 RC
N
f1022997606
f
GR
GS
[0.75 0 0 0.75 168 197.59525] CT
1 0 1 RC
10.0 ML
N
0 5.332 M
-4.618 -2.666 L
4.618 -2.666 L
cp
S
GR
GS
[0.75 0 0 0.75 190.875 198.86037] CT
1 0 1 RC
N
f1022997606
f
GR
GS
[0.75 0 0 0.75 190.875 198.86037] CT
1 0 1 RC
10.0 ML
N
0 5.332 M
-4.618 -2.666 L
4.618 -2.666 L
cp
S
GR
GS
[0.75 0 0 0.75 213.75 197.47289] CT
1 0 1 RC
N
f1022997606
f
GR
GS
[0.75 0 0 0.75 213.75 197.47289] CT
1 0 1 RC
10.0 ML
N
0 5.332 M
-4.618 -2.666 L
4.618 -2.666 L
cp
S
GR
GS
[0.75 0 0 0.75 236.625 190.31472] CT
1 0 1 RC
N
f1022997606
f
GR
GS
[0.75 0 0 0.75 236.625 190.31472] CT
1 0 1 RC
10.0 ML
N
0 5.332 M
-4.618 -2.666 L
4.618 -2.666 L
cp
S
GR
GS
[0.75 0 0 0.75 259.5 164.01006] CT
1 0 1 RC
N
f1022997606
f
GR
GS
[0.75 0 0 0.75 259.5 164.01006] CT
1 0 1 RC
10.0 ML
N
0 5.332 M
-4.618 -2.666 L
4.618 -2.666 L
cp
S
GR
GS
[0.75 0 0 0.75 305.25 293.83247] CT
1 0 1 RC
N
f1022997606
f
GR
GS
[0.75 0 0 0.75 305.25 293.83247] CT
1 0 1 RC
10.0 ML
N
0 5.332 M
-4.618 -2.666 L
4.618 -2.666 L
cp
S
GR
GS
[0.75 0 0 0.75 328.125 259.41411] CT
1 0 1 RC
N
f1022997606
f
GR
GS
[0.75 0 0 0.75 328.125 259.41411] CT
1 0 1 RC
10.0 ML
N
0 5.332 M
-4.618 -2.666 L
4.618 -2.666 L
cp
S
GR
GS
[0.75 0 0 0.75 351 249.0098] CT
1 0 1 RC
N
f1022997606
f
GR
GS
[0.75 0 0 0.75 351 249.0098] CT
1 0 1 RC
10.0 ML
N
0 5.332 M
-4.618 -2.666 L
4.618 -2.666 L
cp
S
GR
GS
[0.75 0 0 0.75 373.875 244.17612] CT
1 0 1 RC
N
f1022997606
f
GR
GS
[0.75 0 0 0.75 373.875 244.17612] CT
1 0 1 RC
10.0 ML
N
0 5.332 M
-4.618 -2.666 L
4.618 -2.666 L
cp
S
GR
GS
[0.75 0 0 0.75 396.75 241.46844] CT
1 0 1 RC
N
f1022997606
f
GR
GS
[0.75 0 0 0.75 396.75 241.46844] CT
1 0 1 RC
10.0 ML
N
0 5.332 M
-4.618 -2.666 L
4.618 -2.666 L
cp
S
GR
GS
[0.75 0 0 0.75 419.625 239.77978] CT
1 0 1 RC
N
f1022997606
f
GR
GS
[0.75 0 0 0.75 419.625 239.77978] CT
1 0 1 RC
10.0 ML
N
0 5.332 M
-4.618 -2.666 L
4.618 -2.666 L
cp
S
GR
GS
[0.75 0 0 0.75 442.5 238.64958] CT
1 0 1 RC
N
f1022997606
f
GR
GS
[0.75 0 0 0.75 442.5 238.64958] CT
1 0 1 RC
10.0 ML
N
0 5.332 M
-4.618 -2.666 L
4.618 -2.666 L
cp
S
GR
GS
[0.75 0 0 0.75 465.375 237.85408] CT
1 0 1 RC
N
f1022997606
f
GR
GS
[0.75 0 0 0.75 465.375 237.85408] CT
1 0 1 RC
10.0 ML
N
0 5.332 M
-4.618 -2.666 L
4.618 -2.666 L
cp
S
GR
GS
[0.75 0 0 0.75 488.25 237.27242] CT
1 0 1 RC
N
f1022997606
f
GR
GS
[0.75 0 0 0.75 488.25 237.27242] CT
1 0 1 RC
10.0 ML
N
0 5.332 M
-4.618 -2.666 L
4.618 -2.666 L
cp
S
GR
GS
[0.75 0 0 0.75 76.5 234.5] CT
1 0 0 RC
N
/f860094634{0 -4 M
0 4 L
-4 0 M
4 0 L}def
f860094634
f
GR
GS
[0.75 0 0 0.75 76.5 234.5] CT
1 0 0 RC
10.0 ML
N
0 -4 M
0 4 L
-4 0 M
4 0 L
S
GR
GS
[0.75 0 0 0.75 99.375 228.70167] CT
1 0 0 RC
N
f860094634
f
GR
GS
[0.75 0 0 0.75 99.375 228.70167] CT
1 0 0 RC
10.0 ML
N
0 -4 M
0 4 L
-4 0 M
4 0 L
S
GR
GS
[0.75 0 0 0.75 145.125 386.33179] CT
1 0 0 RC
N
f860094634
f
GR
GS
[0.75 0 0 0.75 145.125 386.33179] CT
1 0 0 RC
10.0 ML
N
0 -4 M
0 4 L
-4 0 M
4 0 L
S
GR
GS
[0.75 0 0 0.75 168 494.47008] CT
1 0 0 RC
N
f860094634
f
GR
GS
[0.75 0 0 0.75 168 494.47008] CT
1 0 0 RC
10.0 ML
N
0 -4 M
0 4 L
-4 0 M
4 0 L
S
GR
GS
[0.75 0 0 0.75 236.625 389.82951] CT
1 0 0 RC
N
f860094634
f
GR
GS
[0.75 0 0 0.75 236.625 389.82951] CT
1 0 0 RC
10.0 ML
N
0 -4 M
0 4 L
-4 0 M
4 0 L
S
GR
GS
[0.75 0 0 0.75 259.5 299.44703] CT
1 0 0 RC
N
f860094634
f
GR
GS
[0.75 0 0 0.75 259.5 299.44703] CT
1 0 0 RC
10.0 ML
N
0 -4 M
0 4 L
-4 0 M
4 0 L
S
GR
GS
[0.75 0 0 0.75 282.375 268.78826] CT
1 0 0 RC
N
f860094634
f
GR
GS
[0.75 0 0 0.75 282.375 268.78826] CT
1 0 0 RC
10.0 ML
N
0 -4 M
0 4 L
-4 0 M
4 0 L
S
GR
GS
[0.75 0 0 0.75 305.25 255.34296] CT
1 0 0 RC
N
f860094634
f
GR
GS
[0.75 0 0 0.75 305.25 255.34296] CT
1 0 0 RC
10.0 ML
N
0 -4 M
0 4 L
-4 0 M
4 0 L
S
GR
GS
[0.75 0 0 0.75 328.125 248.38807] CT
1 0 0 RC
N
f860094634
f
GR
GS
[0.75 0 0 0.75 328.125 248.38807] CT
1 0 0 RC
10.0 ML
N
0 -4 M
0 4 L
-4 0 M
4 0 L
S
GR
GS
[0.75 0 0 0.75 351 244.36684] CT
1 0 0 RC
N
f860094634
f
GR
GS
[0.75 0 0 0.75 351 244.36684] CT
1 0 0 RC
10.0 ML
N
0 -4 M
0 4 L
-4 0 M
4 0 L
S
GR
GS
[0.75 0 0 0.75 373.875 241.84965] CT
1 0 0 RC
N
f860094634
f
GR
GS
[0.75 0 0 0.75 373.875 241.84965] CT
1 0 0 RC
10.0 ML
N
0 -4 M
0 4 L
-4 0 M
4 0 L
S
GR
GS
[0.75 0 0 0.75 396.75 240.17771] CT
1 0 0 RC
N
f860094634
f
GR
GS
[0.75 0 0 0.75 396.75 240.17771] CT
1 0 0 RC
10.0 ML
N
0 -4 M
0 4 L
-4 0 M
4 0 L
S
GR
GS
[0.75 0 0 0.75 419.625 239.01501] CT
1 0 0 RC
N
f860094634
f
GR
GS
[0.75 0 0 0.75 419.625 239.01501] CT
1 0 0 RC
10.0 ML
N
0 -4 M
0 4 L
-4 0 M
4 0 L
S
GR
GS
[0.75 0 0 0.75 442.5 238.17641] CT
1 0 0 RC
N
f860094634
f
GR
GS
[0.75 0 0 0.75 442.5 238.17641] CT
1 0 0 RC
10.0 ML
N
0 -4 M
0 4 L
-4 0 M
4 0 L
S
GR
GS
[0.75 0 0 0.75 465.375 237.55326] CT
1 0 0 RC
N
f860094634
f
GR
GS
[0.75 0 0 0.75 465.375 237.55326] CT
1 0 0 RC
10.0 ML
N
0 -4 M
0 4 L
-4 0 M
4 0 L
S
GR
GS
[0.75 0 0 0.75 488.25 237.07865] CT
1 0 0 RC
N
f860094634
f
GR
GS
[0.75 0 0 0.75 488.25 237.07865] CT
1 0 0 RC
10.0 ML
N
0 -4 M
0 4 L
-4 0 M
4 0 L
S
GR
GS
[0.75 0 0 0.75 76.5 234.5] CT
0 0 1 RC
N
/f1719669614{-2.828 -2.828 M
2.828 2.828 L
-2.828 2.828 M
2.828 -2.828 L}def
f1719669614
f
GR
GS
[0.75 0 0 0.75 76.5 234.5] CT
0 0 1 RC
10.0 ML
N
-2.828 -2.828 M
2.828 2.828 L
-2.828 2.828 M
2.828 -2.828 L
S
GR
GS
[0.75 0 0 0.75 99.375 223.61491] CT
0 0 1 RC
N
f1719669614
f
GR
GS
[0.75 0 0 0.75 99.375 223.61491] CT
0 0 1 RC
10.0 ML
N
-2.828 -2.828 M
2.828 2.828 L
-2.828 2.828 M
2.828 -2.828 L
S
GR
GS
[0.75 0 0 0.75 122.25 255.01228] CT
0 0 1 RC
N
f1719669614
f
GR
GS
[0.75 0 0 0.75 122.25 255.01228] CT
0 0 1 RC
10.0 ML
N
-2.828 -2.828 M
2.828 2.828 L
-2.828 2.828 M
2.828 -2.828 L
S
GR
GS
[0.75 0 0 0.75 145.125 255.34605] CT
0 0 1 RC
N
f1719669614
f
GR
GS
[0.75 0 0 0.75 145.125 255.34605] CT
0 0 1 RC
10.0 ML
N
-2.828 -2.828 M
2.828 2.828 L
-2.828 2.828 M
2.828 -2.828 L
S
GR
GS
[0.75 0 0 0.75 168 259.65778] CT
0 0 1 RC
N
f1719669614
f
GR
GS
[0.75 0 0 0.75 168 259.65778] CT
0 0 1 RC
10.0 ML
N
-2.828 -2.828 M
2.828 2.828 L
-2.828 2.828 M
2.828 -2.828 L
S
GR
GS
[0.75 0 0 0.75 190.875 263.7275] CT
0 0 1 RC
N
f1719669614
f
GR
GS
[0.75 0 0 0.75 190.875 263.7275] CT
0 0 1 RC
10.0 ML
N
-2.828 -2.828 M
2.828 2.828 L
-2.828 2.828 M
2.828 -2.828 L
S
GR
GS
[0.75 0 0 0.75 213.75 264.75085] CT
0 0 1 RC
N
f1719669614
f
GR
GS
[0.75 0 0 0.75 213.75 264.75085] CT
0 0 1 RC
10.0 ML
N
-2.828 -2.828 M
2.828 2.828 L
-2.828 2.828 M
2.828 -2.828 L
S
GR
GS
[0.75 0 0 0.75 236.625 261.8124] CT
0 0 1 RC
N
f1719669614
f
GR
GS
[0.75 0 0 0.75 236.625 261.8124] CT
0 0 1 RC
10.0 ML
N
-2.828 -2.828 M
2.828 2.828 L
-2.828 2.828 M
2.828 -2.828 L
S
GR
GS
[0.75 0 0 0.75 259.5 256.74963] CT
0 0 1 RC
N
f1719669614
f
GR
GS
[0.75 0 0 0.75 259.5 256.74963] CT
0 0 1 RC
10.0 ML
N
-2.828 -2.828 M
2.828 2.828 L
-2.828 2.828 M
2.828 -2.828 L
S
GR
GS
[0.75 0 0 0.75 282.375 251.72652] CT
0 0 1 RC
N
f1719669614
f
GR
GS
[0.75 0 0 0.75 282.375 251.72652] CT
0 0 1 RC
10.0 ML
N
-2.828 -2.828 M
2.828 2.828 L
-2.828 2.828 M
2.828 -2.828 L
S
GR
GS
[0.75 0 0 0.75 305.25 247.67348] CT
0 0 1 RC
N
f1719669614
f
GR
GS
[0.75 0 0 0.75 305.25 247.67348] CT
0 0 1 RC
10.0 ML
N
-2.828 -2.828 M
2.828 2.828 L
-2.828 2.828 M
2.828 -2.828 L
S
GR
GS
[0.75 0 0 0.75 328.125 244.65352] CT
0 0 1 RC
N
f1719669614
f
GR
GS
[0.75 0 0 0.75 328.125 244.65352] CT
0 0 1 RC
10.0 ML
N
-2.828 -2.828 M
2.828 2.828 L
-2.828 2.828 M
2.828 -2.828 L
S
GR
GS
[0.75 0 0 0.75 351 242.4538] CT
0 0 1 RC
N
f1719669614
f
GR
GS
[0.75 0 0 0.75 351 242.4538] CT
0 0 1 RC
10.0 ML
N
-2.828 -2.828 M
2.828 2.828 L
-2.828 2.828 M
2.828 -2.828 L
S
GR
GS
[0.75 0 0 0.75 373.875 240.84765] CT
0 0 1 RC
N
f1719669614
f
GR
GS
[0.75 0 0 0.75 373.875 240.84765] CT
0 0 1 RC
10.0 ML
N
-2.828 -2.828 M
2.828 2.828 L
-2.828 2.828 M
2.828 -2.828 L
S
GR
GS
[0.75 0 0 0.75 396.75 239.65971] CT
0 0 1 RC
N
f1719669614
f
GR
GS
[0.75 0 0 0.75 396.75 239.65971] CT
0 0 1 RC
10.0 ML
N
-2.828 -2.828 M
2.828 2.828 L
-2.828 2.828 M
2.828 -2.828 L
S
GR
GS
[0.75 0 0 0.75 419.625 238.76643] CT
0 0 1 RC
N
f1719669614
f
GR
GS
[0.75 0 0 0.75 419.625 238.76643] CT
0 0 1 RC
10.0 ML
N
-2.828 -2.828 M
2.828 2.828 L
-2.828 2.828 M
2.828 -2.828 L
S
GR
GS
[0.75 0 0 0.75 442.5 238.08303] CT
0 0 1 RC
N
f1719669614
f
GR
GS
[0.75 0 0 0.75 442.5 238.08303] CT
0 0 1 RC
10.0 ML
N
-2.828 -2.828 M
2.828 2.828 L
-2.828 2.828 M
2.828 -2.828 L
S
GR
GS
[0.75 0 0 0.75 465.375 237.5515] CT
0 0 1 RC
N
f1719669614
f
GR
GS
[0.75 0 0 0.75 465.375 237.5515] CT
0 0 1 RC
10.0 ML
N
-2.828 -2.828 M
2.828 2.828 L
-2.828 2.828 M
2.828 -2.828 L
S
GR
GS
[0.75 0 0 0.75 488.25 237.13171] CT
0 0 1 RC
N
f1719669614
f
GR
GS
[0.75 0 0 0.75 488.25 237.13171] CT
0 0 1 RC
10.0 ML
N
-2.828 -2.828 M
2.828 2.828 L
-2.828 2.828 M
2.828 -2.828 L
S
GR
GS
[0.75 0 0 0.75 76.5 234.5] CT
N
f351177404
f
GR
GS
[0.75 0 0 0.75 76.5 234.5] CT
10.0 ML
N
4 0 M
4 -2.209 2.209 -4 0 -4 C
-2.209 -4 -4 -2.209 -4 0 C
-4 2.209 -2.209 4 0 4 C
2.209 4 4 2.209 4 0 C
cp
S
GR
GS
[0.75 0 0 0.75 99.375 175.55262] CT
N
f351177404
f
GR
GS
[0.75 0 0 0.75 99.375 175.55262] CT
10.0 ML
N
4 0 M
4 -2.209 2.209 -4 0 -4 C
-2.209 -4 -4 -2.209 -4 0 C
-4 2.209 -2.209 4 0 4 C
2.209 4 4 2.209 4 0 C
cp
S
GR
GS
[0.75 0 0 0.75 122.25 244.98423] CT
N
f351177404
f
GR
GS
[0.75 0 0 0.75 122.25 244.98423] CT
10.0 ML
N
4 0 M
4 -2.209 2.209 -4 0 -4 C
-2.209 -4 -4 -2.209 -4 0 C
-4 2.209 -2.209 4 0 4 C
2.209 4 4 2.209 4 0 C
cp
S
GR
GS
[0.75 0 0 0.75 145.125 248.23451] CT
N
f351177404
f
GR
GS
[0.75 0 0 0.75 145.125 248.23451] CT
10.0 ML
N
4 0 M
4 -2.209 2.209 -4 0 -4 C
-2.209 -4 -4 -2.209 -4 0 C
-4 2.209 -2.209 4 0 4 C
2.209 4 4 2.209 4 0 C
cp
S
GR
GS
[0.75 0 0 0.75 168 252.42742] CT
N
f351177404
f
GR
GS
[0.75 0 0 0.75 168 252.42742] CT
10.0 ML
N
4 0 M
4 -2.209 2.209 -4 0 -4 C
-2.209 -4 -4 -2.209 -4 0 C
-4 2.209 -2.209 4 0 4 C
2.209 4 4 2.209 4 0 C
cp
S
GR
GS
[0.75 0 0 0.75 190.875 256.23441] CT
N
f351177404
f
GR
GS
[0.75 0 0 0.75 190.875 256.23441] CT
10.0 ML
N
4 0 M
4 -2.209 2.209 -4 0 -4 C
-2.209 -4 -4 -2.209 -4 0 C
-4 2.209 -2.209 4 0 4 C
2.209 4 4 2.209 4 0 C
cp
S
GR
GS
[0.75 0 0 0.75 213.75 258.5155] CT
N
f351177404
f
GR
GS
[0.75 0 0 0.75 213.75 258.5155] CT
10.0 ML
N
4 0 M
4 -2.209 2.209 -4 0 -4 C
-2.209 -4 -4 -2.209 -4 0 C
-4 2.209 -2.209 4 0 4 C
2.209 4 4 2.209 4 0 C
cp
S
GR
GS
[0.75 0 0 0.75 236.625 258.66603] CT
N
f351177404
f
GR
GS
[0.75 0 0 0.75 236.625 258.66603] CT
10.0 ML
N
4 0 M
4 -2.209 2.209 -4 0 -4 C
-2.209 -4 -4 -2.209 -4 0 C
-4 2.209 -2.209 4 0 4 C
2.209 4 4 2.209 4 0 C
cp
S
GR
GS
[0.75 0 0 0.75 259.5 256.99712] CT
N
f351177404
f
GR
GS
[0.75 0 0 0.75 259.5 256.99712] CT
10.0 ML
N
4 0 M
4 -2.209 2.209 -4 0 -4 C
-2.209 -4 -4 -2.209 -4 0 C
-4 2.209 -2.209 4 0 4 C
2.209 4 4 2.209 4 0 C
cp
S
GR
GS
[0.75 0 0 0.75 282.375 254.35518] CT
N
f351177404
f
GR
GS
[0.75 0 0 0.75 282.375 254.35518] CT
10.0 ML
N
4 0 M
4 -2.209 2.209 -4 0 -4 C
-2.209 -4 -4 -2.209 -4 0 C
-4 2.209 -2.209 4 0 4 C
2.209 4 4 2.209 4 0 C
cp
S
GR
GS
[0.75 0 0 0.75 305.25 251.50514] CT
N
f351177404
f
GR
GS
[0.75 0 0 0.75 305.25 251.50514] CT
10.0 ML
N
4 0 M
4 -2.209 2.209 -4 0 -4 C
-2.209 -4 -4 -2.209 -4 0 C
-4 2.209 -2.209 4 0 4 C
2.209 4 4 2.209 4 0 C
cp
S
GR
GS
[0.75 0 0 0.75 328.125 248.87865] CT
N
f351177404
f
GR
GS
[0.75 0 0 0.75 328.125 248.87865] CT
10.0 ML
N
4 0 M
4 -2.209 2.209 -4 0 -4 C
-2.209 -4 -4 -2.209 -4 0 C
-4 2.209 -2.209 4 0 4 C
2.209 4 4 2.209 4 0 C
cp
S
GR
GS
[0.75 0 0 0.75 351 246.63367] CT
N
f351177404
f
GR
GS
[0.75 0 0 0.75 351 246.63367] CT
10.0 ML
N
4 0 M
4 -2.209 2.209 -4 0 -4 C
-2.209 -4 -4 -2.209 -4 0 C
-4 2.209 -2.209 4 0 4 C
2.209 4 4 2.209 4 0 C
cp
S
GR
GS
[0.75 0 0 0.75 373.875 244.78158] CT
N
f351177404
f
GR
GS
[0.75 0 0 0.75 373.875 244.78158] CT
10.0 ML
N
4 0 M
4 -2.209 2.209 -4 0 -4 C
-2.209 -4 -4 -2.209 -4 0 C
-4 2.209 -2.209 4 0 4 C
2.209 4 4 2.209 4 0 C
cp
S
GR
GS
[0.75 0 0 0.75 396.75 243.27579] CT
N
f351177404
f
GR
GS
[0.75 0 0 0.75 396.75 243.27579] CT
10.0 ML
N
4 0 M
4 -2.209 2.209 -4 0 -4 C
-2.209 -4 -4 -2.209 -4 0 C
-4 2.209 -2.209 4 0 4 C
2.209 4 4 2.209 4 0 C
cp
S
GR
GS
[0.75 0 0 0.75 419.625 242.05566] CT
N
f351177404
f
GR
GS
[0.75 0 0 0.75 419.625 242.05566] CT
10.0 ML
N
4 0 M
4 -2.209 2.209 -4 0 -4 C
-2.209 -4 -4 -2.209 -4 0 C
-4 2.209 -2.209 4 0 4 C
2.209 4 4 2.209 4 0 C
cp
S
GR
GS
[0.75 0 0 0.75 442.5 241.06454] CT
N
f351177404
f
GR
GS
[0.75 0 0 0.75 442.5 241.06454] CT
10.0 ML
N
4 0 M
4 -2.209 2.209 -4 0 -4 C
-2.209 -4 -4 -2.209 -4 0 C
-4 2.209 -2.209 4 0 4 C
2.209 4 4 2.209 4 0 C
cp
S
GR
GS
[0.75 0 0 0.75 465.375 240.25496] CT
N
f351177404
f
GR
GS
[0.75 0 0 0.75 465.375 240.25496] CT
10.0 ML
N
4 0 M
4 -2.209 2.209 -4 0 -4 C
-2.209 -4 -4 -2.209 -4 0 C
-4 2.209 -2.209 4 0 4 C
2.209 4 4 2.209 4 0 C
cp
S
GR
GS
[0.75 0 0 0.75 488.25 239.58903] CT
N
f351177404
f
GR
GS
[0.75 0 0 0.75 488.25 239.58903] CT
10.0 ML
N
4 0 M
4 -2.209 2.209 -4 0 -4 C
-2.209 -4 -4 -2.209 -4 0 C
-4 2.209 -2.209 4 0 4 C
2.209 4 4 2.209 4 0 C
cp
S
GR
GS
[0.75 0 0 0.75 0 0.5] CT
1 GC
N
/f-1762473658{689 280 M
689 89 L
597 89 L
597 280 L
cp}def
f-1762473658
f
GR
GS
[0.75 0 0 0.75 483 77.34856] CT
/Helvetica 19.2 F
GS
[1 0 0 1 0 0] CT
0 6.5 moveto 
1 -1 scale
(n=7) t 
GR
GR
GS
[0.75 0 0 0.75 465.75 77.34856] CT
1 0 0 RC
N
f351177404
f
GR
GS
[0.75 0 0 0.75 465.75 77.34856] CT
1 0 0 RC
10.0 ML
N
4 0 M
4 -2.209 2.209 -4 0 -4 C
-2.209 -4 -4 -2.209 -4 0 C
-4 2.209 -2.209 4 0 4 C
2.209 4 4 2.209 4 0 C
cp
S
GR
GS
[0.75 0 0 0.75 483 94.92755] CT
/Helvetica 19.2 F
GS
[1 0 0 1 0 0] CT
0 6.5 moveto 
1 -1 scale
(6) t 
GR
GR
GS
[0.75 0 0 0.75 465.75 94.92755] CT
0 0 1 RC
N
f1737057230
f
GR
GS
[0.75 0 0 0.75 465.75 94.92755] CT
0 0 1 RC
10.0 ML
N
-3.464 -2 M
-1.155 -2 L
0 -4 L
1.155 -2 L
3.464 -2 L
2 0 L
3.464 2 L
1.155 2 L
0 4 L
-1.155 2 L
-3.464 2 L
-2 0 L
cp
S
GR
GS
[0.75 0 0 0.75 483 112.50653] CT
/Helvetica 19.2 F
GS
[1 0 0 1 0 0] CT
0 6.5 moveto 
1 -1 scale
(5) t 
GR
GR
GS
[0.75 0 0 0.75 465.75 112.50653] CT
N
f-1741330208
f
GR
GS
[0.75 0 0 0.75 465.75 112.50653] CT
10.0 ML
N
-3.804 -1.236 M
-0.94 -1.236 L
0 -4 L
0.94 -1.236 L
3.804 -1.236 L
1.522 0.494 L
2.351 3.236 L
0 1.6 L
-2.351 3.236 L
-1.522 0.494 L
cp
S
GR
GS
[0.75 0 0 0.75 483 130.08551] CT
/Helvetica 19.2 F
GS
[1 0 0 1 0 0] CT
0 6.5 moveto 
1 -1 scale
(4) t 
GR
GR
GS
[0.75 0 0 0.75 465.75 130.08551] CT
0 1 0 RC
N
f227889816
f
GR
GS
[0.75 0 0 0.75 465.75 130.08551] CT
0 1 0 RC
10.0 ML
N
-3 -3 M
-3 3 L
3 3 L
3 -3 L
cp
S
GR
GS
[0.75 0 0 0.75 483 147.66449] CT
/Helvetica 19.2 F
GS
[1 0 0 1 0 0] CT
0 6.5 moveto 
1 -1 scale
(3) t 
GR
GR
GS
[0.75 0 0 0.75 465.75 147.66449] CT
1 0 1 RC
N
f1022997606
f
GR
GS
[0.75 0 0 0.75 465.75 147.66449] CT
1 0 1 RC
10.0 ML
N
0 5.332 M
-4.618 -2.666 L
4.618 -2.666 L
cp
S
GR
GS
[0.75 0 0 0.75 483 165.24347] CT
/Helvetica 19.2 F
GS
[1 0 0 1 0 0] CT
0 6.5 moveto 
1 -1 scale
(2) t 
GR
GR
GS
[0.75 0 0 0.75 465.75 165.24347] CT
1 0 0 RC
N
f860094634
f
GR
GS
[0.75 0 0 0.75 465.75 165.24347] CT
1 0 0 RC
10.0 ML
N
0 -4 M
0 4 L
-4 0 M
4 0 L
S
GR
GS
[0.75 0 0 0.75 483 182.82245] CT
/Helvetica 19.2 F
GS
[1 0 0 1 0 0] CT
0 6.5 moveto 
1 -1 scale
(1) t 
GR
GR
GS
[0.75 0 0 0.75 465.75 182.82245] CT
0 0 1 RC
N
f1719669614
f
GR
GS
[0.75 0 0 0.75 465.75 182.82245] CT
0 0 1 RC
10.0 ML
N
-2.828 -2.828 M
2.828 2.828 L
-2.828 2.828 M
2.828 -2.828 L
S
GR
GS
[0.75 0 0 0.75 483 200.40144] CT
/Helvetica 19.2 F
GS
[1 0 0 1 0 0] CT
0 6.5 moveto 
1 -1 scale
(0) t 
GR
GR
GS
[0.75 0 0 0.75 465.75 200.40144] CT
N
f351177404
f
GR
GS
[0.75 0 0 0.75 465.75 200.40144] CT
10.0 ML
N
4 0 M
4 -2.209 2.209 -4 0 -4 C
-2.209 -4 -4 -2.209 -4 0 C
-4 2.209 -2.209 4 0 4 C
2.209 4 4 2.209 4 0 C
cp
S
GR
GS
[0.75 0 0 0.75 0 0.5] CT
0.149 GC
10.0 ML
0.667 LW
N
597 280 M
597 89 L
689 89 L
689 280 L
cp
S
GR
%%Trailer
%%Pages: 1
%%EOF
