%!PS-Adobe-3.0 EPSF-3.0
%%Creator: (MATLAB, The Mathworks, Inc. Version 9.4.0.813654 \(R2018a\). Operating System: Linux)
%%Title: /data/geodynamo/natafh/Dynamo/Acoustics/elastic_shell_library/checking_scripts/Figures/ZoRo2_frequency_shifts.eps
%%CreationDate: 2019-07-02T16:53:37
%%Pages: (atend)
%%BoundingBox: 0 0 590 668
%%LanguageLevel: 3
%%EndComments
%%BeginProlog
%%BeginResource: procset (Apache XML Graphics Std ProcSet) 1.2 0
%%Version: 1.2 0
%%Copyright: (Copyright 2001-2003,2010 The Apache Software Foundation. License terms: http://www.apache.org/licenses/LICENSE-2.0)
/bd{bind def}bind def
/ld{load def}bd
/GR/grestore ld
/GS/gsave ld
/RM/rmoveto ld
/C/curveto ld
/t/show ld
/L/lineto ld
/ML/setmiterlimit ld
/CT/concat ld
/f/fill ld
/N/newpath ld
/S/stroke ld
/CC/setcmykcolor ld
/A/ashow ld
/cp/closepath ld
/RC/setrgbcolor ld
/LJ/setlinejoin ld
/GC/setgray ld
/LW/setlinewidth ld
/M/moveto ld
/re {4 2 roll M
1 index 0 rlineto
0 exch rlineto
neg 0 rlineto
cp } bd
/_ctm matrix def
/_tm matrix def
/BT { _ctm currentmatrix pop matrix _tm copy pop 0 0 moveto } bd
/ET { _ctm setmatrix } bd
/iTm { _ctm setmatrix _tm concat } bd
/Tm { _tm astore pop iTm 0 0 moveto } bd
/ux 0.0 def
/uy 0.0 def
/F {
  /Tp exch def
  /Tf exch def
  Tf findfont Tp scalefont setfont
  /cf Tf def  /cs Tp def
} bd
/ULS {currentpoint /uy exch def /ux exch def} bd
/ULE {
  /Tcx currentpoint pop def
  gsave
  newpath
  cf findfont cs scalefont dup
  /FontMatrix get 0 get /Ts exch def /FontInfo get dup
  /UnderlinePosition get Ts mul /To exch def
  /UnderlineThickness get Ts mul /Tt exch def
  ux uy To add moveto  Tcx uy To add lineto
  Tt setlinewidth stroke
  grestore
} bd
/OLE {
  /Tcx currentpoint pop def
  gsave
  newpath
  cf findfont cs scalefont dup
  /FontMatrix get 0 get /Ts exch def /FontInfo get dup
  /UnderlinePosition get Ts mul /To exch def
  /UnderlineThickness get Ts mul /Tt exch def
  ux uy To add cs add moveto Tcx uy To add cs add lineto
  Tt setlinewidth stroke
  grestore
} bd
/SOE {
  /Tcx currentpoint pop def
  gsave
  newpath
  cf findfont cs scalefont dup
  /FontMatrix get 0 get /Ts exch def /FontInfo get dup
  /UnderlinePosition get Ts mul /To exch def
  /UnderlineThickness get Ts mul /Tt exch def
  ux uy To add cs 10 mul 26 idiv add moveto Tcx uy To add cs 10 mul 26 idiv add lineto
  Tt setlinewidth stroke
  grestore
} bd
/QT {
/Y22 exch store
/X22 exch store
/Y21 exch store
/X21 exch store
currentpoint
/Y21 load 2 mul add 3 div exch
/X21 load 2 mul add 3 div exch
/X21 load 2 mul /X22 load add 3 div
/Y21 load 2 mul /Y22 load add 3 div
/X22 load /Y22 load curveto
} bd
/SSPD {
dup length /d exch dict def
{
/v exch def
/k exch def
currentpagedevice k known {
/cpdv currentpagedevice k get def
v cpdv ne {
/upd false def
/nullv v type /nulltype eq def
/nullcpdv cpdv type /nulltype eq def
nullv nullcpdv or
{
/upd true def
} {
/sametype v type cpdv type eq def
sametype {
v type /arraytype eq {
/vlen v length def
/cpdvlen cpdv length def
vlen cpdvlen eq {
0 1 vlen 1 sub {
/i exch def
/obj v i get def
/cpdobj cpdv i get def
obj cpdobj ne {
/upd true def
exit
} if
} for
} {
/upd true def
} ifelse
} {
v type /dicttype eq {
v {
/dv exch def
/dk exch def
/cpddv cpdv dk get def
dv cpddv ne {
/upd true def
exit
} if
} forall
} {
/upd true def
} ifelse
} ifelse
} if
} ifelse
upd true eq {
d k v put
} if
} if
} if
} forall
d length 0 gt {
d setpagedevice
} if
} bd
/RE { % /NewFontName [NewEncodingArray] /FontName RE -
  findfont dup length dict begin
  {
    1 index /FID ne
    {def} {pop pop} ifelse
  } forall
  /Encoding exch def
  /FontName 1 index def
  currentdict definefont pop
  end
} bind def
%%EndResource
%%BeginResource: procset (Apache XML Graphics EPS ProcSet) 1.0 0
%%Version: 1.0 0
%%Copyright: (Copyright 2002-2003 The Apache Software Foundation. License terms: http://www.apache.org/licenses/LICENSE-2.0)
/BeginEPSF { %def
/b4_Inc_state save def         % Save state for cleanup
/dict_count countdictstack def % Count objects on dict stack
/op_count count 1 sub def      % Count objects on operand stack
userdict begin                 % Push userdict on dict stack
/showpage { } def              % Redefine showpage, { } = null proc
0 setgray 0 setlinecap         % Prepare graphics state
1 setlinewidth 0 setlinejoin
10 setmiterlimit [ ] 0 setdash newpath
/languagelevel where           % If level not equal to 1 then
{pop languagelevel             % set strokeadjust and
1 ne                           % overprint to their defaults.
{false setstrokeadjust false setoverprint
} if
} if
} bd
/EndEPSF { %def
count op_count sub {pop} repeat            % Clean up stacks
countdictstack dict_count sub {end} repeat
b4_Inc_state restore
} bd
%%EndResource
%FOPBeginFontDict
%%IncludeResource: font Courier-Oblique
%%IncludeResource: font Courier-BoldOblique
%%IncludeResource: font Courier-Bold
%%IncludeResource: font ZapfDingbats
%%IncludeResource: font Symbol
%%IncludeResource: font Helvetica
%%IncludeResource: font Helvetica-Oblique
%%IncludeResource: font Helvetica-Bold
%%IncludeResource: font Helvetica-BoldOblique
%%IncludeResource: font Times-Roman
%%IncludeResource: font Times-Italic
%%IncludeResource: font Times-Bold
%%IncludeResource: font Times-BoldItalic
%%IncludeResource: font Courier
%FOPEndFontDict
%%BeginResource: encoding WinAnsiEncoding
/WinAnsiEncoding [
/.notdef /.notdef /.notdef /.notdef /.notdef
/.notdef /.notdef /.notdef /.notdef /.notdef
/.notdef /.notdef /.notdef /.notdef /.notdef
/.notdef /.notdef /.notdef /.notdef /.notdef
/.notdef /.notdef /.notdef /.notdef /.notdef
/.notdef /.notdef /.notdef /.notdef /.notdef
/.notdef /.notdef /space /exclam /quotedbl
/numbersign /dollar /percent /ampersand /quotesingle
/parenleft /parenright /asterisk /plus /comma
/hyphen /period /slash /zero /one
/two /three /four /five /six
/seven /eight /nine /colon /semicolon
/less /equal /greater /question /at
/A /B /C /D /E
/F /G /H /I /J
/K /L /M /N /O
/P /Q /R /S /T
/U /V /W /X /Y
/Z /bracketleft /backslash /bracketright /asciicircum
/underscore /quoteleft /a /b /c
/d /e /f /g /h
/i /j /k /l /m
/n /o /p /q /r
/s /t /u /v /w
/x /y /z /braceleft /bar
/braceright /asciitilde /bullet /Euro /bullet
/quotesinglbase /florin /quotedblbase /ellipsis /dagger
/daggerdbl /circumflex /perthousand /Scaron /guilsinglleft
/OE /bullet /Zcaron /bullet /bullet
/quoteleft /quoteright /quotedblleft /quotedblright /bullet
/endash /emdash /asciitilde /trademark /scaron
/guilsinglright /oe /bullet /zcaron /Ydieresis
/space /exclamdown /cent /sterling /currency
/yen /brokenbar /section /dieresis /copyright
/ordfeminine /guillemotleft /logicalnot /sfthyphen /registered
/macron /degree /plusminus /twosuperior /threesuperior
/acute /mu /paragraph /middot /cedilla
/onesuperior /ordmasculine /guillemotright /onequarter /onehalf
/threequarters /questiondown /Agrave /Aacute /Acircumflex
/Atilde /Adieresis /Aring /AE /Ccedilla
/Egrave /Eacute /Ecircumflex /Edieresis /Igrave
/Iacute /Icircumflex /Idieresis /Eth /Ntilde
/Ograve /Oacute /Ocircumflex /Otilde /Odieresis
/multiply /Oslash /Ugrave /Uacute /Ucircumflex
/Udieresis /Yacute /Thorn /germandbls /agrave
/aacute /acircumflex /atilde /adieresis /aring
/ae /ccedilla /egrave /eacute /ecircumflex
/edieresis /igrave /iacute /icircumflex /idieresis
/eth /ntilde /ograve /oacute /ocircumflex
/otilde /odieresis /divide /oslash /ugrave
/uacute /ucircumflex /udieresis /yacute /thorn
/ydieresis
] def
%%EndResource
%FOPBeginFontReencode
/Courier-Oblique findfont
dup length dict begin
  {1 index /FID ne {def} {pop pop} ifelse} forall
  /Encoding WinAnsiEncoding def
  currentdict
end
/Courier-Oblique exch definefont pop
/Courier-BoldOblique findfont
dup length dict begin
  {1 index /FID ne {def} {pop pop} ifelse} forall
  /Encoding WinAnsiEncoding def
  currentdict
end
/Courier-BoldOblique exch definefont pop
/Courier-Bold findfont
dup length dict begin
  {1 index /FID ne {def} {pop pop} ifelse} forall
  /Encoding WinAnsiEncoding def
  currentdict
end
/Courier-Bold exch definefont pop
/Helvetica findfont
dup length dict begin
  {1 index /FID ne {def} {pop pop} ifelse} forall
  /Encoding WinAnsiEncoding def
  currentdict
end
/Helvetica exch definefont pop
/Helvetica-Oblique findfont
dup length dict begin
  {1 index /FID ne {def} {pop pop} ifelse} forall
  /Encoding WinAnsiEncoding def
  currentdict
end
/Helvetica-Oblique exch definefont pop
/Helvetica-Bold findfont
dup length dict begin
  {1 index /FID ne {def} {pop pop} ifelse} forall
  /Encoding WinAnsiEncoding def
  currentdict
end
/Helvetica-Bold exch definefont pop
/Helvetica-BoldOblique findfont
dup length dict begin
  {1 index /FID ne {def} {pop pop} ifelse} forall
  /Encoding WinAnsiEncoding def
  currentdict
end
/Helvetica-BoldOblique exch definefont pop
/Times-Roman findfont
dup length dict begin
  {1 index /FID ne {def} {pop pop} ifelse} forall
  /Encoding WinAnsiEncoding def
  currentdict
end
/Times-Roman exch definefont pop
/Times-Italic findfont
dup length dict begin
  {1 index /FID ne {def} {pop pop} ifelse} forall
  /Encoding WinAnsiEncoding def
  currentdict
end
/Times-Italic exch definefont pop
/Times-Bold findfont
dup length dict begin
  {1 index /FID ne {def} {pop pop} ifelse} forall
  /Encoding WinAnsiEncoding def
  currentdict
end
/Times-Bold exch definefont pop
/Times-BoldItalic findfont
dup length dict begin
  {1 index /FID ne {def} {pop pop} ifelse} forall
  /Encoding WinAnsiEncoding def
  currentdict
end
/Times-BoldItalic exch definefont pop
/Courier findfont
dup length dict begin
  {1 index /FID ne {def} {pop pop} ifelse} forall
  /Encoding WinAnsiEncoding def
  currentdict
end
/Courier exch definefont pop
%FOPEndFontReencode
%%EndProlog
%%Page: 1 1
%%PageBoundingBox: 0 0 590 668
%%BeginPageSetup
[1 0 0 -1 0 668] CT
%%EndPageSetup
GS
[0.75 0 0 0.75 0 0.5] CT
1 GC
N
0 0 787 890 re
f
GR
GS
[0.75 0 0 0.75 0 0.5] CT
1 GC
N
0 0 787 890 re
f
GR
GS
[0.75 0 0 0.75 0 0.5] CT
1 GC
N
102 792 M
712 792 L
712 72 L
102 72 L
cp
f
GR
GS
[0.75 0 0 0.75 0 0.5] CT
0.873 GC
1 LJ
0.667 LW
N
102 792 M
102 72 L
S
GR
GS
[0.75 0 0 0.75 0 0.5] CT
0.873 GC
1 LJ
0.667 LW
N
254.5 792 M
254.5 72 L
S
GR
GS
[0.75 0 0 0.75 0 0.5] CT
0.873 GC
1 LJ
0.667 LW
N
407 792 M
407 72 L
S
GR
GS
[0.75 0 0 0.75 0 0.5] CT
0.873 GC
1 LJ
0.667 LW
N
559.5 792 M
559.5 72 L
S
GR
GS
[0.75 0 0 0.75 0 0.5] CT
0.873 GC
1 LJ
0.667 LW
N
712 792 M
712 72 L
S
GR
GS
[0.75 0 0 0.75 0 0.5] CT
0.873 GC
1 LJ
0.667 LW
N
712 792 M
102 792 L
S
GR
GS
[0.75 0 0 0.75 0 0.5] CT
0.873 GC
1 LJ
0.667 LW
N
712 712 M
102 712 L
S
GR
GS
[0.75 0 0 0.75 0 0.5] CT
0.873 GC
1 LJ
0.667 LW
N
712 632 M
102 632 L
S
GR
GS
[0.75 0 0 0.75 0 0.5] CT
0.873 GC
1 LJ
0.667 LW
N
712 552 M
102 552 L
S
GR
GS
[0.75 0 0 0.75 0 0.5] CT
0.873 GC
1 LJ
0.667 LW
N
712 472 M
102 472 L
S
GR
GS
[0.75 0 0 0.75 0 0.5] CT
0.873 GC
1 LJ
0.667 LW
N
712 392 M
102 392 L
S
GR
GS
[0.75 0 0 0.75 0 0.5] CT
0.873 GC
1 LJ
0.667 LW
N
712 312 M
102 312 L
S
GR
GS
[0.75 0 0 0.75 0 0.5] CT
0.873 GC
1 LJ
0.667 LW
N
712 232 M
102 232 L
S
GR
GS
[0.75 0 0 0.75 0 0.5] CT
0.873 GC
1 LJ
0.667 LW
N
712 152 M
102 152 L
S
GR
GS
[0.75 0 0 0.75 0 0.5] CT
0.873 GC
1 LJ
0.667 LW
N
712 72 M
102 72 L
S
GR
GS
[0.75 0 0 0.75 0 0.5] CT
0.149 GC
2 setlinecap
1 LJ
0.667 LW
N
102 792 M
712 792 L
S
GR
GS
[0.75 0 0 0.75 0 0.5] CT
0.149 GC
2 setlinecap
1 LJ
0.667 LW
N
102 72 M
712 72 L
S
GR
GS
[0.75 0 0 0.75 0 0.5] CT
0.149 GC
2 setlinecap
1 LJ
0.667 LW
N
102 792 M
102 784.8 L
S
GR
GS
[0.75 0 0 0.75 0 0.5] CT
0.149 GC
2 setlinecap
1 LJ
0.667 LW
N
254.5 792 M
254.5 784.8 L
S
GR
GS
[0.75 0 0 0.75 0 0.5] CT
0.149 GC
2 setlinecap
1 LJ
0.667 LW
N
407 792 M
407 784.8 L
S
GR
GS
[0.75 0 0 0.75 0 0.5] CT
0.149 GC
2 setlinecap
1 LJ
0.667 LW
N
559.5 792 M
559.5 784.8 L
S
GR
GS
[0.75 0 0 0.75 0 0.5] CT
0.149 GC
2 setlinecap
1 LJ
0.667 LW
N
712 792 M
712 784.8 L
S
GR
GS
[0.75 0 0 0.75 0 0.5] CT
0.149 GC
2 setlinecap
1 LJ
0.667 LW
N
102 72 M
102 79.2 L
S
GR
GS
[0.75 0 0 0.75 0 0.5] CT
0.149 GC
2 setlinecap
1 LJ
0.667 LW
N
254.5 72 M
254.5 79.2 L
S
GR
GS
[0.75 0 0 0.75 0 0.5] CT
0.149 GC
2 setlinecap
1 LJ
0.667 LW
N
407 72 M
407 79.2 L
S
GR
GS
[0.75 0 0 0.75 0 0.5] CT
0.149 GC
2 setlinecap
1 LJ
0.667 LW
N
559.5 72 M
559.5 79.2 L
S
GR
GS
[0.75 0 0 0.75 0 0.5] CT
0.149 GC
2 setlinecap
1 LJ
0.667 LW
N
712 72 M
712 79.2 L
S
GR
GS
[0.75 0 0 0.75 76.5 599.70001] CT
0.149 GC
/Helvetica 21.333 F
GS
[1 0 0 1 0 0] CT
-7 20 moveto 
1 -1 scale
(0) t 
GR
GR
GS
[0.75 0 0 0.75 190.875 599.70001] CT
0.149 GC
/Helvetica 21.333 F
GS
[1 0 0 1 0 0] CT
-7 20 moveto 
1 -1 scale
(5) t 
GR
GR
GS
[0.75 0 0 0.75 305.25 599.70001] CT
0.149 GC
/Helvetica 21.333 F
GS
[1 0 0 1 0 0] CT
-14 20 moveto 
1 -1 scale
(10) t 
GR
GR
GS
[0.75 0 0 0.75 419.625 599.70001] CT
0.149 GC
/Helvetica 21.333 F
GS
[1 0 0 1 0 0] CT
-14 20 moveto 
1 -1 scale
(15) t 
GR
GR
GS
[0.75 0 0 0.75 534 599.70001] CT
0.149 GC
/Helvetica 21.333 F
GS
[1 0 0 1 0 0] CT
-14 20 moveto 
1 -1 scale
(20) t 
GR
GR
GS
[0.75 0 0 0.75 305.25023 620.2] CT
0.149 GC
/Helvetica 23.467 F
GS
[1 0 0 1 0 0] CT
-138.5 22 moveto 
1 -1 scale
(mode angular number l) t 
GR
GR
GS
[0.75 0 0 0.75 0 0.5] CT
0.149 GC
2 setlinecap
1 LJ
0.667 LW
N
102 792 M
102 72 L
S
GR
GS
[0.75 0 0 0.75 0 0.5] CT
0.149 GC
2 setlinecap
1 LJ
0.667 LW
N
712 792 M
712 72 L
S
GR
GS
[0.75 0 0 0.75 0 0.5] CT
0.149 GC
2 setlinecap
1 LJ
0.667 LW
N
102 792 M
109.2 792 L
S
GR
GS
[0.75 0 0 0.75 0 0.5] CT
0.149 GC
2 setlinecap
1 LJ
0.667 LW
N
102 712 M
109.2 712 L
S
GR
GS
[0.75 0 0 0.75 0 0.5] CT
0.149 GC
2 setlinecap
1 LJ
0.667 LW
N
102 632 M
109.2 632 L
S
GR
GS
[0.75 0 0 0.75 0 0.5] CT
0.149 GC
2 setlinecap
1 LJ
0.667 LW
N
102 552 M
109.2 552 L
S
GR
GS
[0.75 0 0 0.75 0 0.5] CT
0.149 GC
2 setlinecap
1 LJ
0.667 LW
N
102 472 M
109.2 472 L
S
GR
GS
[0.75 0 0 0.75 0 0.5] CT
0.149 GC
2 setlinecap
1 LJ
0.667 LW
N
102 392 M
109.2 392 L
S
GR
GS
[0.75 0 0 0.75 0 0.5] CT
0.149 GC
2 setlinecap
1 LJ
0.667 LW
N
102 312 M
109.2 312 L
S
GR
GS
[0.75 0 0 0.75 0 0.5] CT
0.149 GC
2 setlinecap
1 LJ
0.667 LW
N
102 232 M
109.2 232 L
S
GR
GS
[0.75 0 0 0.75 0 0.5] CT
0.149 GC
2 setlinecap
1 LJ
0.667 LW
N
102 152 M
109.2 152 L
S
GR
GS
[0.75 0 0 0.75 0 0.5] CT
0.149 GC
2 setlinecap
1 LJ
0.667 LW
N
102 72 M
109.2 72 L
S
GR
GS
[0.75 0 0 0.75 0 0.5] CT
0.149 GC
2 setlinecap
1 LJ
0.667 LW
N
712 792 M
704.8 792 L
S
GR
GS
[0.75 0 0 0.75 0 0.5] CT
0.149 GC
2 setlinecap
1 LJ
0.667 LW
N
712 712 M
704.8 712 L
S
GR
GS
[0.75 0 0 0.75 0 0.5] CT
0.149 GC
2 setlinecap
1 LJ
0.667 LW
N
712 632 M
704.8 632 L
S
GR
GS
[0.75 0 0 0.75 0 0.5] CT
0.149 GC
2 setlinecap
1 LJ
0.667 LW
N
712 552 M
704.8 552 L
S
GR
GS
[0.75 0 0 0.75 0 0.5] CT
0.149 GC
2 setlinecap
1 LJ
0.667 LW
N
712 472 M
704.8 472 L
S
GR
GS
[0.75 0 0 0.75 0 0.5] CT
0.149 GC
2 setlinecap
1 LJ
0.667 LW
N
712 392 M
704.8 392 L
S
GR
GS
[0.75 0 0 0.75 0 0.5] CT
0.149 GC
2 setlinecap
1 LJ
0.667 LW
N
712 312 M
704.8 312 L
S
GR
GS
[0.75 0 0 0.75 0 0.5] CT
0.149 GC
2 setlinecap
1 LJ
0.667 LW
N
712 232 M
704.8 232 L
S
GR
GS
[0.75 0 0 0.75 0 0.5] CT
0.149 GC
2 setlinecap
1 LJ
0.667 LW
N
712 152 M
704.8 152 L
S
GR
GS
[0.75 0 0 0.75 0 0.5] CT
0.149 GC
2 setlinecap
1 LJ
0.667 LW
N
712 72 M
704.8 72 L
S
GR
GS
[0.75 0 0 0.75 71.3 594.5] CT
0.149 GC
/Helvetica 21.333 F
GS
[1 0 0 1 0 0] CT
-22 7 moveto 
1 -1 scale
(-8) t 
GR
GR
GS
[0.75 0 0 0.75 71.3 534.5] CT
0.149 GC
/Helvetica 21.333 F
GS
[1 0 0 1 0 0] CT
-22 7 moveto 
1 -1 scale
(-6) t 
GR
GR
GS
[0.75 0 0 0.75 71.3 474.5] CT
0.149 GC
/Helvetica 21.333 F
GS
[1 0 0 1 0 0] CT
-22 7 moveto 
1 -1 scale
(-4) t 
GR
GR
GS
[0.75 0 0 0.75 71.3 414.5] CT
0.149 GC
/Helvetica 21.333 F
GS
[1 0 0 1 0 0] CT
-22 7 moveto 
1 -1 scale
(-2) t 
GR
GR
GS
[0.75 0 0 0.75 71.3 354.5] CT
0.149 GC
/Helvetica 21.333 F
GS
[1 0 0 1 0 0] CT
-14 7 moveto 
1 -1 scale
(0) t 
GR
GR
GS
[0.75 0 0 0.75 71.3 294.5] CT
0.149 GC
/Helvetica 21.333 F
GS
[1 0 0 1 0 0] CT
-14 7 moveto 
1 -1 scale
(2) t 
GR
GR
GS
[0.75 0 0 0.75 71.3 234.5] CT
0.149 GC
/Helvetica 21.333 F
GS
[1 0 0 1 0 0] CT
-14 7 moveto 
1 -1 scale
(4) t 
GR
GR
GS
[0.75 0 0 0.75 71.3 174.5] CT
0.149 GC
/Helvetica 21.333 F
GS
[1 0 0 1 0 0] CT
-14 7 moveto 
1 -1 scale
(6) t 
GR
GR
GS
[0.75 0 0 0.75 71.3 114.5] CT
0.149 GC
/Helvetica 21.333 F
GS
[1 0 0 1 0 0] CT
-14 7 moveto 
1 -1 scale
(8) t 
GR
GR
GS
[0.75 0 0 0.75 71.3 54.5] CT
0.149 GC
/Helvetica 21.333 F
GS
[1 0 0 1 0 0] CT
-28 7 moveto 
1 -1 scale
(10) t 
GR
GR
GS
[0 -0.75 0.75 0 47.3 324.49975] CT
0.149 GC
/Helvetica 23.467 F
GS
[1 0 0 1 0 0] CT
-277.5 -6 moveto 
1 -1 scale
(mode frequency \(Hz\) \(csound = 343.2638 m/s\)) t 
GR
GR
GS
[0.75 0 0 0.75 31.5 26.75] CT
/Helvetica-Bold 18.773 F
GS
[1 0 0 1 0 0] CT
0 0 moveto 
1 -1 scale
(n) t 
GR
GR
GS
[0.75 0 0 0.75 42 18.5] CT
/Helvetica-Bold 23.467 F
GS
[1 0 0 1 0 0] CT
0 0 moveto 
1 -1 scale
(S) t 
GR
GR
GS
[0.75 0 0 0.75 54.75 26.75] CT
/Helvetica-Bold 18.773 F
GS
[1 0 0 1 0 0] CT
0 0 moveto 
1 -1 scale
(l) t 
GR
GR
GS
[0.75 0 0 0.75 60 18.5] CT
/Helvetica-Bold 23.467 F
GS
[1 0 0 1 0 0] CT
0 0 moveto 
1 -1 scale
( mode frequencies for elastic or rigid spherical shell) t 
GR
GR
GS
[0.75 0 0 0.75 230.25 47] CT
/Helvetica-Bold 23.467 F
GS
[1 0 0 1 0 0] CT
0 0 moveto 
1 -1 scale
(ZoRo2-air-rigid) t 
GR
GR
GS
[0.75 0 0 0.75 76.5 354.5] CT
1 0 0 RC
N
4 0 M
4 -2.209 2.209 -4 0 -4 C
-2.209 -4 -4 -2.209 -4 0 C
-4 2.209 -2.209 4 0 4 C
2.209 4 4 2.209 4 0 C
cp
f
GR
GS
[0.75 0 0 0.75 76.5 354.5] CT
1 0 0 RC
10.0 ML
N
4 0 M
4 -2.209 2.209 -4 0 -4 C
-2.209 -4 -4 -2.209 -4 0 C
-4 2.209 -2.209 4 0 4 C
2.209 4 4 2.209 4 0 C
cp
S
GR
GS
[0.75 0 0 0.75 99.375 357.73936] CT
1 0 0 RC
N
/f351177404{4 0 M
4 -2.209 2.209 -4 0 -4 C
-2.209 -4 -4 -2.209 -4 0 C
-4 2.209 -2.209 4 0 4 C
2.209 4 4 2.209 4 0 C
cp}def
f351177404
f
GR
GS
[0.75 0 0 0.75 99.375 357.73936] CT
1 0 0 RC
10.0 ML
N
4 0 M
4 -2.209 2.209 -4 0 -4 C
-2.209 -4 -4 -2.209 -4 0 C
-4 2.209 -2.209 4 0 4 C
2.209 4 4 2.209 4 0 C
cp
S
GR
GS
[0.75 0 0 0.75 122.25 353.03534] CT
1 0 0 RC
N
f351177404
f
GR
GS
[0.75 0 0 0.75 122.25 353.03534] CT
1 0 0 RC
10.0 ML
N
4 0 M
4 -2.209 2.209 -4 0 -4 C
-2.209 -4 -4 -2.209 -4 0 C
-4 2.209 -2.209 4 0 4 C
2.209 4 4 2.209 4 0 C
cp
S
GR
GS
[0.75 0 0 0.75 145.125 352.0945] CT
1 0 0 RC
N
f351177404
f
GR
GS
[0.75 0 0 0.75 145.125 352.0945] CT
1 0 0 RC
10.0 ML
N
4 0 M
4 -2.209 2.209 -4 0 -4 C
-2.209 -4 -4 -2.209 -4 0 C
-4 2.209 -2.209 4 0 4 C
2.209 4 4 2.209 4 0 C
cp
S
GR
GS
[0.75 0 0 0.75 168 351.87012] CT
1 0 0 RC
N
f351177404
f
GR
GS
[0.75 0 0 0.75 168 351.87012] CT
1 0 0 RC
10.0 ML
N
4 0 M
4 -2.209 2.209 -4 0 -4 C
-2.209 -4 -4 -2.209 -4 0 C
-4 2.209 -2.209 4 0 4 C
2.209 4 4 2.209 4 0 C
cp
S
GR
GS
[0.75 0 0 0.75 190.875 351.81613] CT
1 0 0 RC
N
f351177404
f
GR
GS
[0.75 0 0 0.75 190.875 351.81613] CT
1 0 0 RC
10.0 ML
N
4 0 M
4 -2.209 2.209 -4 0 -4 C
-2.209 -4 -4 -2.209 -4 0 C
-4 2.209 -2.209 4 0 4 C
2.209 4 4 2.209 4 0 C
cp
S
GR
GS
[0.75 0 0 0.75 213.75 351.78709] CT
1 0 0 RC
N
f351177404
f
GR
GS
[0.75 0 0 0.75 213.75 351.78709] CT
1 0 0 RC
10.0 ML
N
4 0 M
4 -2.209 2.209 -4 0 -4 C
-2.209 -4 -4 -2.209 -4 0 C
-4 2.209 -2.209 4 0 4 C
2.209 4 4 2.209 4 0 C
cp
S
GR
GS
[0.75 0 0 0.75 236.625 351.72767] CT
1 0 0 RC
N
f351177404
f
GR
GS
[0.75 0 0 0.75 236.625 351.72767] CT
1 0 0 RC
10.0 ML
N
4 0 M
4 -2.209 2.209 -4 0 -4 C
-2.209 -4 -4 -2.209 -4 0 C
-4 2.209 -2.209 4 0 4 C
2.209 4 4 2.209 4 0 C
cp
S
GR
GS
[0.75 0 0 0.75 259.5 351.60245] CT
1 0 0 RC
N
f351177404
f
GR
GS
[0.75 0 0 0.75 259.5 351.60245] CT
1 0 0 RC
10.0 ML
N
4 0 M
4 -2.209 2.209 -4 0 -4 C
-2.209 -4 -4 -2.209 -4 0 C
-4 2.209 -2.209 4 0 4 C
2.209 4 4 2.209 4 0 C
cp
S
GR
GS
[0.75 0 0 0.75 282.375 351.36862] CT
1 0 0 RC
N
f351177404
f
GR
GS
[0.75 0 0 0.75 282.375 351.36862] CT
1 0 0 RC
10.0 ML
N
4 0 M
4 -2.209 2.209 -4 0 -4 C
-2.209 -4 -4 -2.209 -4 0 C
-4 2.209 -2.209 4 0 4 C
2.209 4 4 2.209 4 0 C
cp
S
GR
GS
[0.75 0 0 0.75 305.25 350.94736] CT
1 0 0 RC
N
f351177404
f
GR
GS
[0.75 0 0 0.75 305.25 350.94736] CT
1 0 0 RC
10.0 ML
N
4 0 M
4 -2.209 2.209 -4 0 -4 C
-2.209 -4 -4 -2.209 -4 0 C
-4 2.209 -2.209 4 0 4 C
2.209 4 4 2.209 4 0 C
cp
S
GR
GS
[0.75 0 0 0.75 328.125 350.15125] CT
1 0 0 RC
N
f351177404
f
GR
GS
[0.75 0 0 0.75 328.125 350.15125] CT
1 0 0 RC
10.0 ML
N
4 0 M
4 -2.209 2.209 -4 0 -4 C
-2.209 -4 -4 -2.209 -4 0 C
-4 2.209 -2.209 4 0 4 C
2.209 4 4 2.209 4 0 C
cp
S
GR
GS
[0.75 0 0 0.75 351 348.38171] CT
1 0 0 RC
N
f351177404
f
GR
GS
[0.75 0 0 0.75 351 348.38171] CT
1 0 0 RC
10.0 ML
N
4 0 M
4 -2.209 2.209 -4 0 -4 C
-2.209 -4 -4 -2.209 -4 0 C
-4 2.209 -2.209 4 0 4 C
2.209 4 4 2.209 4 0 C
cp
S
GR
GS
[0.75 0 0 0.75 373.875 342.13605] CT
1 0 0 RC
N
f351177404
f
GR
GS
[0.75 0 0 0.75 373.875 342.13605] CT
1 0 0 RC
10.0 ML
N
4 0 M
4 -2.209 2.209 -4 0 -4 C
-2.209 -4 -4 -2.209 -4 0 C
-4 2.209 -2.209 4 0 4 C
2.209 4 4 2.209 4 0 C
cp
S
GR
GS
[0.75 0 0 0.75 396.75 408.24873] CT
1 0 0 RC
N
f351177404
f
GR
GS
[0.75 0 0 0.75 396.75 408.24873] CT
1 0 0 RC
10.0 ML
N
4 0 M
4 -2.209 2.209 -4 0 -4 C
-2.209 -4 -4 -2.209 -4 0 C
-4 2.209 -2.209 4 0 4 C
2.209 4 4 2.209 4 0 C
cp
S
GR
GS
[0.75 0 0 0.75 419.625 361.87148] CT
1 0 0 RC
N
f351177404
f
GR
GS
[0.75 0 0 0.75 419.625 361.87148] CT
1 0 0 RC
10.0 ML
N
4 0 M
4 -2.209 2.209 -4 0 -4 C
-2.209 -4 -4 -2.209 -4 0 C
-4 2.209 -2.209 4 0 4 C
2.209 4 4 2.209 4 0 C
cp
S
GR
GS
[0.75 0 0 0.75 442.5 358.19404] CT
1 0 0 RC
N
f351177404
f
GR
GS
[0.75 0 0 0.75 442.5 358.19404] CT
1 0 0 RC
10.0 ML
N
4 0 M
4 -2.209 2.209 -4 0 -4 C
-2.209 -4 -4 -2.209 -4 0 C
-4 2.209 -2.209 4 0 4 C
2.209 4 4 2.209 4 0 C
cp
S
GR
GS
[0.75 0 0 0.75 465.375 356.85872] CT
1 0 0 RC
N
f351177404
f
GR
GS
[0.75 0 0 0.75 465.375 356.85872] CT
1 0 0 RC
10.0 ML
N
4 0 M
4 -2.209 2.209 -4 0 -4 C
-2.209 -4 -4 -2.209 -4 0 C
-4 2.209 -2.209 4 0 4 C
2.209 4 4 2.209 4 0 C
cp
S
GR
GS
[0.75 0 0 0.75 488.25 356.17951] CT
1 0 0 RC
N
f351177404
f
GR
GS
[0.75 0 0 0.75 488.25 356.17951] CT
1 0 0 RC
10.0 ML
N
4 0 M
4 -2.209 2.209 -4 0 -4 C
-2.209 -4 -4 -2.209 -4 0 C
-4 2.209 -2.209 4 0 4 C
2.209 4 4 2.209 4 0 C
cp
S
GR
GS
[0.75 0 0 0.75 76.5 354.5] CT
0 0 1 RC
N
/f1737057230{-3.464 -2 M
-1.155 -2 L
0 -4 L
1.155 -2 L
3.464 -2 L
2 0 L
3.464 2 L
1.155 2 L
0 4 L
-1.155 2 L
-3.464 2 L
-2 0 L
cp}def
f1737057230
f
GR
GS
[0.75 0 0 0.75 76.5 354.5] CT
0 0 1 RC
10.0 ML
N
-3.464 -2 M
-1.155 -2 L
0 -4 L
1.155 -2 L
3.464 -2 L
2 0 L
3.464 2 L
1.155 2 L
0 4 L
-1.155 2 L
-3.464 2 L
-2 0 L
cp
S
GR
GS
[0.75 0 0 0.75 99.375 355.8781] CT
0 0 1 RC
N
f1737057230
f
GR
GS
[0.75 0 0 0.75 99.375 355.8781] CT
0 0 1 RC
10.0 ML
N
-3.464 -2 M
-1.155 -2 L
0 -4 L
1.155 -2 L
3.464 -2 L
2 0 L
3.464 2 L
1.155 2 L
0 4 L
-1.155 2 L
-3.464 2 L
-2 0 L
cp
S
GR
GS
[0.75 0 0 0.75 122.25 352.46778] CT
0 0 1 RC
N
f1737057230
f
GR
GS
[0.75 0 0 0.75 122.25 352.46778] CT
0 0 1 RC
10.0 ML
N
-3.464 -2 M
-1.155 -2 L
0 -4 L
1.155 -2 L
3.464 -2 L
2 0 L
3.464 2 L
1.155 2 L
0 4 L
-1.155 2 L
-3.464 2 L
-2 0 L
cp
S
GR
GS
[0.75 0 0 0.75 145.125 351.51035] CT
0 0 1 RC
N
f1737057230
f
GR
GS
[0.75 0 0 0.75 145.125 351.51035] CT
0 0 1 RC
10.0 ML
N
-3.464 -2 M
-1.155 -2 L
0 -4 L
1.155 -2 L
3.464 -2 L
2 0 L
3.464 2 L
1.155 2 L
0 4 L
-1.155 2 L
-3.464 2 L
-2 0 L
cp
S
GR
GS
[0.75 0 0 0.75 168 351.28213] CT
0 0 1 RC
N
f1737057230
f
GR
GS
[0.75 0 0 0.75 168 351.28213] CT
0 0 1 RC
10.0 ML
N
-3.464 -2 M
-1.155 -2 L
0 -4 L
1.155 -2 L
3.464 -2 L
2 0 L
3.464 2 L
1.155 2 L
0 4 L
-1.155 2 L
-3.464 2 L
-2 0 L
cp
S
GR
GS
[0.75 0 0 0.75 190.875 351.23374] CT
0 0 1 RC
N
f1737057230
f
GR
GS
[0.75 0 0 0.75 190.875 351.23374] CT
0 0 1 RC
10.0 ML
N
-3.464 -2 M
-1.155 -2 L
0 -4 L
1.155 -2 L
3.464 -2 L
2 0 L
3.464 2 L
1.155 2 L
0 4 L
-1.155 2 L
-3.464 2 L
-2 0 L
cp
S
GR
GS
[0.75 0 0 0.75 213.75 351.19437] CT
0 0 1 RC
N
f1737057230
f
GR
GS
[0.75 0 0 0.75 213.75 351.19437] CT
0 0 1 RC
10.0 ML
N
-3.464 -2 M
-1.155 -2 L
0 -4 L
1.155 -2 L
3.464 -2 L
2 0 L
3.464 2 L
1.155 2 L
0 4 L
-1.155 2 L
-3.464 2 L
-2 0 L
cp
S
GR
GS
[0.75 0 0 0.75 236.625 351.09264] CT
0 0 1 RC
N
f1737057230
f
GR
GS
[0.75 0 0 0.75 236.625 351.09264] CT
0 0 1 RC
10.0 ML
N
-3.464 -2 M
-1.155 -2 L
0 -4 L
1.155 -2 L
3.464 -2 L
2 0 L
3.464 2 L
1.155 2 L
0 4 L
-1.155 2 L
-3.464 2 L
-2 0 L
cp
S
GR
GS
[0.75 0 0 0.75 259.5 350.87273] CT
0 0 1 RC
N
f1737057230
f
GR
GS
[0.75 0 0 0.75 259.5 350.87273] CT
0 0 1 RC
10.0 ML
N
-3.464 -2 M
-1.155 -2 L
0 -4 L
1.155 -2 L
3.464 -2 L
2 0 L
3.464 2 L
1.155 2 L
0 4 L
-1.155 2 L
-3.464 2 L
-2 0 L
cp
S
GR
GS
[0.75 0 0 0.75 282.375 350.44861] CT
0 0 1 RC
N
f1737057230
f
GR
GS
[0.75 0 0 0.75 282.375 350.44861] CT
0 0 1 RC
10.0 ML
N
-3.464 -2 M
-1.155 -2 L
0 -4 L
1.155 -2 L
3.464 -2 L
2 0 L
3.464 2 L
1.155 2 L
0 4 L
-1.155 2 L
-3.464 2 L
-2 0 L
cp
S
GR
GS
[0.75 0 0 0.75 305.25 349.6245] CT
0 0 1 RC
N
f1737057230
f
GR
GS
[0.75 0 0 0.75 305.25 349.6245] CT
0 0 1 RC
10.0 ML
N
-3.464 -2 M
-1.155 -2 L
0 -4 L
1.155 -2 L
3.464 -2 L
2 0 L
3.464 2 L
1.155 2 L
0 4 L
-1.155 2 L
-3.464 2 L
-2 0 L
cp
S
GR
GS
[0.75 0 0 0.75 328.125 347.79095] CT
0 0 1 RC
N
f1737057230
f
GR
GS
[0.75 0 0 0.75 328.125 347.79095] CT
0 0 1 RC
10.0 ML
N
-3.464 -2 M
-1.155 -2 L
0 -4 L
1.155 -2 L
3.464 -2 L
2 0 L
3.464 2 L
1.155 2 L
0 4 L
-1.155 2 L
-3.464 2 L
-2 0 L
cp
S
GR
GS
[0.75 0 0 0.75 351 341.58878] CT
0 0 1 RC
N
f1737057230
f
GR
GS
[0.75 0 0 0.75 351 341.58878] CT
0 0 1 RC
10.0 ML
N
-3.464 -2 M
-1.155 -2 L
0 -4 L
1.155 -2 L
3.464 -2 L
2 0 L
3.464 2 L
1.155 2 L
0 4 L
-1.155 2 L
-3.464 2 L
-2 0 L
cp
S
GR
GS
[0.75 0 0 0.75 373.875 448.15959] CT
0 0 1 RC
N
f1737057230
f
GR
GS
[0.75 0 0 0.75 373.875 448.15959] CT
0 0 1 RC
10.0 ML
N
-3.464 -2 M
-1.155 -2 L
0 -4 L
1.155 -2 L
3.464 -2 L
2 0 L
3.464 2 L
1.155 2 L
0 4 L
-1.155 2 L
-3.464 2 L
-2 0 L
cp
S
GR
GS
[0.75 0 0 0.75 396.75 363.11365] CT
0 0 1 RC
N
f1737057230
f
GR
GS
[0.75 0 0 0.75 396.75 363.11365] CT
0 0 1 RC
10.0 ML
N
-3.464 -2 M
-1.155 -2 L
0 -4 L
1.155 -2 L
3.464 -2 L
2 0 L
3.464 2 L
1.155 2 L
0 4 L
-1.155 2 L
-3.464 2 L
-2 0 L
cp
S
GR
GS
[0.75 0 0 0.75 419.625 358.67815] CT
0 0 1 RC
N
f1737057230
f
GR
GS
[0.75 0 0 0.75 419.625 358.67815] CT
0 0 1 RC
10.0 ML
N
-3.464 -2 M
-1.155 -2 L
0 -4 L
1.155 -2 L
3.464 -2 L
2 0 L
3.464 2 L
1.155 2 L
0 4 L
-1.155 2 L
-3.464 2 L
-2 0 L
cp
S
GR
GS
[0.75 0 0 0.75 442.5 357.12653] CT
0 0 1 RC
N
f1737057230
f
GR
GS
[0.75 0 0 0.75 442.5 357.12653] CT
0 0 1 RC
10.0 ML
N
-3.464 -2 M
-1.155 -2 L
0 -4 L
1.155 -2 L
3.464 -2 L
2 0 L
3.464 2 L
1.155 2 L
0 4 L
-1.155 2 L
-3.464 2 L
-2 0 L
cp
S
GR
GS
[0.75 0 0 0.75 465.375 356.3506] CT
0 0 1 RC
N
f1737057230
f
GR
GS
[0.75 0 0 0.75 465.375 356.3506] CT
0 0 1 RC
10.0 ML
N
-3.464 -2 M
-1.155 -2 L
0 -4 L
1.155 -2 L
3.464 -2 L
2 0 L
3.464 2 L
1.155 2 L
0 4 L
-1.155 2 L
-3.464 2 L
-2 0 L
cp
S
GR
GS
[0.75 0 0 0.75 488.25 355.89252] CT
0 0 1 RC
N
f1737057230
f
GR
GS
[0.75 0 0 0.75 488.25 355.89252] CT
0 0 1 RC
10.0 ML
N
-3.464 -2 M
-1.155 -2 L
0 -4 L
1.155 -2 L
3.464 -2 L
2 0 L
3.464 2 L
1.155 2 L
0 4 L
-1.155 2 L
-3.464 2 L
-2 0 L
cp
S
GR
GS
[0.75 0 0 0.75 76.5 354.5] CT
N
/f-1741330208{-3.804 -1.236 M
-0.94 -1.236 L
0 -4 L
0.94 -1.236 L
3.804 -1.236 L
1.522 0.494 L
2.351 3.236 L
0 1.6 L
-2.351 3.236 L
-1.522 0.494 L
cp}def
f-1741330208
f
GR
GS
[0.75 0 0 0.75 76.5 354.5] CT
10.0 ML
N
-3.804 -1.236 M
-0.94 -1.236 L
0 -4 L
0.94 -1.236 L
3.804 -1.236 L
1.522 0.494 L
2.351 3.236 L
0 1.6 L
-2.351 3.236 L
-1.522 0.494 L
cp
S
GR
GS
[0.75 0 0 0.75 99.375 354.89819] CT
N
f-1741330208
f
GR
GS
[0.75 0 0 0.75 99.375 354.89819] CT
10.0 ML
N
-3.804 -1.236 M
-0.94 -1.236 L
0 -4 L
0.94 -1.236 L
3.804 -1.236 L
1.522 0.494 L
2.351 3.236 L
0 1.6 L
-2.351 3.236 L
-1.522 0.494 L
cp
S
GR
GS
[0.75 0 0 0.75 122.25 351.6872] CT
N
f-1741330208
f
GR
GS
[0.75 0 0 0.75 122.25 351.6872] CT
10.0 ML
N
-3.804 -1.236 M
-0.94 -1.236 L
0 -4 L
0.94 -1.236 L
3.804 -1.236 L
1.522 0.494 L
2.351 3.236 L
0 1.6 L
-2.351 3.236 L
-1.522 0.494 L
cp
S
GR
GS
[0.75 0 0 0.75 145.125 350.56394] CT
N
f-1741330208
f
GR
GS
[0.75 0 0 0.75 145.125 350.56394] CT
10.0 ML
N
-3.804 -1.236 M
-0.94 -1.236 L
0 -4 L
0.94 -1.236 L
3.804 -1.236 L
1.522 0.494 L
2.351 3.236 L
0 1.6 L
-2.351 3.236 L
-1.522 0.494 L
cp
S
GR
GS
[0.75 0 0 0.75 168 350.31792] CT
N
f-1741330208
f
GR
GS
[0.75 0 0 0.75 168 350.31792] CT
10.0 ML
N
-3.804 -1.236 M
-0.94 -1.236 L
0 -4 L
0.94 -1.236 L
3.804 -1.236 L
1.522 0.494 L
2.351 3.236 L
0 1.6 L
-2.351 3.236 L
-1.522 0.494 L
cp
S
GR
GS
[0.75 0 0 0.75 190.875 350.2804] CT
N
f-1741330208
f
GR
GS
[0.75 0 0 0.75 190.875 350.2804] CT
10.0 ML
N
-3.804 -1.236 M
-0.94 -1.236 L
0 -4 L
0.94 -1.236 L
3.804 -1.236 L
1.522 0.494 L
2.351 3.236 L
0 1.6 L
-2.351 3.236 L
-1.522 0.494 L
cp
S
GR
GS
[0.75 0 0 0.75 213.75 350.2162] CT
N
f-1741330208
f
GR
GS
[0.75 0 0 0.75 213.75 350.2162] CT
10.0 ML
N
-3.804 -1.236 M
-0.94 -1.236 L
0 -4 L
0.94 -1.236 L
3.804 -1.236 L
1.522 0.494 L
2.351 3.236 L
0 1.6 L
-2.351 3.236 L
-1.522 0.494 L
cp
S
GR
GS
[0.75 0 0 0.75 236.625 350.01669] CT
N
f-1741330208
f
GR
GS
[0.75 0 0 0.75 236.625 350.01669] CT
10.0 ML
N
-3.804 -1.236 M
-0.94 -1.236 L
0 -4 L
0.94 -1.236 L
3.804 -1.236 L
1.522 0.494 L
2.351 3.236 L
0 1.6 L
-2.351 3.236 L
-1.522 0.494 L
cp
S
GR
GS
[0.75 0 0 0.75 259.5 349.56902] CT
N
f-1741330208
f
GR
GS
[0.75 0 0 0.75 259.5 349.56902] CT
10.0 ML
N
-3.804 -1.236 M
-0.94 -1.236 L
0 -4 L
0.94 -1.236 L
3.804 -1.236 L
1.522 0.494 L
2.351 3.236 L
0 1.6 L
-2.351 3.236 L
-1.522 0.494 L
cp
S
GR
GS
[0.75 0 0 0.75 282.375 348.6374] CT
N
f-1741330208
f
GR
GS
[0.75 0 0 0.75 282.375 348.6374] CT
10.0 ML
N
-3.804 -1.236 M
-0.94 -1.236 L
0 -4 L
0.94 -1.236 L
3.804 -1.236 L
1.522 0.494 L
2.351 3.236 L
0 1.6 L
-2.351 3.236 L
-1.522 0.494 L
cp
S
GR
GS
[0.75 0 0 0.75 305.25 346.48204] CT
N
f-1741330208
f
GR
GS
[0.75 0 0 0.75 305.25 346.48204] CT
10.0 ML
N
-3.804 -1.236 M
-0.94 -1.236 L
0 -4 L
0.94 -1.236 L
3.804 -1.236 L
1.522 0.494 L
2.351 3.236 L
0 1.6 L
-2.351 3.236 L
-1.522 0.494 L
cp
S
GR
GS
[0.75 0 0 0.75 328.125 338.8511] CT
N
f-1741330208
f
GR
GS
[0.75 0 0 0.75 328.125 338.8511] CT
10.0 ML
N
-3.804 -1.236 M
-0.94 -1.236 L
0 -4 L
0.94 -1.236 L
3.804 -1.236 L
1.522 0.494 L
2.351 3.236 L
0 1.6 L
-2.351 3.236 L
-1.522 0.494 L
cp
S
GR
GS
[0.75 0 0 0.75 351 431.6194] CT
N
f-1741330208
f
GR
GS
[0.75 0 0 0.75 351 431.6194] CT
10.0 ML
N
-3.804 -1.236 M
-0.94 -1.236 L
0 -4 L
0.94 -1.236 L
3.804 -1.236 L
1.522 0.494 L
2.351 3.236 L
0 1.6 L
-2.351 3.236 L
-1.522 0.494 L
cp
S
GR
GS
[0.75 0 0 0.75 373.875 363.8685] CT
N
f-1741330208
f
GR
GS
[0.75 0 0 0.75 373.875 363.8685] CT
10.0 ML
N
-3.804 -1.236 M
-0.94 -1.236 L
0 -4 L
0.94 -1.236 L
3.804 -1.236 L
1.522 0.494 L
2.351 3.236 L
0 1.6 L
-2.351 3.236 L
-1.522 0.494 L
cp
S
GR
GS
[0.75 0 0 0.75 396.75 359.08615] CT
N
f-1741330208
f
GR
GS
[0.75 0 0 0.75 396.75 359.08615] CT
10.0 ML
N
-3.804 -1.236 M
-0.94 -1.236 L
0 -4 L
0.94 -1.236 L
3.804 -1.236 L
1.522 0.494 L
2.351 3.236 L
0 1.6 L
-2.351 3.236 L
-1.522 0.494 L
cp
S
GR
GS
[0.75 0 0 0.75 419.625 357.37943] CT
N
f-1741330208
f
GR
GS
[0.75 0 0 0.75 419.625 357.37943] CT
10.0 ML
N
-3.804 -1.236 M
-0.94 -1.236 L
0 -4 L
0.94 -1.236 L
3.804 -1.236 L
1.522 0.494 L
2.351 3.236 L
0 1.6 L
-2.351 3.236 L
-1.522 0.494 L
cp
S
GR
GS
[0.75 0 0 0.75 442.5 356.52158] CT
N
f-1741330208
f
GR
GS
[0.75 0 0 0.75 442.5 356.52158] CT
10.0 ML
N
-3.804 -1.236 M
-0.94 -1.236 L
0 -4 L
0.94 -1.236 L
3.804 -1.236 L
1.522 0.494 L
2.351 3.236 L
0 1.6 L
-2.351 3.236 L
-1.522 0.494 L
cp
S
GR
GS
[0.75 0 0 0.75 465.375 356.01488] CT
N
f-1741330208
f
GR
GS
[0.75 0 0 0.75 465.375 356.01488] CT
10.0 ML
N
-3.804 -1.236 M
-0.94 -1.236 L
0 -4 L
0.94 -1.236 L
3.804 -1.236 L
1.522 0.494 L
2.351 3.236 L
0 1.6 L
-2.351 3.236 L
-1.522 0.494 L
cp
S
GR
GS
[0.75 0 0 0.75 488.25 355.68563] CT
N
f-1741330208
f
GR
GS
[0.75 0 0 0.75 488.25 355.68563] CT
10.0 ML
N
-3.804 -1.236 M
-0.94 -1.236 L
0 -4 L
0.94 -1.236 L
3.804 -1.236 L
1.522 0.494 L
2.351 3.236 L
0 1.6 L
-2.351 3.236 L
-1.522 0.494 L
cp
S
GR
GS
[0.75 0 0 0.75 76.5 354.5] CT
0 1 0 RC
N
/f227889816{-3 -3 M
-3 3 L
3 3 L
3 -3 L
cp}def
f227889816
f
GR
GS
[0.75 0 0 0.75 76.5 354.5] CT
0 1 0 RC
10.0 ML
N
-3 -3 M
-3 3 L
3 3 L
3 -3 L
cp
S
GR
GS
[0.75 0 0 0.75 99.375 354.17428] CT
0 1 0 RC
N
f227889816
f
GR
GS
[0.75 0 0 0.75 99.375 354.17428] CT
0 1 0 RC
10.0 ML
N
-3 -3 M
-3 3 L
3 3 L
3 -3 L
cp
S
GR
GS
[0.75 0 0 0.75 122.25 350.31808] CT
0 1 0 RC
N
f227889816
f
GR
GS
[0.75 0 0 0.75 122.25 350.31808] CT
0 1 0 RC
10.0 ML
N
-3 -3 M
-3 3 L
3 3 L
3 -3 L
cp
S
GR
GS
[0.75 0 0 0.75 145.125 348.66006] CT
0 1 0 RC
N
f227889816
f
GR
GS
[0.75 0 0 0.75 145.125 348.66006] CT
0 1 0 RC
10.0 ML
N
-3 -3 M
-3 3 L
3 3 L
3 -3 L
cp
S
GR
GS
[0.75 0 0 0.75 168 348.38391] CT
0 1 0 RC
N
f227889816
f
GR
GS
[0.75 0 0 0.75 168 348.38391] CT
0 1 0 RC
10.0 ML
N
-3 -3 M
-3 3 L
3 3 L
3 -3 L
cp
S
GR
GS
[0.75 0 0 0.75 190.875 348.39021] CT
0 1 0 RC
N
f227889816
f
GR
GS
[0.75 0 0 0.75 190.875 348.39021] CT
0 1 0 RC
10.0 ML
N
-3 -3 M
-3 3 L
3 3 L
3 -3 L
cp
S
GR
GS
[0.75 0 0 0.75 213.75 348.25624] CT
0 1 0 RC
N
f227889816
f
GR
GS
[0.75 0 0 0.75 213.75 348.25624] CT
0 1 0 RC
10.0 ML
N
-3 -3 M
-3 3 L
3 3 L
3 -3 L
cp
S
GR
GS
[0.75 0 0 0.75 236.625 347.75735] CT
0 1 0 RC
N
f227889816
f
GR
GS
[0.75 0 0 0.75 236.625 347.75735] CT
0 1 0 RC
10.0 ML
N
-3 -3 M
-3 3 L
3 3 L
3 -3 L
cp
S
GR
GS
[0.75 0 0 0.75 259.5 346.52866] CT
0 1 0 RC
N
f227889816
f
GR
GS
[0.75 0 0 0.75 259.5 346.52866] CT
0 1 0 RC
10.0 ML
N
-3 -3 M
-3 3 L
3 3 L
3 -3 L
cp
S
GR
GS
[0.75 0 0 0.75 282.375 343.35151] CT
0 1 0 RC
N
f227889816
f
GR
GS
[0.75 0 0 0.75 282.375 343.35151] CT
0 1 0 RC
10.0 ML
N
-3 -3 M
-3 3 L
3 3 L
3 -3 L
cp
S
GR
GS
[0.75 0 0 0.75 305.25 329.2477] CT
0 1 0 RC
N
f227889816
f
GR
GS
[0.75 0 0 0.75 305.25 329.2477] CT
0 1 0 RC
10.0 ML
N
-3 -3 M
-3 3 L
3 3 L
3 -3 L
cp
S
GR
GS
[0.75 0 0 0.75 328.125 392.95714] CT
0 1 0 RC
N
f227889816
f
GR
GS
[0.75 0 0 0.75 328.125 392.95714] CT
0 1 0 RC
10.0 ML
N
-3 -3 M
-3 3 L
3 3 L
3 -3 L
cp
S
GR
GS
[0.75 0 0 0.75 351 363.75731] CT
0 1 0 RC
N
f227889816
f
GR
GS
[0.75 0 0 0.75 351 363.75731] CT
0 1 0 RC
10.0 ML
N
-3 -3 M
-3 3 L
3 3 L
3 -3 L
cp
S
GR
GS
[0.75 0 0 0.75 373.875 359.32764] CT
0 1 0 RC
N
f227889816
f
GR
GS
[0.75 0 0 0.75 373.875 359.32764] CT
0 1 0 RC
10.0 ML
N
-3 -3 M
-3 3 L
3 3 L
3 -3 L
cp
S
GR
GS
[0.75 0 0 0.75 396.75 357.58819] CT
0 1 0 RC
N
f227889816
f
GR
GS
[0.75 0 0 0.75 396.75 357.58819] CT
0 1 0 RC
10.0 ML
N
-3 -3 M
-3 3 L
3 3 L
3 -3 L
cp
S
GR
GS
[0.75 0 0 0.75 419.625 356.68204] CT
0 1 0 RC
N
f227889816
f
GR
GS
[0.75 0 0 0.75 419.625 356.68204] CT
0 1 0 RC
10.0 ML
N
-3 -3 M
-3 3 L
3 3 L
3 -3 L
cp
S
GR
GS
[0.75 0 0 0.75 442.5 356.13779] CT
0 1 0 RC
N
f227889816
f
GR
GS
[0.75 0 0 0.75 442.5 356.13779] CT
0 1 0 RC
10.0 ML
N
-3 -3 M
-3 3 L
3 3 L
3 -3 L
cp
S
GR
GS
[0.75 0 0 0.75 465.375 355.78119] CT
0 1 0 RC
N
f227889816
f
GR
GS
[0.75 0 0 0.75 465.375 355.78119] CT
0 1 0 RC
10.0 ML
N
-3 -3 M
-3 3 L
3 3 L
3 -3 L
cp
S
GR
GS
[0.75 0 0 0.75 488.25 355.53336] CT
0 1 0 RC
N
f227889816
f
GR
GS
[0.75 0 0 0.75 488.25 355.53336] CT
0 1 0 RC
10.0 ML
N
-3 -3 M
-3 3 L
3 3 L
3 -3 L
cp
S
GR
GS
[0.75 0 0 0.75 76.5 354.5] CT
1 0 1 RC
N
/f1022997606{0 5.332 M
-4.618 -2.666 L
4.618 -2.666 L
cp}def
f1022997606
f
GR
GS
[0.75 0 0 0.75 76.5 354.5] CT
1 0 1 RC
10.0 ML
N
0 5.332 M
-4.618 -2.666 L
4.618 -2.666 L
cp
S
GR
GS
[0.75 0 0 0.75 99.375 353.47099] CT
1 0 1 RC
N
f1022997606
f
GR
GS
[0.75 0 0 0.75 99.375 353.47099] CT
1 0 1 RC
10.0 ML
N
0 5.332 M
-4.618 -2.666 L
4.618 -2.666 L
cp
S
GR
GS
[0.75 0 0 0.75 122.25 346.61893] CT
1 0 1 RC
N
f1022997606
f
GR
GS
[0.75 0 0 0.75 122.25 346.61893] CT
1 0 1 RC
10.0 ML
N
0 5.332 M
-4.618 -2.666 L
4.618 -2.666 L
cp
S
GR
GS
[0.75 0 0 0.75 145.125 342.30877] CT
1 0 1 RC
N
f1022997606
f
GR
GS
[0.75 0 0 0.75 145.125 342.30877] CT
1 0 1 RC
10.0 ML
N
0 5.332 M
-4.618 -2.666 L
4.618 -2.666 L
cp
S
GR
GS
[0.75 0 0 0.75 168 342.19843] CT
1 0 1 RC
N
f1022997606
f
GR
GS
[0.75 0 0 0.75 168 342.19843] CT
1 0 1 RC
10.0 ML
N
0 5.332 M
-4.618 -2.666 L
4.618 -2.666 L
cp
S
GR
GS
[0.75 0 0 0.75 190.875 342.62012] CT
1 0 1 RC
N
f1022997606
f
GR
GS
[0.75 0 0 0.75 190.875 342.62012] CT
1 0 1 RC
10.0 ML
N
0 5.332 M
-4.618 -2.666 L
4.618 -2.666 L
cp
S
GR
GS
[0.75 0 0 0.75 213.75 342.15764] CT
1 0 1 RC
N
f1022997606
f
GR
GS
[0.75 0 0 0.75 213.75 342.15764] CT
1 0 1 RC
10.0 ML
N
0 5.332 M
-4.618 -2.666 L
4.618 -2.666 L
cp
S
GR
GS
[0.75 0 0 0.75 236.625 339.77157] CT
1 0 1 RC
N
f1022997606
f
GR
GS
[0.75 0 0 0.75 236.625 339.77157] CT
1 0 1 RC
10.0 ML
N
0 5.332 M
-4.618 -2.666 L
4.618 -2.666 L
cp
S
GR
GS
[0.75 0 0 0.75 259.5 331.00336] CT
1 0 1 RC
N
f1022997606
f
GR
GS
[0.75 0 0 0.75 259.5 331.00336] CT
1 0 1 RC
10.0 ML
N
0 5.332 M
-4.618 -2.666 L
4.618 -2.666 L
cp
S
GR
GS
[0.75 0 0 0.75 282.375 65.71229] CT
1 0 1 RC
N
f1022997606
f
GR
GS
[0.75 0 0 0.75 282.375 65.71229] CT
1 0 1 RC
10.0 ML
N
0 5.332 M
-4.618 -2.666 L
4.618 -2.666 L
cp
S
GR
GS
[0.75 0 0 0.75 305.25 374.2775] CT
1 0 1 RC
N
f1022997606
f
GR
GS
[0.75 0 0 0.75 305.25 374.2775] CT
1 0 1 RC
10.0 ML
N
0 5.332 M
-4.618 -2.666 L
4.618 -2.666 L
cp
S
GR
GS
[0.75 0 0 0.75 328.125 362.8047] CT
1 0 1 RC
N
f1022997606
f
GR
GS
[0.75 0 0 0.75 328.125 362.8047] CT
1 0 1 RC
10.0 ML
N
0 5.332 M
-4.618 -2.666 L
4.618 -2.666 L
cp
S
GR
GS
[0.75 0 0 0.75 351 359.33659] CT
1 0 1 RC
N
f1022997606
f
GR
GS
[0.75 0 0 0.75 351 359.33659] CT
1 0 1 RC
10.0 ML
N
0 5.332 M
-4.618 -2.666 L
4.618 -2.666 L
cp
S
GR
GS
[0.75 0 0 0.75 373.875 357.72538] CT
1 0 1 RC
N
f1022997606
f
GR
GS
[0.75 0 0 0.75 373.875 357.72538] CT
1 0 1 RC
10.0 ML
N
0 5.332 M
-4.618 -2.666 L
4.618 -2.666 L
cp
S
GR
GS
[0.75 0 0 0.75 396.75 356.82281] CT
1 0 1 RC
N
f1022997606
f
GR
GS
[0.75 0 0 0.75 396.75 356.82281] CT
1 0 1 RC
10.0 ML
N
0 5.332 M
-4.618 -2.666 L
4.618 -2.666 L
cp
S
GR
GS
[0.75 0 0 0.75 419.625 356.25992] CT
1 0 1 RC
N
f1022997606
f
GR
GS
[0.75 0 0 0.75 419.625 356.25992] CT
1 0 1 RC
10.0 ML
N
0 5.332 M
-4.618 -2.666 L
4.618 -2.666 L
cp
S
GR
GS
[0.75 0 0 0.75 442.5 355.8832] CT
1 0 1 RC
N
f1022997606
f
GR
GS
[0.75 0 0 0.75 442.5 355.8832] CT
1 0 1 RC
10.0 ML
N
0 5.332 M
-4.618 -2.666 L
4.618 -2.666 L
cp
S
GR
GS
[0.75 0 0 0.75 465.375 355.61802] CT
1 0 1 RC
N
f1022997606
f
GR
GS
[0.75 0 0 0.75 465.375 355.61802] CT
1 0 1 RC
10.0 ML
N
0 5.332 M
-4.618 -2.666 L
4.618 -2.666 L
cp
S
GR
GS
[0.75 0 0 0.75 488.25 355.42413] CT
1 0 1 RC
N
f1022997606
f
GR
GS
[0.75 0 0 0.75 488.25 355.42413] CT
1 0 1 RC
10.0 ML
N
0 5.332 M
-4.618 -2.666 L
4.618 -2.666 L
cp
S
GR
GS
[0.75 0 0 0.75 76.5 354.5] CT
1 0 0 RC
N
/f860094634{0 -4 M
0 4 L
-4 0 M
4 0 L}def
f860094634
f
GR
GS
[0.75 0 0 0.75 76.5 354.5] CT
1 0 0 RC
10.0 ML
N
0 -4 M
0 4 L
-4 0 M
4 0 L
S
GR
GS
[0.75 0 0 0.75 99.375 352.56723] CT
1 0 0 RC
N
f860094634
f
GR
GS
[0.75 0 0 0.75 99.375 352.56723] CT
1 0 0 RC
10.0 ML
N
0 -4 M
0 4 L
-4 0 M
4 0 L
S
GR
GS
[0.75 0 0 0.75 122.25 167.19885] CT
1 0 0 RC
N
f860094634
f
GR
GS
[0.75 0 0 0.75 122.25 167.19885] CT
1 0 0 RC
10.0 ML
N
0 -4 M
0 4 L
-4 0 M
4 0 L
S
GR
GS
[0.75 0 0 0.75 145.125 405.11058] CT
1 0 0 RC
N
f860094634
f
GR
GS
[0.75 0 0 0.75 145.125 405.11058] CT
1 0 0 RC
10.0 ML
N
0 -4 M
0 4 L
-4 0 M
4 0 L
S
GR
GS
[0.75 0 0 0.75 168 441.15668] CT
1 0 0 RC
N
f860094634
f
GR
GS
[0.75 0 0 0.75 168 441.15668] CT
1 0 0 RC
10.0 ML
N
0 -4 M
0 4 L
-4 0 M
4 0 L
S
GR
GS
[0.75 0 0 0.75 190.875 589.62106] CT
1 0 0 RC
N
f860094634
f
GR
GS
[0.75 0 0 0.75 190.875 589.62106] CT
1 0 0 RC
10.0 ML
N
0 -4 M
0 4 L
-4 0 M
4 0 L
S
GR
GS
[0.75 0 0 0.75 213.75 525.3499] CT
1 0 0 RC
N
f860094634
f
GR
GS
[0.75 0 0 0.75 213.75 525.3499] CT
1 0 0 RC
10.0 ML
N
0 -4 M
0 4 L
-4 0 M
4 0 L
S
GR
GS
[0.75 0 0 0.75 236.625 406.2765] CT
1 0 0 RC
N
f860094634
f
GR
GS
[0.75 0 0 0.75 236.625 406.2765] CT
1 0 0 RC
10.0 ML
N
0 -4 M
0 4 L
-4 0 M
4 0 L
S
GR
GS
[0.75 0 0 0.75 259.5 376.14902] CT
1 0 0 RC
N
f860094634
f
GR
GS
[0.75 0 0 0.75 259.5 376.14902] CT
1 0 0 RC
10.0 ML
N
0 -4 M
0 4 L
-4 0 M
4 0 L
S
GR
GS
[0.75 0 0 0.75 282.375 365.92942] CT
1 0 0 RC
N
f860094634
f
GR
GS
[0.75 0 0 0.75 282.375 365.92942] CT
1 0 0 RC
10.0 ML
N
0 -4 M
0 4 L
-4 0 M
4 0 L
S
GR
GS
[0.75 0 0 0.75 305.25 361.44766] CT
1 0 0 RC
N
f860094634
f
GR
GS
[0.75 0 0 0.75 305.25 361.44766] CT
1 0 0 RC
10.0 ML
N
0 -4 M
0 4 L
-4 0 M
4 0 L
S
GR
GS
[0.75 0 0 0.75 328.125 359.12936] CT
1 0 0 RC
N
f860094634
f
GR
GS
[0.75 0 0 0.75 328.125 359.12936] CT
1 0 0 RC
10.0 ML
N
0 -4 M
0 4 L
-4 0 M
4 0 L
S
GR
GS
[0.75 0 0 0.75 351 357.78894] CT
1 0 0 RC
N
f860094634
f
GR
GS
[0.75 0 0 0.75 351 357.78894] CT
1 0 0 RC
10.0 ML
N
0 -4 M
0 4 L
-4 0 M
4 0 L
S
GR
GS
[0.75 0 0 0.75 373.875 356.94988] CT
1 0 0 RC
N
f860094634
f
GR
GS
[0.75 0 0 0.75 373.875 356.94988] CT
1 0 0 RC
10.0 ML
N
0 -4 M
0 4 L
-4 0 M
4 0 L
S
GR
GS
[0.75 0 0 0.75 396.75 356.39258] CT
1 0 0 RC
N
f860094634
f
GR
GS
[0.75 0 0 0.75 396.75 356.39258] CT
1 0 0 RC
10.0 ML
N
0 -4 M
0 4 L
-4 0 M
4 0 L
S
GR
GS
[0.75 0 0 0.75 419.625 356.00501] CT
1 0 0 RC
N
f860094634
f
GR
GS
[0.75 0 0 0.75 419.625 356.00501] CT
1 0 0 RC
10.0 ML
N
0 -4 M
0 4 L
-4 0 M
4 0 L
S
GR
GS
[0.75 0 0 0.75 442.5 355.72548] CT
1 0 0 RC
N
f860094634
f
GR
GS
[0.75 0 0 0.75 442.5 355.72548] CT
1 0 0 RC
10.0 ML
N
0 -4 M
0 4 L
-4 0 M
4 0 L
S
GR
GS
[0.75 0 0 0.75 465.375 355.51775] CT
1 0 0 RC
N
f860094634
f
GR
GS
[0.75 0 0 0.75 465.375 355.51775] CT
1 0 0 RC
10.0 ML
N
0 -4 M
0 4 L
-4 0 M
4 0 L
S
GR
GS
[0.75 0 0 0.75 488.25 355.35954] CT
1 0 0 RC
N
f860094634
f
GR
GS
[0.75 0 0 0.75 488.25 355.35954] CT
1 0 0 RC
10.0 ML
N
0 -4 M
0 4 L
-4 0 M
4 0 L
S
GR
GS
[0.75 0 0 0.75 76.5 354.5] CT
0 0 1 RC
N
/f1719669614{-2.828 -2.828 M
2.828 2.828 L
-2.828 2.828 M
2.828 -2.828 L}def
f1719669614
f
GR
GS
[0.75 0 0 0.75 76.5 354.5] CT
0 0 1 RC
10.0 ML
N
-2.828 -2.828 M
2.828 2.828 L
-2.828 2.828 M
2.828 -2.828 L
S
GR
GS
[0.75 0 0 0.75 99.375 350.87163] CT
0 0 1 RC
N
f1719669614
f
GR
GS
[0.75 0 0 0.75 99.375 350.87163] CT
0 0 1 RC
10.0 ML
N
-2.828 -2.828 M
2.828 2.828 L
-2.828 2.828 M
2.828 -2.828 L
S
GR
GS
[0.75 0 0 0.75 122.25 361.33743] CT
0 0 1 RC
N
f1719669614
f
GR
GS
[0.75 0 0 0.75 122.25 361.33743] CT
0 0 1 RC
10.0 ML
N
-2.828 -2.828 M
2.828 2.828 L
-2.828 2.828 M
2.828 -2.828 L
S
GR
GS
[0.75 0 0 0.75 145.125 361.44869] CT
0 0 1 RC
N
f1719669614
f
GR
GS
[0.75 0 0 0.75 145.125 361.44869] CT
0 0 1 RC
10.0 ML
N
-2.828 -2.828 M
2.828 2.828 L
-2.828 2.828 M
2.828 -2.828 L
S
GR
GS
[0.75 0 0 0.75 168 362.88593] CT
0 0 1 RC
N
f1719669614
f
GR
GS
[0.75 0 0 0.75 168 362.88593] CT
0 0 1 RC
10.0 ML
N
-2.828 -2.828 M
2.828 2.828 L
-2.828 2.828 M
2.828 -2.828 L
S
GR
GS
[0.75 0 0 0.75 190.875 364.24249] CT
0 0 1 RC
N
f1719669614
f
GR
GS
[0.75 0 0 0.75 190.875 364.24249] CT
0 0 1 RC
10.0 ML
N
-2.828 -2.828 M
2.828 2.828 L
-2.828 2.828 M
2.828 -2.828 L
S
GR
GS
[0.75 0 0 0.75 213.75 364.58362] CT
0 0 1 RC
N
f1719669614
f
GR
GS
[0.75 0 0 0.75 213.75 364.58362] CT
0 0 1 RC
10.0 ML
N
-2.828 -2.828 M
2.828 2.828 L
-2.828 2.828 M
2.828 -2.828 L
S
GR
GS
[0.75 0 0 0.75 236.625 363.60414] CT
0 0 1 RC
N
f1719669614
f
GR
GS
[0.75 0 0 0.75 236.625 363.60414] CT
0 0 1 RC
10.0 ML
N
-2.828 -2.828 M
2.828 2.828 L
-2.828 2.828 M
2.828 -2.828 L
S
GR
GS
[0.75 0 0 0.75 259.5 361.91655] CT
0 0 1 RC
N
f1719669614
f
GR
GS
[0.75 0 0 0.75 259.5 361.91655] CT
0 0 1 RC
10.0 ML
N
-2.828 -2.828 M
2.828 2.828 L
-2.828 2.828 M
2.828 -2.828 L
S
GR
GS
[0.75 0 0 0.75 282.375 360.24216] CT
0 0 1 RC
N
f1719669614
f
GR
GS
[0.75 0 0 0.75 282.375 360.24216] CT
0 0 1 RC
10.0 ML
N
-2.828 -2.828 M
2.828 2.828 L
-2.828 2.828 M
2.828 -2.828 L
S
GR
GS
[0.75 0 0 0.75 305.25 358.89117] CT
0 0 1 RC
N
f1719669614
f
GR
GS
[0.75 0 0 0.75 305.25 358.89117] CT
0 0 1 RC
10.0 ML
N
-2.828 -2.828 M
2.828 2.828 L
-2.828 2.828 M
2.828 -2.828 L
S
GR
GS
[0.75 0 0 0.75 328.125 357.8845] CT
0 0 1 RC
N
f1719669614
f
GR
GS
[0.75 0 0 0.75 328.125 357.8845] CT
0 0 1 RC
10.0 ML
N
-2.828 -2.828 M
2.828 2.828 L
-2.828 2.828 M
2.828 -2.828 L
S
GR
GS
[0.75 0 0 0.75 351 357.15128] CT
0 0 1 RC
N
f1719669614
f
GR
GS
[0.75 0 0 0.75 351 357.15128] CT
0 0 1 RC
10.0 ML
N
-2.828 -2.828 M
2.828 2.828 L
-2.828 2.828 M
2.828 -2.828 L
S
GR
GS
[0.75 0 0 0.75 373.875 356.61588] CT
0 0 1 RC
N
f1719669614
f
GR
GS
[0.75 0 0 0.75 373.875 356.61588] CT
0 0 1 RC
10.0 ML
N
-2.828 -2.828 M
2.828 2.828 L
-2.828 2.828 M
2.828 -2.828 L
S
GR
GS
[0.75 0 0 0.75 396.75 356.21991] CT
0 0 1 RC
N
f1719669614
f
GR
GS
[0.75 0 0 0.75 396.75 356.21991] CT
0 0 1 RC
10.0 ML
N
-2.828 -2.828 M
2.828 2.828 L
-2.828 2.828 M
2.828 -2.828 L
S
GR
GS
[0.75 0 0 0.75 419.625 355.92213] CT
0 0 1 RC
N
f1719669614
f
GR
GS
[0.75 0 0 0.75 419.625 355.92213] CT
0 0 1 RC
10.0 ML
N
-2.828 -2.828 M
2.828 2.828 L
-2.828 2.828 M
2.828 -2.828 L
S
GR
GS
[0.75 0 0 0.75 442.5 355.69435] CT
0 0 1 RC
N
f1719669614
f
GR
GS
[0.75 0 0 0.75 442.5 355.69435] CT
0 0 1 RC
10.0 ML
N
-2.828 -2.828 M
2.828 2.828 L
-2.828 2.828 M
2.828 -2.828 L
S
GR
GS
[0.75 0 0 0.75 465.375 355.51717] CT
0 0 1 RC
N
f1719669614
f
GR
GS
[0.75 0 0 0.75 465.375 355.51717] CT
0 0 1 RC
10.0 ML
N
-2.828 -2.828 M
2.828 2.828 L
-2.828 2.828 M
2.828 -2.828 L
S
GR
GS
[0.75 0 0 0.75 488.25 355.37724] CT
0 0 1 RC
N
f1719669614
f
GR
GS
[0.75 0 0 0.75 488.25 355.37724] CT
0 0 1 RC
10.0 ML
N
-2.828 -2.828 M
2.828 2.828 L
-2.828 2.828 M
2.828 -2.828 L
S
GR
GS
[0.75 0 0 0.75 76.5 354.5] CT
N
f351177404
f
GR
GS
[0.75 0 0 0.75 76.5 354.5] CT
10.0 ML
N
4 0 M
4 -2.209 2.209 -4 0 -4 C
-2.209 -4 -4 -2.209 -4 0 C
-4 2.209 -2.209 4 0 4 C
2.209 4 4 2.209 4 0 C
cp
S
GR
GS
[0.75 0 0 0.75 99.375 334.85088] CT
N
f351177404
f
GR
GS
[0.75 0 0 0.75 99.375 334.85088] CT
10.0 ML
N
4 0 M
4 -2.209 2.209 -4 0 -4 C
-2.209 -4 -4 -2.209 -4 0 C
-4 2.209 -2.209 4 0 4 C
2.209 4 4 2.209 4 0 C
cp
S
GR
GS
[0.75 0 0 0.75 122.25 357.99475] CT
N
f351177404
f
GR
GS
[0.75 0 0 0.75 122.25 357.99475] CT
10.0 ML
N
4 0 M
4 -2.209 2.209 -4 0 -4 C
-2.209 -4 -4 -2.209 -4 0 C
-4 2.209 -2.209 4 0 4 C
2.209 4 4 2.209 4 0 C
cp
S
GR
GS
[0.75 0 0 0.75 145.125 359.07816] CT
N
f351177404
f
GR
GS
[0.75 0 0 0.75 145.125 359.07816] CT
10.0 ML
N
4 0 M
4 -2.209 2.209 -4 0 -4 C
-2.209 -4 -4 -2.209 -4 0 C
-4 2.209 -2.209 4 0 4 C
2.209 4 4 2.209 4 0 C
cp
S
GR
GS
[0.75 0 0 0.75 168 360.47581] CT
N
f351177404
f
GR
GS
[0.75 0 0 0.75 168 360.47581] CT
10.0 ML
N
4 0 M
4 -2.209 2.209 -4 0 -4 C
-2.209 -4 -4 -2.209 -4 0 C
-4 2.209 -2.209 4 0 4 C
2.209 4 4 2.209 4 0 C
cp
S
GR
GS
[0.75 0 0 0.75 190.875 361.7448] CT
N
f351177404
f
GR
GS
[0.75 0 0 0.75 190.875 361.7448] CT
10.0 ML
N
4 0 M
4 -2.209 2.209 -4 0 -4 C
-2.209 -4 -4 -2.209 -4 0 C
-4 2.209 -2.209 4 0 4 C
2.209 4 4 2.209 4 0 C
cp
S
GR
GS
[0.75 0 0 0.75 213.75 362.50517] CT
N
f351177404
f
GR
GS
[0.75 0 0 0.75 213.75 362.50517] CT
10.0 ML
N
4 0 M
4 -2.209 2.209 -4 0 -4 C
-2.209 -4 -4 -2.209 -4 0 C
-4 2.209 -2.209 4 0 4 C
2.209 4 4 2.209 4 0 C
cp
S
GR
GS
[0.75 0 0 0.75 236.625 362.55534] CT
N
f351177404
f
GR
GS
[0.75 0 0 0.75 236.625 362.55534] CT
10.0 ML
N
4 0 M
4 -2.209 2.209 -4 0 -4 C
-2.209 -4 -4 -2.209 -4 0 C
-4 2.209 -2.209 4 0 4 C
2.209 4 4 2.209 4 0 C
cp
S
GR
GS
[0.75 0 0 0.75 259.5 361.99904] CT
N
f351177404
f
GR
GS
[0.75 0 0 0.75 259.5 361.99904] CT
10.0 ML
N
4 0 M
4 -2.209 2.209 -4 0 -4 C
-2.209 -4 -4 -2.209 -4 0 C
-4 2.209 -2.209 4 0 4 C
2.209 4 4 2.209 4 0 C
cp
S
GR
GS
[0.75 0 0 0.75 282.375 361.11839] CT
N
f351177404
f
GR
GS
[0.75 0 0 0.75 282.375 361.11839] CT
10.0 ML
N
4 0 M
4 -2.209 2.209 -4 0 -4 C
-2.209 -4 -4 -2.209 -4 0 C
-4 2.209 -2.209 4 0 4 C
2.209 4 4 2.209 4 0 C
cp
S
GR
GS
[0.75 0 0 0.75 305.25 360.16837] CT
N
f351177404
f
GR
GS
[0.75 0 0 0.75 305.25 360.16837] CT
10.0 ML
N
4 0 M
4 -2.209 2.209 -4 0 -4 C
-2.209 -4 -4 -2.209 -4 0 C
-4 2.209 -2.209 4 0 4 C
2.209 4 4 2.209 4 0 C
cp
S
GR
GS
[0.75 0 0 0.75 328.125 359.29288] CT
N
f351177404
f
GR
GS
[0.75 0 0 0.75 328.125 359.29288] CT
10.0 ML
N
4 0 M
4 -2.209 2.209 -4 0 -4 C
-2.209 -4 -4 -2.209 -4 0 C
-4 2.209 -2.209 4 0 4 C
2.209 4 4 2.209 4 0 C
cp
S
GR
GS
[0.75 0 0 0.75 351 358.54455] CT
N
f351177404
f
GR
GS
[0.75 0 0 0.75 351 358.54455] CT
10.0 ML
N
4 0 M
4 -2.209 2.209 -4 0 -4 C
-2.209 -4 -4 -2.209 -4 0 C
-4 2.209 -2.209 4 0 4 C
2.209 4 4 2.209 4 0 C
cp
S
GR
GS
[0.75 0 0 0.75 373.875 357.92719] CT
N
f351177404
f
GR
GS
[0.75 0 0 0.75 373.875 357.92719] CT
10.0 ML
N
4 0 M
4 -2.209 2.209 -4 0 -4 C
-2.209 -4 -4 -2.209 -4 0 C
-4 2.209 -2.209 4 0 4 C
2.209 4 4 2.209 4 0 C
cp
S
GR
GS
[0.75 0 0 0.75 396.75 357.42527] CT
N
f351177404
f
GR
GS
[0.75 0 0 0.75 396.75 357.42527] CT
10.0 ML
N
4 0 M
4 -2.209 2.209 -4 0 -4 C
-2.209 -4 -4 -2.209 -4 0 C
-4 2.209 -2.209 4 0 4 C
2.209 4 4 2.209 4 0 C
cp
S
GR
GS
[0.75 0 0 0.75 419.625 357.01855] CT
N
f351177404
f
GR
GS
[0.75 0 0 0.75 419.625 357.01855] CT
10.0 ML
N
4 0 M
4 -2.209 2.209 -4 0 -4 C
-2.209 -4 -4 -2.209 -4 0 C
-4 2.209 -2.209 4 0 4 C
2.209 4 4 2.209 4 0 C
cp
S
GR
GS
[0.75 0 0 0.75 442.5 356.68818] CT
N
f351177404
f
GR
GS
[0.75 0 0 0.75 442.5 356.68818] CT
10.0 ML
N
4 0 M
4 -2.209 2.209 -4 0 -4 C
-2.209 -4 -4 -2.209 -4 0 C
-4 2.209 -2.209 4 0 4 C
2.209 4 4 2.209 4 0 C
cp
S
GR
GS
[0.75 0 0 0.75 465.375 356.41833] CT
N
f351177404
f
GR
GS
[0.75 0 0 0.75 465.375 356.41833] CT
10.0 ML
N
4 0 M
4 -2.209 2.209 -4 0 -4 C
-2.209 -4 -4 -2.209 -4 0 C
-4 2.209 -2.209 4 0 4 C
2.209 4 4 2.209 4 0 C
cp
S
GR
GS
[0.75 0 0 0.75 488.25 356.19633] CT
N
f351177404
f
GR
GS
[0.75 0 0 0.75 488.25 356.19633] CT
10.0 ML
N
4 0 M
4 -2.209 2.209 -4 0 -4 C
-2.209 -4 -4 -2.209 -4 0 C
-4 2.209 -2.209 4 0 4 C
2.209 4 4 2.209 4 0 C
cp
S
GR
GS
[0.75 0 0 0.75 0 0.5] CT
1 GC
N
/f1818449142{657 291 M
657 100 L
565 100 L
565 291 L
cp}def
f1818449142
f
GR
GS
[0.75 0 0 0.75 459 85.59856] CT
/Helvetica 19.2 F
GS
[1 0 0 1 0 0] CT
0 6.5 moveto 
1 -1 scale
(n=7) t 
GR
GR
GS
[0.75 0 0 0.75 441.75 85.59856] CT
1 0 0 RC
N
f351177404
f
GR
GS
[0.75 0 0 0.75 441.75 85.59856] CT
1 0 0 RC
10.0 ML
N
4 0 M
4 -2.209 2.209 -4 0 -4 C
-2.209 -4 -4 -2.209 -4 0 C
-4 2.209 -2.209 4 0 4 C
2.209 4 4 2.209 4 0 C
cp
S
GR
GS
[0.75 0 0 0.75 459 103.17755] CT
/Helvetica 19.2 F
GS
[1 0 0 1 0 0] CT
0 6.5 moveto 
1 -1 scale
(6) t 
GR
GR
GS
[0.75 0 0 0.75 441.75 103.17755] CT
0 0 1 RC
N
f1737057230
f
GR
GS
[0.75 0 0 0.75 441.75 103.17755] CT
0 0 1 RC
10.0 ML
N
-3.464 -2 M
-1.155 -2 L
0 -4 L
1.155 -2 L
3.464 -2 L
2 0 L
3.464 2 L
1.155 2 L
0 4 L
-1.155 2 L
-3.464 2 L
-2 0 L
cp
S
GR
GS
[0.75 0 0 0.75 459 120.75653] CT
/Helvetica 19.2 F
GS
[1 0 0 1 0 0] CT
0 6.5 moveto 
1 -1 scale
(5) t 
GR
GR
GS
[0.75 0 0 0.75 441.75 120.75653] CT
N
f-1741330208
f
GR
GS
[0.75 0 0 0.75 441.75 120.75653] CT
10.0 ML
N
-3.804 -1.236 M
-0.94 -1.236 L
0 -4 L
0.94 -1.236 L
3.804 -1.236 L
1.522 0.494 L
2.351 3.236 L
0 1.6 L
-2.351 3.236 L
-1.522 0.494 L
cp
S
GR
GS
[0.75 0 0 0.75 459 138.33551] CT
/Helvetica 19.2 F
GS
[1 0 0 1 0 0] CT
0 6.5 moveto 
1 -1 scale
(4) t 
GR
GR
GS
[0.75 0 0 0.75 441.75 138.33551] CT
0 1 0 RC
N
f227889816
f
GR
GS
[0.75 0 0 0.75 441.75 138.33551] CT
0 1 0 RC
10.0 ML
N
-3 -3 M
-3 3 L
3 3 L
3 -3 L
cp
S
GR
GS
[0.75 0 0 0.75 459 155.91449] CT
/Helvetica 19.2 F
GS
[1 0 0 1 0 0] CT
0 6.5 moveto 
1 -1 scale
(3) t 
GR
GR
GS
[0.75 0 0 0.75 441.75 155.91449] CT
1 0 1 RC
N
f1022997606
f
GR
GS
[0.75 0 0 0.75 441.75 155.91449] CT
1 0 1 RC
10.0 ML
N
0 5.332 M
-4.618 -2.666 L
4.618 -2.666 L
cp
S
GR
GS
[0.75 0 0 0.75 459 173.49347] CT
/Helvetica 19.2 F
GS
[1 0 0 1 0 0] CT
0 6.5 moveto 
1 -1 scale
(2) t 
GR
GR
GS
[0.75 0 0 0.75 441.75 173.49347] CT
1 0 0 RC
N
f860094634
f
GR
GS
[0.75 0 0 0.75 441.75 173.49347] CT
1 0 0 RC
10.0 ML
N
0 -4 M
0 4 L
-4 0 M
4 0 L
S
GR
GS
[0.75 0 0 0.75 459 191.07245] CT
/Helvetica 19.2 F
GS
[1 0 0 1 0 0] CT
0 6.5 moveto 
1 -1 scale
(1) t 
GR
GR
GS
[0.75 0 0 0.75 441.75 191.07245] CT
0 0 1 RC
N
f1719669614
f
GR
GS
[0.75 0 0 0.75 441.75 191.07245] CT
0 0 1 RC
10.0 ML
N
-2.828 -2.828 M
2.828 2.828 L
-2.828 2.828 M
2.828 -2.828 L
S
GR
GS
[0.75 0 0 0.75 459 208.65144] CT
/Helvetica 19.2 F
GS
[1 0 0 1 0 0] CT
0 6.5 moveto 
1 -1 scale
(0) t 
GR
GR
GS
[0.75 0 0 0.75 441.75 208.65144] CT
N
f351177404
f
GR
GS
[0.75 0 0 0.75 441.75 208.65144] CT
10.0 ML
N
4 0 M
4 -2.209 2.209 -4 0 -4 C
-2.209 -4 -4 -2.209 -4 0 C
-4 2.209 -2.209 4 0 4 C
2.209 4 4 2.209 4 0 C
cp
S
GR
GS
[0.75 0 0 0.75 0 0.5] CT
0.149 GC
10.0 ML
0.667 LW
N
565 291 M
565 100 L
657 100 L
657 291 L
cp
S
GR
%%Trailer
%%Pages: 1
%%EOF
